{
  "content": [
    {
      "code": "738252649599956", 
      "created_time": 1418937077.0, 
      "link": "https://www.facebook.com/539684606123429/posts/738252649599956", 
      "message": "มิงกลาบา  พิมพ์มิงกลาบาเป็นภาษาพม่าไม่ได้ค่ะ  ได้เป็น แบบภาพด้านล่าง  แป้นตรงตัวมีงพิมพ์ไม่ได้หรือคะ", 
      "picture": "https://scontent.xx.fbcdn.net/hphotos-xfa1/v/t1.0-9/1502566_1526271860985731_2598561265746689434_n.jpg?oh=44bf3e6bba6ce84a34004520fad3b94f&oe=5646B125"
    }, 
    {
      "code": "738673002891254", 
      "created_time": 1419020974.0, 
      "link": "https://www.facebook.com/539684606123429/posts/738673002891254", 
      "message": "สวัสดีครับ ภาษาพม่าวันละคำวันนี้ เราลองมาเล่นปริศนาคำทายกันครับ  ปริศนาคำทายภาษาพม่าเรียกว่า สะ กา ถ่าစကားထာ โดยวันนี้ที่ผมจะมาทายคือ  ၅ေယာက္ကသယ္ ၃၀ကႀကိတ္ ဖ်ာႀကီးနဲ႔လွိမ့္ ဂူထဲသို႔သြင္း  โดยผมจะเขียนคำอ่านเป็นภาษาไทยแล้วตามด้วยความหมายให้  ၅ေယာက္ကသယ္ งาเย้าก์กะแต่  ၅ งา ห้า  ေယာက္ เย่าก์ คน  ลักษณะนาม   သယ္ แต่ ลำเลียง ขน ก  ၃၀ကႀကိတ္ โตงแส่กะเจ้ย ၃၀ โตงแส่  30   ႀကိတ္ เจ้ย บด โม่   ဖ်ာႀကီးနဲ႔လွိမ့္ พย่าจีแน้ะเล้ย ဖ်ာ พย่า เสื่อ  ႀကီး จี ใหญ่ နဲ႔ แน้ะ และ กับ โดย ในที่นี้ใช้ความหมายว่า โดย    လွိမ့္ เล้ย คลึง    ဂူထဲသို႔သြင္း กู่แทโต้ะตวิน ဂူ กู่ ถ้ำ  ထဲ แท  ข้างใน  သို႔ โต้ะ ยังที่ ถึง  สู่  သြင္း ตวิน นำเข้า  ทั้งหมดแปลได้ใจความว่า อะไรเอ่ย 5 คนร่วมขน 30 รุมบด คลึงด้วยเสื่อยักษ์ นำสู่ในถ้ำ ลองทายกันดูนะครับว่าหมายถึงอะไร               ขอให้มีความสุขในการเรียนภาษาพม่าครับ☺"
    }, 
    {
      "code": "734238166668071", 
      "created_time": 1418203548.0, 
      "link": "https://www.facebook.com/539684606123429/posts/734238166668071", 
      "message": "Myanmar numbers       ลองเขียนดูนะครับ  และ ถ่ายรูป แล้ว post มาใน comments  ผมอยากดูเป็นยังไงบ่าง   คิดแบบว่ากำลังใจไห้ผมนะครับ    ช้วยๆกันนะครับ ผมสอนไปอยู่คนเด่วก็เหมีอนบ้าเลย 555  ", 
      "picture": "https://fbcdn-vthumb-a.akamaihd.net/hvthumb-ak-xap1/v/t15.0-10/10821398_832763166765381_832761066765591_61020_1730_b.jpg?oh=0babe950987152df1e26a2ea510172e0&oe=56144E01&__gda__=1443795112_37e3b54360edfd149a7d61edae9aa8a3"
    }, 
    {
      "code": "738788879546333", 
      "created_time": 1419039908.0, 
      "link": "https://www.facebook.com/539684606123429/posts/738788879546333", 
      "message": "ชิดแด่โล๊ะ หล่วยหล่วยมะเปยียวบ่าแนะ อย่าพูดง่ายๆว่ารัก   นิ่นแยะเซกแทหม่า ตะแก่ฌิ้หมะต่าเปยียวบ่า ในใจของเธอมีจริงเมื่อไรค่อยพูด ", 
      "picture": "https://scontent.xx.fbcdn.net/hphotos-xap1/v/t1.0-9/10402731_755237301237395_2125434052656546357_n.jpg?oh=e7b988c74f9785ffb20507dc25342069&oe=56124B95"
    }, 
    {
      "code": "738364319588789", 
      "created_time": 1418962201.0, 
      "link": "https://www.facebook.com/539684606123429/posts/738364319588789", 
      "message": "ภาษาพม่าวันละคำวันนี้ขอเสนอคำว่า หญิงสาว กับ ชายหนุ่ม   ปกติเป็นที่ทราบกันดีว่า  หญิงสาว ในภาษาพม่าเรียกว่า เมยกะเลမိန္းကေလး ชายหนุ่ม เรียกว่า เย้าก์จาเล ေယာက်ၤားေလး แต่ในกลุ่มวัยรุ่น ဆယ္ေက်ာ္သက္လူ  พวกเค้ายังมีคำอื่นที่สามารถใช้เรียกได้อีกเป็นคำสั้นๆ โดยหญิงสาว ถูกเรียกว่า ส่อ ေဆာ္  ชายหนุ่มถูกเรียกว่า ဘဲ แบ ซึ่งคำว่า แบ ဘဲ นี้ยังมีความหมายอย่างอื่นอีก จะแปลว่า เป็ด ก็ได้ ดังนั้นหากหนุ่มไทยคนไหน คิดจะจีบสาวพม่า ต้องทำใจแต่เนิ่นๆเลยว่าอีกหน่อยคงต้องไปเป็น เจ้าเป็ดน้อย ของเหล่าบรรดาสาวๆพม่าแหงๆ     อิอิ ขอให้มีความสุขในการเรียนภาษาพม่าครับ"
    }, 
    {
      "code": "737857759639445", 
      "created_time": 1418862198.0, 
      "link": "https://www.facebook.com/539684606123429/posts/737857759639445", 
      "message": "อะชิดโส่ต่า ตะเหย่กวินอะซวนนะแพะ  หลู่นะเย่าไก่ทาตะโหล่บ่าแบ อันว่าความรักนั้นก็เหมือนคนสองคนที่จับขอบของยางยืดไว้คนละข้าง   ตะเย่าก๊ะ ลวดไล่หยิ่นเด๊าะ ตะเย่าก๊ะ หน่าจิ่นย่าหม่าแบ ถ้าหากคนหนึ่งปล่อยมืออีกคนก็จะได้รับความเจ็บปวด ", 
      "picture": "https://scontent.xx.fbcdn.net/hphotos-xpa1/v/t1.0-9/10513443_754265824667876_2827856121840647179_n.jpg?oh=ad16d2ca5f0269909c45578428687160&oe=565B64D5"
    }, 
    {
      "code": "738288936262994", 
      "created_time": 1418944583.0, 
      "link": "https://www.facebook.com/539684606123429/posts/738288936262994", 
      "message": "ขอให้แอดมิน สยา สยามะ และเพื่อน ๆ น้อง ๆ ทุกท่าน มีความสุข สุขภาพแข็งแรง เอาตัวให้อยุ่รอด แล้วจุะรุ่ง มุ่งสู่ความร่ำรวยกันนะค่ะ  คำศัพท์ถ้าผิดพลาดขออภัย    และขอคำแนะนำนะค่ะ ", 
      "picture": "https://fbcdn-sphotos-h-a.akamaihd.net/hphotos-ak-xpt1/v/t1.0-9/s720x720/10689731_10202962817702768_2591960274113807201_n.jpg?oh=aa7e5f8167fdacfc3d98f4d13a3a4351&oe=56141DCA&__gda__=1443761448_e14a8b89348fed6cb2dfbfa093985398"
    }, 
    {
      "code": "738420772916477", 
      "created_time": 1418972729.0, 
      "link": "https://www.facebook.com/539684606123429/posts/738420772916477", 
      "message": "หง่วยโส่ด่า บานไต่มะโฮ่วบู เงินไม่ใช่หลักชัย   บานไต่โก่ตัวหย่าหม่า ซีย่าแมะหยิ่นบ่า แต่เป็นพาหนะที่จะนำไปสู่หลักชัย ", 
      "picture": "https://scontent.xx.fbcdn.net/hphotos-xaf1/v/l/t1.0-9/1468542_754889537938838_6573263801134597130_n.jpg?oh=fcc879c97e325418cb70ee1620c31e64&oe=56152B50"
    }, 
    {
      "code": "738225992935955", 
      "created_time": 1418931449.0, 
      "link": "https://www.facebook.com/539684606123429/posts/738225992935955", 
      "message": "มิงกลาบาๆ วันนี้มาป่าขอเสนอคำว่า แหงะ นกจร้า ", 
      "picture": "https://fbcdn-sphotos-e-a.akamaihd.net/hphotos-ak-xpa1/v/t1.0-9/q82/p180x540/10405666_1539980456250888_5109903881787351106_n.jpg?oh=5aa9d4cac88551b1dfcb3195e9591cc7&oe=5654B6B5&__gda__=1443755586_fd0415982869c9d4d7832223a6e39de2"
    }, 
    {
      "code": "736628846429003", 
      "created_time": 1418627048.0, 
      "link": "https://www.facebook.com/539684606123429/posts/736628846429003", 
      "message": "สาวพม่าแอดมาสิ"
    }, 
    {
      "code": "737547719670449", 
      "created_time": 1418799602.0, 
      "link": "https://www.facebook.com/539684606123429/posts/737547719670449", 
      "message": "ขอขอบคุณครับ ที่กรุณารับเข้ากลุ่ม"
    }, 
    {
      "code": "736981039727117", 
      "created_time": 1418679699.0, 
      "link": "https://www.facebook.com/539684606123429/posts/736981039727117", 
      "message": "ผมชอบโพสของคุณ  กบ นพพร สุโขทัย  ที่โพสครั้งก่อนก็เลยเอามาแปลให้ดูครับ       ต่องป่อตาด่่่วยก๊ะ ชาวเขานั้น   อะชาน ด่านขั่งไหน่แด่ ทนทุกข์ต่อความหนาวเย็นไหว   อะลวน ด่านมะขั่งไหน่บู ทนทุกข์ต่อความโศกเศร้าไม่ไหว     อะหญ่าตาด่วยก๊ะ ชาวพม่าตอนบนนั้น   เหน่ปู่ต่า ขั่งไหน่แด่ ทนแดดร้อนไหว   หยิ่นปู่ต่า มะขั่งไหน่บู ทนร้อนใจไม่ไหว     เอ้าปยี่ตาด่วยก๊ะ ชาวพม่าตอนล่าง   โมเมียแด๊ะ ด่านขั่งไหนแด่ ทนทุกข์ต่อฝนที่ตกชุกไหว   โมงตัวแด๊ะ ด่านมะขั่งไหนบู ทนทุกข์ต่อการเกลียดชังกันไม่ไหว ", 
      "picture": "https://scontent.xx.fbcdn.net/hphotos-xtf1/v/t1.0-9/10429213_753114151449710_3590556366470049441_n.jpg?oh=b40fde2f2df4b204ce188df322560f29&oe=56565A57"
    }, 
    {
      "code": "735701043188450", 
      "created_time": 1418462024.0, 
      "link": "https://www.facebook.com/539684606123429/posts/735701043188450", 
      "message": "ข่อโล๊ะแล มะวะ เรียกก็ไม่อิ่ม   ชิดโล๊ะแล มะโซง รักก็ไม่สิ้นสุด    อะเหม่ โส่แด๊ะ หน่าเหม่เลนะโลง ชื่อสองคำนั้นคือ  แม่    จี้โล๊ะแล มะวะ อะไนแมะแด๊ะอะโปยง การยิ้มที่ไร้ที่เปรียบดูก็ไม่อิ่ม   ดี่ก่ามบ่าหมี่ ตะคุโลงหม่า  อะเหม่ ตี่ต่าอะล้าโซง  แม่ เท่านั้นผู้ที่สวยที่สุดในโลกใบนี้ ", 
      "picture": "https://scontent.xx.fbcdn.net/hphotos-xpa1/v/t1.0-9/10696373_751822378245554_2232182265130438187_n.jpg?oh=eb2d8235707f9e5f1566fe8672d08c0b&oe=565CB2BB"
    }, 
    {
      "code": "737400813018473", 
      "created_time": 1418767420.0, 
      "link": "https://www.facebook.com/539684606123429/posts/737400813018473", 
      "message": "ေက်းဇဴးျပဳ၍ ဘာသာျပန္ေပးလိုက္ၾကပါ ခင္ဗ်ာ", 
      "picture": "https://fbcdn-sphotos-e-a.akamaihd.net/hphotos-ak-xfa1/v/t1.0-9/s720x720/10846279_1510843065842664_332277536283080860_n.jpg?oh=fb77f2c8f6722a37f8859a69e2725eaa&oe=564767DB&__gda__=1448705545_73a75cf2dc572a587582fbaef60f65e9"
    }, 
    {
      "code": "737395933018961", 
      "created_time": 1418766119.0, 
      "link": "https://www.facebook.com/539684606123429/posts/737395933018961", 
      "message": "อะชิดก๊ะ เลแนะแด่โส่หยิ่น หากว่า  ความรักนั้น  ลึกซึ้ง   ตะแหง่จินก๊ะ โป่บยีแนะไฌบ่าแด่  เพื่อนนั้น  ลึกซึ้งยิ่งกว่า ", 
      "picture": "https://fbcdn-sphotos-a-a.akamaihd.net/hphotos-ak-xfa1/v/t1.0-9/1907333_753628864731572_6115961025661358866_n.jpg?oh=15958fca7b62b180dbbe8397184e49d0&oe=5648707F&__gda__=1447739439_f79ef24a81369e774dd3c0073463dbfb"
    }, 
    {
      "code": "737401143018440", 
      "created_time": 1418767533.0, 
      "link": "https://www.facebook.com/539684606123429/posts/737401143018440", 
      "message": "ဘုရားသားေတာ္ဆိုတာ သိကၡာရွိစြာေနအပ္ပါတယ္", 
      "picture": "https://scontent.xx.fbcdn.net/hphotos-xaf1/v/t1.0-9/10849722_1510843382509299_8407046906482905822_n.jpg?oh=c68b929660683bedfeb0cd6f78d27689&oe=561180F3"
    }, 
    {
      "code": "737400423018512", 
      "created_time": 1418767310.0, 
      "link": "https://www.facebook.com/539684606123429/posts/737400423018512", 
      "message": "เมื่อวานสงสัยเรื่องเลข 7 ในการออกเสียง ข่นและคุนิด เลยถามพี่พม่าพูดไทยได้ เรา   พี่ๆ 37 ออกเสียง ตง เซ ข่น ทำไมไม่ออกเสียงว่า ตง เซ คุนิดล่ะ พี่วัน   ก็เหมือนเลข 11 สิบเอ็ด ทำไมไม่ออกเสียง สิบหนึ่งล่ะ  ยิ้ม  เรา   เออ  เนอะ555555"
    }, 
    {
      "code": "737141719711049", 
      "created_time": 1418715588.0, 
      "link": "https://www.facebook.com/539684606123429/posts/737141719711049", 
      "message": "อะแคะอะแคมะฌิ้ หล่วยกู่เหน่หยิ่น ถ้ามันง่ายดายไม่มีความยุ่งยาก   อะหยี่อะชีนโส่ด่า ต่านโพแม๊ะตัวหม่าเบ๊าะ คุณสมบัติก็คือไร้ค่าไปน่ะซิ ", 
      "picture": "https://scontent.xx.fbcdn.net/hphotos-xpf1/v/t1.0-9/1546271_753310018096790_7576887015816896974_n.jpg?oh=3a00575cfb7d6cbbc1545a10a0b6ad61&oe=5653BC22"
    }, 
    {
      "code": "737377379687483", 
      "created_time": 1418761631.0, 
      "link": "https://www.facebook.com/539684606123429/posts/737377379687483", 
      "message": "มิงกลาบา  ", 
      "picture": "https://fbcdn-sphotos-c-a.akamaihd.net/hphotos-ak-xtf1/v/t1.0-9/10525990_1539003619681905_4991500882365626255_n.jpg?oh=5f9eb94ac8b956fb4ddb97bcf8fbb91f&oe=56496571&__gda__=1448010201_acd07d05edb0f04bd8d79a347db429f7"
    }
  ], 
  "page_id": "539684606123429"
}