{
  "content": [
    {
      "code": "724009597690928", 
      "created_time": 1416463935.0, 
      "link": "https://www.facebook.com/539684606123429/posts/724009597690928", 
      "message": "ขอบคุณคะ"
    }, 
    {
      "code": "724008741024347", 
      "created_time": 1416463859.0, 
      "link": "https://www.facebook.com/539684606123429/posts/724008741024347", 
      "message": "ขอบคุณครับ ที่รับ"
    }, 
    {
      "code": "724832014275353", 
      "created_time": 1416609564.0, 
      "link": "https://www.facebook.com/539684606123429/posts/724832014275353", 
      "message": "ขอบคุณค่ะ"
    }, 
    {
      "code": "725319857559902", 
      "created_time": 1416695165.0, 
      "link": "https://www.facebook.com/539684606123429/posts/725319857559902", 
      "message": "อันนี้ชอบมากๆครับแต่สระอาจเขียนไม่ครบเพราะก็อปรูปเขามาแต่ความหมายดีครับ     อะนาหม่าฌิ เน่สิ่นหม่า อยู่ใกล้ทุกวัน   กะยุไส้บ่า ปิ้วซุบ่า จงเอาใจใส่จงดูแล   เวตัวหมะ ลวนมะเปี้ยแนะ เมื่อห่างใกลกันอย่าได้แสดงการถวิลหา   โซงตัวหมะ โหง่มะเปี้ยแนะ เมื่อสูญสิ้นไปอย่าได้แสดงการร้องให้   ลอก๊ะหม่า แบ่อะหย่าแนะหมะ ไม่มีสิ่งใดในโลก   อะซาโทโล๊ะ มะย่าไหน่ด่าก๊ะ มิบ๊ะ ที่จะมาแทนที่พ่อแม่ได้ ", 
      "picture": "https://scontent.xx.fbcdn.net/hphotos-xfp1/v/t1.0-9/10422486_740922636002195_9093250375729648164_n.jpg?oh=ee70e915ecdfd6db461cab5df9fccd79&oe=564A984A"
    }, 
    {
      "code": "725476634210891", 
      "created_time": 1416723717.0, 
      "link": "https://www.facebook.com/539684606123429/posts/725476634210891", 
      "message": "လ လဝါဝါ ထိန္ထိန္သာ    ล๊ะ ล๊ะหว่าหว่า เทงเทงต่า    พระจันทร์สีเหลือง ส่องประกายนวลผ่อง ဝ ဝတုတ္တုတ္ ဖိုးဝရုပ္   ว๊ะ ว๊ะโต๊ะโต๊ะ โพว๊ะโย๊ะ    อ้วนปุ๊กลุ๊ก ตุ๊กตาโพว๊ะโย๊ะ သ သေျပညိဳ ေအာင္ပြဲႀကိဳ   ต๊ะ ต่ะเปฺยโหญ่ เอ่าแปฺวโจ่    ดอกหว้าสีน้ำตาล ต้อนรับชัยชนะ ဟ ဟ ဟာ ဟ ရယ္လိုက္ရ   ห๊ะ ห๊ะ ห่า ห๊ะ แหย่ไล้ย๊ะ    ฮ่าฮ่าฮ่า ได้หัวเราะ အ အမိေျမ တို႔တိုင္းျပည္ ငါတို႔ ခ်စ္တဲ့ ေျမ   อ๊ะ อ่ะมิเมฺย่ โด๊ะไตเปฺย่่ หง่าโด๊ะ ชิแด๊ เมฺย่    แผ่นดินแม่ ประเทศของเรา แผ่นดินที่พวกเรารัก  ျပည္ ကို  ေျပ  ဟု အသံထြက္ပါ။   ปฺยี่ โก่ เปฺย่ หุ๊ อ่ะตั่นแทฺวะบ่า    ให้ออกเสียง ปฺยี่ เป็น เปฺย่", 
      "picture": "https://fbcdn-sphotos-g-a.akamaihd.net/hphotos-ak-xfa1/v/t1.0-9/s720x720/10429379_557143857749655_7623042339098735614_n.jpg?oh=fe4ac5073d927399c3738fc9bef9962d&oe=5659F20D&__gda__=1447512543_74ae1d8fc61a9cbe88311e8e24dbec08"
    }, 
    {
      "code": "725472584211296", 
      "created_time": 1416722986.0, 
      "link": "https://www.facebook.com/539684606123429/posts/725472584211296", 
      "message": "ဗ ဗလႀကီး ဆင္ေျပာင္စီး   บ๊ะ บะละจี สิ่นเปฺยาซี    คนอ้วนบึกบึน ขี่ช้างคล่อง ဘ ဘဘိုးအို ဆီးလို႔ႀကိဳ   บ๊ะ บ่ะโบโอ่ ซีโล้โจ่    คุณตาแก่ ปรี่รี่เข้ามาต้อนรับ မ မမေလး ဝလံုးေရး   ม๊ะ มะมะเล วะลงเย    น้องสาว เขียนวะลง  ตัวอักษร ว๊ะ  ယ ယမင္းခင္ ကႀကိဳးဆင္   ยะ ย่ะมินขิ่น ก๊ะโจสิ่น    หุ่นกระบอกตัวพระ รำเหมือนคนจริง ရ ရထားႀကီး ေပ်ာ္ေပ်ာ္စီး   ยะ หย่ะทาจี ปฺยอปฺยอซี    รถไฟใหญ่ ขี่สนุกสนาน", 
      "picture": "https://fbcdn-sphotos-c-a.akamaihd.net/hphotos-ak-xfa1/v/t1.0-9/s720x720/560221_557140327750008_466239162027454698_n.jpg?oh=4adee8f3596981a31018c2d8a0017ef9&oe=561118BC&__gda__=1447464630_dafc2a12f93ee1eaab5c00325bdd83ec"
    }, 
    {
      "code": "725464174212137", 
      "created_time": 1416721891.0, 
      "link": "https://www.facebook.com/539684606123429/posts/725464174212137", 
      "message": "วันนี้ เอาที่เหลืออีก 15 ตัวมาแปะครับ    อัพทีละรูปเนอะ  ဒ ဒရယ္ယုန္ သားမ်ိဳးစံု   ด๊ะ ด่ะแหย่หย่ง ตาโมฺยส่ง    กวางดาวกระต่าย สัตว์ป่าหลากชนิด ဓ ဓနိတန္း ပင္လယ္ကမ္း   ด๊ะ ด่ะนิตัน ปิ่นแหล่กัน    แนวต้นจาก ริมทะเล န နဖူးျပင္ နံ႔သာတင္   น๊ะ หน่ะพูปฺยิน นั้นต่าติ่น    แต่งหน้าผาก ขึ้นเครื่องหอม ပ ပေလြမႈတ္ ကိုဖိုးတုတ္   ป๊ะ ป่ะแลฺวโหม๊ะ โก่โพโต๊ะ    เป่าขลุ่ย นายโพโต๊ะ ဖ ဖရံုယို အလြန္ခ်ိဳ   พ๊ะ ผ่ะหย่งโหย่ อ่ะหลุ่นโฉ่    ฟักเขียวเชื่อม หวานมาก", 
      "picture": "https://scontent.xx.fbcdn.net/hphotos-xat1/v/t1.0-9/s720x720/10407446_557133287750712_4109520873611203172_n.jpg?oh=047bea344f391df43bdd15e5ddc8435c&oe=56496B58"
    }, 
    {
      "code": "725372907554597", 
      "created_time": 1416704970.0, 
      "link": "https://www.facebook.com/539684606123429/posts/725372907554597", 
      "message": "ว   คุณพ่อชื่อ          และคุณแม่ชื่อ     ค่ะ  အေဖ့နာမည္          အေမ့နာမည္   ပါရွင္း ท   พ่อแม่ทำงานอะไรบ้างครับ  မိဘေတြဘာအလုပ္လုပ္သလဲ ว   คุณพ่อคุณแม่ไม่มีงานค่ะ  แต่ว่าคุณพ่อคุณแม่ทำงานไม่ไหวแล้วค่ะ  အေဖအေမအလုပ္္မရွိဘူး ဒါေပမယ့္အေဖနဲ႔အေမအလုပ္လုပ္မႏုိင္ေတာ့ဘူးရွင္း ท   พ่อแม่ไม่สบายหรือ เป็นอะไรครับ   မိဘေတြဘာျဖစ္လို႔လဲ က်မၼာေရးမေကာင္းလို႔လား ว   คุณพ่อสบายดีค่ะ คุณแม่ไม่ค่อยสบายค่ะ  အေဖေတာ့ေနေကာင္းပါတယ္ အေမက်မၼာေရးသိပ္မေကာင္းဘူးရွင္း ท   แล้วมีพี่น้องกี่คนครับ  ၿပီးေတာ့ ေမာင္ႏွမေတြဘယ္ႏွစ္ေယာက္ရွိလဲ ว   ทั้งหมดมี ๔ คนค่ะ พี่ชายหนึ่งคนและน้องสาวสองคนค่ะ  အားလံုး ၄ ေယာက္ပါအစ္ကို ၁ ေယာက္ညီမ ၂ ေယာက္ပါရွင္း ท   และพี่ชายทำอะไรอยู่ครับ  ၿပီးေတာ့အစ္ကိုဘာလုပ္ေနလဲ ว   หนูไม่ทราบค่ะ พี่ชายอยู่ยังกุ้งค่ะ  က်မမသိဘူး အစ္ကိုရန္ကုန္မွာပါ     က်ေနာ္ေရးတာ စာက်န္ခဲ့ရင္ျဖည့္ဆည္းေပးပါ  ဦးမင္းသက္ထြန္း ဆီကကူးယူေဖၚျပပါသည္။ အားလံုးကိုခ်စ္တယ္ ေမာင္ေမာင္ အာဘြားေနာ္ ခိခိ", 
      "picture": "https://fbcdn-sphotos-a-a.akamaihd.net/hphotos-ak-xfa1/v/t1.0-9/p180x540/10641199_1515406445391028_5726465428217577391_n.jpg?oh=3669394f1714261a834c7d369268f875&oe=564C8F75&__gda__=1444474366_566e033ae7685dbd801654a8157e3c6b"
    }, 
    {
      "code": "724584154300139", 
      "created_time": 1416563510.0, 
      "link": "https://www.facebook.com/539684606123429/posts/724584154300139", 
      "message": "รูปนี้น่ารักดีและมีคำพ้องเสียงไม่พ้องรูปอยู่ด้วย ชิด ที่มีความหมายว่า รัก กับ ชิด ที่มีความหมายว่า ข่วน ขูด   ชิดสะหย่าเล น่ารักจัง   แนแนเล่า ชิดจี้โองหม่าแบ จะลองข่วนดูหน่อยเดียวเอง ", 
      "picture": "https://scontent.xx.fbcdn.net/hphotos-xpa1/v/t1.0-9/1512740_740019442759181_3323991723485558552_n.jpg?oh=c5b262d6d1313f37ba662bc7c729a31b&oe=56592A8B"
    }, 
    {
      "code": "725198357572052", 
      "created_time": 1416672465.0, 
      "link": "https://www.facebook.com/539684606123429/posts/725198357572052", 
      "message": "ขออนุญาติอาจารย์แอดมิน ประกาศรับสมัครติวเตอร์ งานทั้งคนไทยและคนพม่า  MyanmarZA ดำเนินธุรกิจเทรนนิ่งด้านภาษาพม่าอย่างจริงจัง  ทั้งระบบออนไลน์ และระบบ ห้องเรียน เปิดรับ  ครูสอน  และ  นักเขียนบทความด้านภาษาพม่า   ไม่จำกัด วุฒิการศึกษา  ขอให้ตีโจทก์ให้แตก  ก่อนมาคุยกันครับ จะรับเงินเดือน หรือ ผลตอบแทนอย่างใด มาจิบกาแฟคุยกันยาว ๆ   เรียน และอ่านได้บนระบบออนไลน์ iPhone   iPad   Android   Browser ติดต่อผ่าน inbox f burmese สะดวกที่สุดครับ  ขอบคุณครับ", 
      "picture": "https://scontent.xx.fbcdn.net/hphotos-xaf1/v/t1.0-9/1480503_759412034124609_8317379943961555406_n.jpg?oh=eca8f48c3dee9578c4f59f175ec0fdde&oe=565359C7"
    }, 
    {
      "code": "724943944264160", 
      "created_time": 1416630398.0, 
      "link": "https://www.facebook.com/539684606123429/posts/724943944264160", 
      "message": "ရွင္ျပဳနားသ အလွဴေတာ္မဂၤလာပြဲ ရွင္ေလာင္းလွည့္ေနစဥ္ Mandalay  ", 
      "picture": "https://fbcdn-sphotos-g-a.akamaihd.net/hphotos-ak-xaf1/v/t1.0-9/10802060_1501152716811699_1410572125248928269_n.jpg?oh=0cb012f42508c4cd9b41168ecd68907c&oe=561AF66A&__gda__=1448047069_9d54c071cb6b9526836a3ca0856ce03c"
    }, 
    {
      "code": "724580907633797", 
      "created_time": 1416562917.0, 
      "link": "https://www.facebook.com/539684606123429/posts/724580907633797", 
      "message": "12345", 
      "picture": "https://fbcdn-vthumb-a.akamaihd.net/hvthumb-ak-xap1/v/t15.0-10/1976421_822470257794672_822468961128135_11575_2063_b.jpg?oh=75c30bbd5b84404e83e735cd44d88a1a&oe=56542837&__gda__=1448391905_207e0ceaf13216cbc5ad57e405c05240"
    }, 
    {
      "code": "724961614262393", 
      "created_time": 1416633144.0, 
      "link": "https://www.facebook.com/539684606123429/posts/724961614262393", 
      "message": "โม่เล่ย์ชิวี่  เมี่ยะๆซิล่ะวี่ แปลว่าอะไรคะ"
    }, 
    {
      "code": "724258050999416", 
      "created_time": 1416505709.0, 
      "link": "https://www.facebook.com/539684606123429/posts/724258050999416", 
      "message": "ถูกผิดบอกด้วยครับ", 
      "picture": "https://fbcdn-sphotos-d-a.akamaihd.net/hphotos-ak-xfp1/v/t1.0-9/10616216_10203256612202636_5878005564449430326_n.jpg?oh=0d290d43d9f995f3b6d4d475afc400cd&oe=565A45D4&__gda__=1444107697_d30e328ac69795540c49cd12cfa1a4d0"
    }, 
    {
      "code": "724432997648588", 
      "created_time": 1416544139.0, 
      "link": "https://www.facebook.com/539684606123429/posts/724432997648588", 
      "message": "อันนี้รถขายของพม่าค่ะเข้ามาขายในโรงงาน เลยได้ทานาคามาทาหน้า 1 กระปุก คำถาม     ถั่วคั่วนี่เรียกว่าอะไรคะ    ", 
      "picture": "https://fbcdn-sphotos-d-a.akamaihd.net/hphotos-ak-xpf1/v/t1.0-9/p180x540/10421154_1499544103640872_7865845032668873683_n.jpg?oh=127f48d5c46eb1caadebc2a3870dbcd1&oe=56534068&__gda__=1447831491_8b38adaccb8e3afa8c236f3720a74b5a"
    }
  ], 
  "page_id": "539684606123429"
}