{
  "content": [
    {
      "code": "755437671214787", 
      "created_time": 1421046585.0, 
      "link": "https://www.facebook.com/539684606123429/posts/755437671214787", 
      "message": "ซา  ตลา ", 
      "picture": "https://fbcdn-sphotos-h-a.akamaihd.net/hphotos-ak-xpf1/v/t34.0-12/s720x720/10814275_1505215313094348_770110191_n.jpg?oh=1ae7c6ad6983746bebc21bdb6e0868aa&oe=55B238A8&__gda__=1437800599_48fd231fd54c39b19f4c339f17f40621"
    }, 
    {
      "code": "755189074572980", 
      "created_time": 1421005959.0, 
      "link": "https://www.facebook.com/539684606123429/posts/755189074572980", 
      "message": "ขอบคุณครับ"
    }, 
    {
      "code": "755527204539167", 
      "created_time": 1421060763.0, 
      "link": "https://www.facebook.com/539684606123429/posts/755527204539167", 
      "message": "ภาษาไทย   พี่อย่าทิ้งฉันไปไหนนะ", 
      "picture": "https://scontent.xx.fbcdn.net/hphotos-xtf1/v/t1.0-9/s720x720/10518633_997270920302673_6055039513828563017_n.jpg?oh=feb09822af4cd764d63d832215e47d3e&oe=561B84BB"
    }, 
    {
      "code": "755229497902271", 
      "created_time": 1421014506.0, 
      "link": "https://www.facebook.com/539684606123429/posts/755229497902271", 
      "message": "อะหล่วยโซงอะโล้บก๊ะ งานที่ง่ายที่สุดคือ  ตู่เมียอะปยี้ดโก่ฉ่าบิ๊ เท่าเปยี้ยย่าแด๊ะอะโล้บ การที่ต้องจับผิดแล้วรายงานความผิดของผู้อื่น  อะแคะโซงอะโล้บก๊ะ งานที่ยากที่สุดนั้นคือ  มิมิอะปยี้ดโก่มิมิเปยี่ยนฉ่าบิ๊ ปยิ้วปยี่นย่าแด๊ะอะโล้บ การที่ต้องสำรวจหาความผิดพลาดของตนเองแล้วปรับปรุงแก้ไข  อะปยี่นปานโซงอะโล้บก๊ะ งานที่เหน็ดเหนื่อยที่สุดนั้นคือ  หลู่ตะเย่าโก่ อะยานชิดเหน่แด๊ะอะโล้บ การที่ต้องรักคนคนหนึ่งอยู่อย่างมากมาย", 
      "picture": "https://scontent.xx.fbcdn.net/hphotos-xfp1/v/t1.0-9/1463183_770911969669928_7450686162004337396_n.jpg?oh=3b0ace6a92ec6fef6d1d526d6aec2fbe&oe=5649A78D"
    }, 
    {
      "code": "754100964681791", 
      "created_time": 1420867495.0, 
      "link": "https://www.facebook.com/539684606123429/posts/754100964681791", 
      "message": "ขอบคุณที่รับเข้ากลุ่มคะ"
    }, 
    {
      "code": "754185688006652", 
      "created_time": 1420880921.0, 
      "link": "https://www.facebook.com/539684606123429/posts/754185688006652", 
      "message": "ติ๊ย๊วยโส่ด่าอะหญ่ามะไข่หลิ่น อันว่าใบไม้นั้นหากขั้วไม่ทนทานแล้ว  โหม่งไตใต้โพ๊ะมะโหล่บู เหล่ปยี่ใต้แลจ่วยแด่ ไม่ต้องถึงลมพายุพัดแค่สายลมเอื่อยๆพัดก็ร่วง   หลู่โส่ด่าเซ้กด๊าดมะไข่หลิ่น อันว่าคนหากจิตใจไม่ทนทานแล้ว   ดาแนะต๊าดโพ๊ะมะโหล่บู สะกาแนะต๊าดแลเต่แด่ ไม่ต้องใช้มีดฆ่าแค่ใช้คำพูดฆ่าก็ตาย ", 
      "picture": "https://fbcdn-sphotos-c-a.akamaihd.net/hphotos-ak-xtf1/v/t1.0-9/10931353_770165156411276_6226794982523175855_n.jpg?oh=f56f54698aab04f8f9f2c158c67b04fd&oe=560DFF7C&__gda__=1448026151_e68965b9b255381ea027fa78f4a50d0b"
    }, 
    {
      "code": "755244624567425", 
      "created_time": 1421018028.0, 
      "link": "https://www.facebook.com/539684606123429/posts/755244624567425", 
      "message": "ฝากประชาสัมพันธ์ค่ะ หาผู้หญิงคนพูดภาษาพม่าได้ และอยู่ใน กทม  ขอคนที่สามารถสื่อสารภาษาไทยหรืออังกฤษได้ด้วยนะคะ อัดเสียงลงวิดีโอ ความยาว 10 นาที มีสคริปให้อ่าน ขอคนที่ว่างเสาร์ หรือ อาทิตย์เพราะต้องไปห้องอัด ค่าตอบแทน 2 000 บาทค่ะ สนใจแอดไลน์มาได้เลยนะคะ ID   starbuckonly"
    }, 
    {
      "code": "754640154627872", 
      "created_time": 1420961749.0, 
      "link": "https://www.facebook.com/539684606123429/posts/754640154627872", 
      "message": "ေက်းဇူးအမ်ားၾကီးတင္ပါတယ္ခင္ဗ်ာ။"
    }, 
    {
      "code": "751524068272814", 
      "created_time": 1420495656.0, 
      "link": "https://www.facebook.com/539684606123429/posts/751524068272814", 
      "message": "แอดมินส่งของขวัญให้แล้วนะครับ   ", 
      "picture": "https://fbcdn-sphotos-h-a.akamaihd.net/hphotos-ak-xpf1/v/t34.0-12/s720x720/10887963_1045736172118810_462536414_n.jpg?oh=da6bcb52b3dd4adf93eb61be9f770bba&oe=55B37287&__gda__=1437804024_26a1e338be3aedaa768e8a9d07839b35"
    }, 
    {
      "code": "753630778062143", 
      "created_time": 1420787137.0, 
      "link": "https://www.facebook.com/539684606123429/posts/753630778062143", 
      "message": "ขอบคุณมากๆ  คุณ Admin และ  พี่ชายWeera Poocharoen  นะครับ ใด้รับของ  และชอบมากด้วยครับ   ", 
      "picture": "https://scontent.xx.fbcdn.net/hphotos-xpf1/v/t1.0-9/q83/s720x720/1601589_852036391504725_1361377093876487293_n.jpg?oh=18b0bf6d8630baed203780edfce3b44f&oe=56179B29"
    }, 
    {
      "code": "750960288329192", 
      "created_time": 1420431618.0, 
      "link": "https://www.facebook.com/539684606123429/posts/750960288329192", 
      "message": "รบกวนแปลให้หน่อยได้ไหมค่ะ เพื่อนๆ เจซูติ่นบ่าแด่ชิน", 
      "picture": "https://fbcdn-sphotos-b-a.akamaihd.net/hphotos-ak-xpt1/v/t1.0-9/10456451_319618134915133_109354875398296325_n.jpg?oh=03e3cb9190c517f95e5131715d20bc28&oe=56194B59&__gda__=1448852754_e87216097bf1fc5b3f5344e318b468fc"
    }, 
    {
      "code": "753224568102764", 
      "created_time": 1420704776.0, 
      "link": "https://www.facebook.com/539684606123429/posts/753224568102764", 
      "message": "มิงกะลาบ่า จะมะ   โย  เดีย ลูเมียว พยิ่ด บ่าแด่"
    }, 
    {
      "code": "753241644767723", 
      "created_time": 1420707469.0, 
      "link": "https://www.facebook.com/539684606123429/posts/753241644767723", 
      "message": "ต่านโพฌิ้แด่โส่ด่า อันว่ามีคุณค่าคือ   โก่ก๊ะต่านโพทาต๊าดหมะ เมื่อเรานั้นรู้จักเห็นคุณค่า   ต่านโพฌิ้ต่าบ่า ก็มีคุณค่า   ต่านโพฌิ้แด๊ะตู่ตะเย่าพยี๊ดโพ๊ะ การที่จะเป็นผู้ที่มีคุณค่าคนหนึ่งนั้น   โก๊ะโก่โก่ต่านโพทาบ่า ก็จงเห็นคุณค่าของตัวเอง ", 
      "picture": "https://fbcdn-sphotos-g-a.akamaihd.net/hphotos-ak-xpt1/v/t1.0-9/10924749_769086656519126_5581988632296849806_n.jpg?oh=7719cd0c15f77f5c11d3c7fea5bdde71&oe=56589762&__gda__=1444490086_6ffcf3ea790c1250eea2e2880c848acd"
    }, 
    {
      "code": "753006534791234", 
      "created_time": 1420685129.0, 
      "link": "https://www.facebook.com/539684606123429/posts/753006534791234", 
      "message": "ขะเลมยาเหนะ แปลว่า วัยเด็ก", 
      "picture": "https://scontent.xx.fbcdn.net/hphotos-xpa1/v/t1.0-9/p180x540/10898298_1584292538470484_8851636073184894024_n.jpg?oh=5ae2ddf822821e5f78209aa8971d66bc&oe=565C5F9D"
    }, 
    {
      "code": "752966048128616", 
      "created_time": 1420682051.0, 
      "link": "https://www.facebook.com/539684606123429/posts/752966048128616", 
      "message": "คำว่า  ภาษาไทยสำหรับคนพม่า   ช่วยเขียนเป็นภาษาพม่าให้หน่อยค่ะ"
    }, 
    {
      "code": "752867144805173", 
      "created_time": 1420666810.0, 
      "link": "https://www.facebook.com/539684606123429/posts/752867144805173", 
      "message": "ขอบคุณที่รับแอดค่ะ"
    }, 
    {
      "code": "752155578209663", 
      "created_time": 1420573481.0, 
      "link": "https://www.facebook.com/539684606123429/posts/752155578209663", 
      "message": "แปลๆๆๆๆ", 
      "picture": "https://scontent.xx.fbcdn.net/hphotos-xfp1/v/t1.0-9/10409195_320206768189603_5897680896222214634_n.jpg?oh=dd426aa16efc87ebb6a2ca8c20bfb272&oe=56513F49"
    }, 
    {
      "code": "752155768209644", 
      "created_time": 1420573528.0, 
      "link": "https://www.facebook.com/539684606123429/posts/752155768209644", 
      "message": "แปลหน่อยนะค่ะ", 
      "picture": "https://fbcdn-sphotos-f-a.akamaihd.net/hphotos-ak-xpt1/v/t1.0-9/10928169_320206891522924_6775098676337366100_n.jpg?oh=304e4a46f2a1f1e8792b039e8e7aff21&oe=565637B0&__gda__=1447483316_c75135df9585a8f0c27ea412325a4e14"
    }, 
    {
      "code": "752155388209682", 
      "created_time": 1420573442.0, 
      "link": "https://www.facebook.com/539684606123429/posts/752155388209682", 
      "message": "แปลๆๆๆ", 
      "picture": "https://scontent.xx.fbcdn.net/hphotos-xfp1/v/t1.0-9/10906482_320206614856285_202547017202738547_n.jpg?oh=7d44d2c82c872dbb637ab7a2b0dbad41&oe=565173BD"
    }, 
    {
      "code": "751759011582653", 
      "created_time": 1420522756.0, 
      "link": "https://www.facebook.com/539684606123429/posts/751759011582653", 
      "message": "ใครอยู่ใกล้ๆ สุขุมวิท 103 บ่างครับ อยากจะไห้หนังสือพม่า    "
    }, 
    {
      "code": "752154931543061", 
      "created_time": 1420573359.0, 
      "link": "https://www.facebook.com/539684606123429/posts/752154931543061", 
      "message": "อีกอันนึนีร้า อย่าเพิ่งเบื่ออ", 
      "picture": "https://scontent.xx.fbcdn.net/hphotos-xft1/v/t1.0-9/10277594_320206001523013_108702562808180181_n.jpg?oh=c3a93375af7575fcbe3f596a0cbe8e94&oe=565551F1"
    }, 
    {
      "code": "752153484876539", 
      "created_time": 1420573091.0, 
      "link": "https://www.facebook.com/539684606123429/posts/752153484876539", 
      "message": "แปลหั้ยหน่อยจิ", 
      "picture": "https://fbcdn-sphotos-g-a.akamaihd.net/hphotos-ak-xfa1/v/t1.0-9/10550869_320205228189757_6238504020555269196_n.jpg?oh=303aa69cb951f261525d5382c7370c9d&oe=5650E77F&__gda__=1448552777_6d5ed0518df12a0f4752ec30879c2c7d"
    }, 
    {
      "code": "748313118593909", 
      "created_time": 1420173190.0, 
      "link": "https://www.facebook.com/539684606123429/posts/748313118593909", 
      "message": "มาเที่ยวกันคร้าบ", 
      "picture": "https://scontent.xx.fbcdn.net/hphotos-xfp1/v/t1.0-9/p720x720/10888878_818711598196390_2302845938650778728_n.jpg?oh=9ad4ca18bf505008c5409af6232fb09f&oe=561481F2"
    }, 
    {
      "code": "751877341570820", 
      "created_time": 1420542180.0, 
      "link": "https://www.facebook.com/539684606123429/posts/751877341570820", 
      "message": "เทอรักฉันทีใจหรือที่อะไรกันแน่พุดไงหรอคะ"
    }
  ], 
  "page_id": "539684606123429"
}