{
  "content": [
    {
      "code": "770646429693911", 
      "created_time": 1423606730.0, 
      "link": "https://www.facebook.com/539684606123429/posts/770646429693911", 
      "message": "ซามาลา    แปลว่า    กินมั้ย", 
      "picture": "https://fbcdn-sphotos-h-a.akamaihd.net/hphotos-ak-xpf1/v/t34.0-12/s720x720/10961946_1535199376762608_622779512_n.jpg?oh=8539f2b17cef1c12221955d466470eff&oe=55B3431A&__gda__=1437807077_8bda55dbd66722ed686efc05a4fb4840"
    }, 
    {
      "code": "775749675850253", 
      "created_time": 1424501007.0, 
      "link": "https://www.facebook.com/539684606123429/posts/775749675850253", 
      "message": "เรียนถาม อ Aung Kyaw เป็นเป็นโยคที่มักจะใช้กันบ่อยๆ ดังนี้ครับ    1 เกิดเรื่องอะไรขึ้นครับ    2 เขาโดนทำร้ายร่างกาย    3 ผมขอยกเลิกทั้งหมด    4 ผมจะขอเช่าห้องพัก 1 คืน    5 ที่ไหนรับแลกเงินบ้างครับ    คำถามทั้งหมดภาษาพม่าว่าไงครับ"
    }, 
    {
      "code": "775583552533532", 
      "created_time": 1424468532.0, 
      "link": "https://www.facebook.com/539684606123429/posts/775583552533532", 
      "message": "ตี้ เย๊บ ร่มเงาไม้   วา เย๊บ ร่มเงาไผ่   อะ ชิ เย๊บ ร่มเงาความรัก   แทะ กว่า   มิ บ๊ะ อะ เย๊บ ก๊ะ ร่มเงาพ่อแม่นั้น  โป่ บยี เกินกว่า   เอ เมี๊ยด ตี่ ชุ่มเย็น    เรียบเรียงแล้วก็ประมาณนี้ครับ   ร่มเงาไม้ ร่มเงาไผ่ ร่มเงาความรัก หรือจะชุ่มเย็นเกินกว่า ร่มเงาพ่อแม่นั้น", 
      "picture": "https://scontent.xx.fbcdn.net/hphotos-xfa1/v/t1.0-9/10995929_793069940787464_4953725412523150505_n.jpg?oh=92e91b65c6cef2e639a020500c270c11&oe=564FF12F"
    }, 
    {
      "code": "775571599201394", 
      "created_time": 1424465747.0, 
      "link": "https://www.facebook.com/539684606123429/posts/775571599201394", 
      "message": "เพราะมากๆๆๆ", 
      "picture": "https://fbexternal-a.akamaihd.net/safe_image.php?d=AQC5uoIXIn2bi549&w=360&h=360&url=http%3A%2F%2Fi.ytimg.com%2Fvi%2FEUGWJdjQLeo%2Fhqdefault.jpg&cfs=1&sx=66&sy=0&sw=360&sh=360"
    }, 
    {
      "code": "775582015867019", 
      "created_time": 1424468096.0, 
      "link": "https://www.facebook.com/539684606123429/posts/775582015867019", 
      "message": "ไม่มีเธอแล้วจะอยู่ยังไง แปลเป็นภาษาพม่าว่าไงค่ะ  ขอบคุณค่ะ"
    }, 
    {
      "code": "775099892581898", 
      "created_time": 1424378565.0, 
      "link": "https://www.facebook.com/539684606123429/posts/775099892581898", 
      "message": "วันนี้เรื่องวันนะครับ", 
      "picture": "https://fbcdn-sphotos-a-a.akamaihd.net/hphotos-ak-xpt1/v/t1.0-9/q83/s720x720/10982356_10205932263722625_3915445957503799570_n.jpg?oh=73738e4a7894421b77a9d8227749298f&oe=565AFC15&__gda__=1447953416_a22e229430c3944040d4d9d85dc3b99d"
    }, 
    {
      "code": "775174022574485", 
      "created_time": 1424397051.0, 
      "link": "https://www.facebook.com/539684606123429/posts/775174022574485", 
      "message": "ในฐานะ สมช ใหม่เป็นคนโยเดียแต่ได้เรียนภาษาพม่ามาบ้าง รู้สึกมีความชื่นชอบ FB นี้มาก มีความรู้ดีทำให้ผมสามารถต่อยอดทางภาษาพม่าได้ดียิ่งขึ้น ขอขอบคุณแอดมิน ขอขอบคุณ สะหย่า Aung Kyaw ที่ให้ความรู้พวกเรา ขอให้ทำต่อไปนะครับ ช่วยคนไทยให้มีความสามารถพูดสื่อสารกับท่านได้ พวกผมไม่มีสิ่งใดตอบแทนพวกท่านนอกจากคำว่า  อาโลง เจซูติ่นบ่าแด ขิ่นมยา"
    }, 
    {
      "code": "770710649687489", 
      "created_time": 1423624890.0, 
      "link": "https://www.facebook.com/539684606123429/posts/770710649687489", 
      "message": "สวัสดีค่ะ ประโยคเหล่านี้แปลว่าอะไรคะ", 
      "picture": "https://fbcdn-sphotos-h-a.akamaihd.net/hphotos-ak-xpf1/v/t34.0-12/10967743_1017427331620365_1034525742_n.jpg?oh=549dcb78909202a8994d575eef38ef63&oe=55B34E5C&__gda__=1437745512_7c2c7e5dcf92e99145e1244d35634d2c"
    }, 
    {
      "code": "769283046496916", 
      "created_time": 1423373437.0, 
      "link": "https://www.facebook.com/539684606123429/posts/769283046496916", 
      "message": "แนะนำเว็ปไซท์ สอนไวยากรณ์ภาษาพม่า มีอ่านออกเสียงให้ด้วย http   www asiapearltravels com language lesson26 php"
    }, 
    {
      "code": "768012696623951", 
      "created_time": 1423159569.0, 
      "link": "https://www.facebook.com/539684606123429/posts/768012696623951", 
      "message": "ช่วยแปลเป็นภาษาพม่าให้หน่อยค่ะ     คติพจน์เนื่องในเดือนแห่งความรัก   สำหรับชายหนุ่ม   หากไม่อยากได้ผู้หญิงหิวเงิน  ก็อย่าให้รู้ว่ารวย  สำหรับหญิงสาว   หากชายหนุ่มดูไม่รวย  ก็ไม่ได้หมายความว่าไม่มีเงิน"
    }, 
    {
      "code": "769849789773575", 
      "created_time": 1423471084.0, 
      "link": "https://www.facebook.com/539684606123429/posts/769849789773575", 
      "message": "ขำๆ   1 โห่ เน่ ก๊ะ มีน หลุ๊ด ด่อ แท ตัว บิ๊ วันนั้นเอ็งไปในสภาแล้ว  เอ้ง ง่าย เหน่ แด่ โส่ ง่วงนอนอยู่มิใช่หรือ   2 หง่า เอ้ง ง่าย เหน่ แด่ ฉันง่วงนอน   โฮ่ว ลา ใช่หรือ   อ๊า โส่ มีน หลู่ มา เหน่ บิ๊ งั้นเอ็งก็ผิดคนแล้วล่ะ   3 หง่า ก๊ะ เกม ซ่อ เหน่ ต่า ฉันเล่นเกมส์อยู่ต่างหากเล่า ", 
      "picture": "https://scontent.xx.fbcdn.net/hphotos-xat1/v/t1.0-9/s720x720/1907465_786019478159177_3619063850444132139_n.jpg?oh=622a4fee36949a959d422e576843643b&oe=560E0153"
    }, 
    {
      "code": "768341433257744", 
      "created_time": 1423213731.0, 
      "link": "https://www.facebook.com/539684606123429/posts/768341433257744", 
      "message": "ขำๆครับ            เมง มะ ด่วย เมีย  พวกผู้หญิง บรรดาผู้หญิงทั้งหลายนั้น   ส่า หน่า เซ๊ก โก่ มะ ฌิ้ จ้า บู  ไม่มีความเห็นใจกันบ้างเลย   โด๊ะ เย่า จา ด่วย แนะ เมีย กว่า บ๊ะ  แตกต่างกันมากกับผู้ชายอย่างพากเรา ", 
      "picture": "https://scontent.xx.fbcdn.net/hphotos-xpf1/v/t1.0-9/10986928_784519844975807_6761081836328398603_n.jpg?oh=f095715551be1a6ed3c1174bc4a449af&oe=564CCCD7"
    }, 
    {
      "code": "770731353018752", 
      "created_time": 1423629944.0, 
      "link": "https://www.facebook.com/539684606123429/posts/770731353018752", 
      "message": "บทเรียนวันนี้นะครับ", 
      "picture": "https://scontent.xx.fbcdn.net/hphotos-xpt1/v/t1.0-9/s720x720/10857824_10205871846652236_6000772617076547647_n.jpg?oh=af848175acaafe0aa99bc4b00700e8ce&oe=5654E63E"
    }, 
    {
      "code": "771191526306068", 
      "created_time": 1423721130.0, 
      "link": "https://www.facebook.com/539684606123429/posts/771191526306068", 
      "message": "เเปรให้หน่อยคับจะขอบคูณมาก", 
      "picture": "https://scontent.xx.fbcdn.net/hphotos-xfa1/v/t1.0-9/s720x720/10968485_1580910152154424_8064114359828144473_n.jpg?oh=8f51f36a2712801b6b74427d0075c680&oe=56494ED1"
    }, 
    {
      "code": "770734206351800", 
      "created_time": 1423630175.0, 
      "link": "https://www.facebook.com/539684606123429/posts/770734206351800", 
      "message": "ช้วยเเปรไห้อีกได้ใหมครับ", 
      "picture": "https://scontent.xx.fbcdn.net/hphotos-xpf1/v/t1.0-9/q81/s720x720/1509852_1580390802206359_4707900234967650069_n.jpg?oh=9ec56ee2621a20dca8430885fe60fe34&oe=5615717C"
    }, 
    {
      "code": "771817346243486", 
      "created_time": 1423818803.0, 
      "link": "https://www.facebook.com/539684606123429/posts/771817346243486", 
      "message": "ၾကာဇံသုပ္ จ่า สั่ง โต้บ ยำเส้นหมี่  ၾကာဇံကို ျပဳတ္ၿပီးေ၇ေအးနဲ႔ေဆးၿပီး စစ္ထားပါ จ่า สั่ง โก่ โปย้ว ปยี เหย่ เอ แนะ เซ ปยี ซิ ทา บ่า นำเส้นหมี่ไปต้มแล้วล้างน้ำเย็นแล้วกรองพักไว้  ပဲမုွန္႔ แป โม่ง ถั่วบด   ၾကက္သားမုွန္႔ แจ๊ะ ตา โม่ง ผงปรุงรสไก่  ငံျပာ၇ည္ หงั่ง เปี่ย เหย่ น้ำปลา   ျငဳတ္သီးက်က္မုွန္႔ งะ โย่ว ตี แจ๊ะ โม่ง พริกป่นคั่ว  နံနံပင္ หนั่ง หนั่ง ปิ่น ผักชี   ၾကက္ဥျပဳတ္ แจ็ะ อุ๊ โปย้ว ไข่ไก่ต้ม   ဆီခ်က္ สี่ แชะ น้ำมันเจียว   ထည့္နယ္ၿပီးသံုးေဆာင္ႏိုင္ပါၿပီ แทะ แหน่ ปยี โตง ส่อง ไหน่ บ่า ปยี ใส่แล้วคลุกรับประทานได้แล้ว ", 
      "picture": "https://scontent.xx.fbcdn.net/hphotos-xfp1/v/t1.0-9/s720x720/983851_789223437838781_8829357244617123269_n.jpg?oh=8515f4192cb9eab923e3428f80012bb4&oe=564C595A"
    }, 
    {
      "code": "770628903028997", 
      "created_time": 1423603078.0, 
      "link": "https://www.facebook.com/539684606123429/posts/770628903028997", 
      "message": "ขอแนะนำหนังสือเรียนภาษาพม่าเบื้องต้นของมหาวิทยาลัยรามคำแหงนะครับ ราคาไม่แพงเลย MMR101ราคา63฿และMMR102 ราคา52฿ ลองดูนะครับ", 
      "picture": "https://scontent.xx.fbcdn.net/hphotos-xfp1/v/t1.0-9/s720x720/10450345_897935343590190_2489330055690518591_n.jpg?oh=66fb24de8dd3119e9937d85c7c142714&oe=561ABD22"
    }, 
    {
      "code": "771258866299334", 
      "created_time": 1423729978.0, 
      "link": "https://www.facebook.com/539684606123429/posts/771258866299334", 
      "message": "ไม่หล่อแต่ก็รักทุกคนนะ แปล เป็นพม่าคับ"
    }, 
    {
      "code": "771156899642864", 
      "created_time": 1423715115.0, 
      "link": "https://www.facebook.com/539684606123429/posts/771156899642864", 
      "message": "สวัสดีครับ ภาษาพม่าวันละคำวันนี้ขอเสนอคำว่า    กล้วย          ငွက္ေပ်ာ อ่านว่า แหงะปยอ  ออกเสียงตัว ป กับ ย พร้อมกัน   ต้นกล้วย      ငွက္ေပ်ာပင္   แหงะปยอปิ่นง์ ใบตอง         ငွက္ေပ်ာဖက္ แหงะปยอแพะ           หรือ   ငွက္ေပ်ာရြက္ แหงะปยอแยวะ  ออกเสียง                ย กับ ว พร้อมกัน  ผลกล้วย      ငွက္ေပ်ာသီး  แหงะปยอตี เครือกล้วย   ငွက္ေပ်ာခိုင္  แหงะปยอไข่ง์ หวีกล้วย      ငွက္ေပ်ာဖီး    แหงะปยอพี หยวกกล้วย ငွက္ေပ်ာအူ    แหงะปยออู่ หัวปลีกล้วย  ငွက္ေပ်ာဖူး    แหงะปยอพู โดยคำว่า หัวปลี ငွက္ေပ်ာဖူး นี้ยังสามารถเป็นคำสแลงใช้ในความหมายอีกกรณีได้ เช่น หากวันนึงเราเกิดไปได้ยินเพื่อนชาวพม่าโต้เถียงกันแล้วพูดคำว่า  ငွက္ေပ်ာဖူးแหงะปยอพู ให้เข้าใจว่าเค้าไม่ได้พูดถึง หัวปลี อะไรนะครับ แต่จะหมายถึง မေျပာဘူး มะปยอบู ซึ่งแปลว่า ไม่พูด ไม่บอก ซึ่งมีเสียงใกล้เคียงกัน  ดังนั้นถ้าเกิดมีเพื่อนชาวพม่ามาทำให้เราไม่พอใจแล้วไม่อยากคุยด้วยในขณะนั้น อย่าไปแจกกล้วยกันให้วุ่นวายนะครับให้แจก หัวปลี กันดีกว่าครับ☺ ขอให้มีความสุขในการเรียนภาษาพม่าครับ"
    }, 
    {
      "code": "772555366169684", 
      "created_time": 1423955134.0, 
      "link": "https://www.facebook.com/539684606123429/posts/772555366169684", 
      "message": "เนื้อหามันแปลว่า อกหักใช่หรือเปล่า ลองอ่านๆดู ไม่น่าจะถูกแปลตรงๆให้ฟังหน่อยค่ะ", 
      "picture": "https://scontent.xx.fbcdn.net/hphotos-xtp1/v/t1.0-9/1013648_335209883355958_7550456196813759072_n.jpg?oh=9eeb0b3e1abe612374d3097d0b754274&oe=56532D2F"
    }, 
    {
      "code": "772777446147476", 
      "created_time": 1423992938.0, 
      "link": "https://www.facebook.com/539684606123429/posts/772777446147476", 
      "message": "ခ်င္တယ္၊ ฉิ่นแด่  อยาก  ခ်ဥ္တယ္၊ ฉิ่นแด่  เปรี้ยว   စားခ်င္တယ္  ซา ฉิ่น แด่ อยากกิน    กำลังฝึกเรียนครับ แนะนำด้วยครับ ", 
      "picture": "https://fbcdn-sphotos-f-a.akamaihd.net/hphotos-ak-xpf1/v/t1.0-9/10991190_1130593250299476_5575105519776369856_n.jpg?oh=9aba6029ef26611cd89364bcef20889f&oe=565ACE95&__gda__=1444592042_c984e869c55f0e4acefbd5fa73434cd8"
    }, 
    {
      "code": "772487566176464", 
      "created_time": 1423940812.0, 
      "link": "https://www.facebook.com/539684606123429/posts/772487566176464", 
      "message": "စဥ္းစားပါ မေတြေ၀ပါနဲ႔ ေလ႔လာပါ မစပ္စုပါနဲ႔ ႀကံစည္ပါ မေကာက္က်စ္ပါနဲ႔ ေခြ်တာပါ မတြန္႔တိုပါနဲ႔ ပြင္႔လင္းပါ မရိုင္းစိုင္းပါနဲ႔ ေ၀ဖန္ပါ မကဲ႔ရဲ႕ပါနဲ႔ ရိုးသားပါ မအပါနဲ႔  ควรคิด แต่ อย่างมงาย ควรศึกษา แต่ อย่าสอดรู้สอดเห็น ควรวางแผน แต่ อย่าคดโกง ควรประหยัด แต่ อย่าขี้เหนียว ควร เปิดเผย แต่ อย่าหยาบคาย ควรวิจารย์ แต่ อย่าดูถูก ควรซื่อสัตย์ แต่ อย่าโง่เขลา  sinn sarr bar   ma tway way bar nae  laey  lar bar   ma sat su  bar nae  jan si bar   ma khaok jait bar nae  chouy tar bar   ma tont tho bar bae  puint linn bar   ma yine sai bar nae  whay phan bar   ma kae  yat bar nae  yoe thar bar   ma ah bar nae   J Jin Tai", 
      "picture": "https://scontent.xx.fbcdn.net/hphotos-xtp1/v/t1.0-9/s720x720/10417739_1035770116451069_5451724394391787826_n.jpg?oh=eaac22866a4052cd60e8cec6778e9844&oe=560F04B6"
    }, 
    {
      "code": "773884999370054", 
      "created_time": 1424159996.0, 
      "link": "https://www.facebook.com/539684606123429/posts/773884999370054", 
      "message": "ฝากไว้ก่อนนอนครับ", 
      "picture": "https://scontent.xx.fbcdn.net/hphotos-xpf1/v/t1.0-9/s720x720/10996139_10205913320929067_4551188404060904760_n.jpg?oh=89d4ec36edb2bb2b145ab02efd0cb88a&oe=5616FC9A"
    }
  ], 
  "page_id": "539684606123429"
}