{
  "content": [
    {
      "code": "835154899909730", 
      "created_time": 1434440797.0, 
      "link": "https://www.facebook.com/539684606123429/posts/835154899909730", 
      "message": "ขอถามค่ะ   ไป่ ซ่า แด  แปลว่าอะไรค่ะขอบคุณล่วงหน้าค่ะ"
    }, 
    {
      "code": "836036733154880", 
      "created_time": 1434545472.0, 
      "link": "https://www.facebook.com/539684606123429/posts/836036733154880", 
      "message": "အငယ်တန်း  คำนี่แปลว่าอะไรครับ"
    }, 
    {
      "code": "835907609834459", 
      "created_time": 1434531330.0, 
      "link": "https://www.facebook.com/539684606123429/posts/835907609834459", 
      "message": "ေျဂာာ္ คำนี้แปลว่าอะไรคะ"
    }, 
    {
      "code": "835745069850713", 
      "created_time": 1434519285.0, 
      "link": "https://www.facebook.com/539684606123429/posts/835745069850713", 
      "message": "วันนี้เรียนคำว่า သို႔မဟုတ္ อ่านว่า โตมะโฮก แปลว่าหรือ ใช้ระหว่าง N  သို႔မဟုတ္ N  ใช้สำหรับเขียน ยกตัวอย่างเช่น ေကာ္ဖီ သို႔မဟုတ္ လက္ဖက္ရည္ ေသာက္ မည္။ อ่านว่าโกฟี่โตมะโฮกละพะเหย่เต้ามี แปลว่าจะดื่มกาแฟหรือชา"
    }, 
    {
      "code": "832124003546153", 
      "created_time": 1433973961.0, 
      "link": "https://www.facebook.com/539684606123429/posts/832124003546153", 
      "message": "1 ဘ ဝ မွာ ဝမ္း နည္း မႈ ေတြ ၾကံဳ ရ တိုင္း บะ วะ หม่า วัน แน หมุ๊ ด่วย โจ่ง ย่า ดัย เมื่อชีวิตต้องพบเจอกับความเสียใจ  2  အ ရင္ ဆံုး သ တိ ရ မိ တာ အ ေမ ပါ อะ หยิ่น โซง ตะ ดิ๊ ย่า มิ ด่า อะ เหม่ บ่า อันดับแรกที่นึกถึงคือ  แม่  ", 
      "picture": "https://fbcdn-sphotos-e-a.akamaihd.net/hphotos-ak-xat1/v/t1.0-9/s720x720/11535670_851134411647683_8752842536356941909_n.jpg?oh=fabb23897dae1f95867c2d42acc85cea&oe=56174EDE&__gda__=1443837858_058b0ad37b79c0b74c86d3ef5aa2cf13"
    }, 
    {
      "code": "834854476606439", 
      "created_time": 1434391793.0, 
      "link": "https://www.facebook.com/539684606123429/posts/834854476606439", 
      "message": "ทั้งหมู่บ้านนี้อยู่แค่สามีภรรยาคู่เดียว  https   www facebook com IrrawaddyBurmese posts 1019787588065393", 
      "picture": "https://fbexternal-a.akamaihd.net/safe_image.php?d=AQDbipCtG0UZAhkj&url=http%3A%2F%2F2.bp.blogspot.com%2F-OxHiCBN3B6Y%2FVX2jDGEIhTI%2FAAAAAAAA3bo%2FvvB9p6LWp_I%2Fs400%2F778.jpg"
    }, 
    {
      "code": "835455739879646", 
      "created_time": 1434486888.0, 
      "link": "https://www.facebook.com/539684606123429/posts/835455739879646", 
      "message": "เรียนภาษาพม่า จากชีวิตประจำต้นเดือน กลางเดือนครับ     ထီေပါက္ ทีเป้าก์ หวย  ပထမဆုปะถะมะซุ รางวัลที่1  ေန့စြဲ เน้ะซฺแว   งวดวันที่   ဇြန္လ ซูงล้ะ  เดือนมิถุนายน", 
      "picture": "https://scontent.xx.fbcdn.net/hphotos-xap1/v/t1.0-9/10171131_10204469794851444_4503428161706443503_n.jpg?oh=63955a44d87c184a3b8f948e974363dc&oe=564F799A"
    }, 
    {
      "code": "835403896551497", 
      "created_time": 1434476126.0, 
      "link": "https://www.facebook.com/539684606123429/posts/835403896551497", 
      "message": "ผมไม่ได่ป่วยครับ   แต่ อยากทราบ คำอ่าน  ครับ"
    }, 
    {
      "code": "835117893246764", 
      "created_time": 1434435744.0, 
      "link": "https://www.facebook.com/539684606123429/posts/835117893246764", 
      "message": "หน่ามะหล่า เหนื่อยไหมเพื่อนๆ สู้ๆๆแล้วชีวิตจะดีขึ้น"
    }, 
    {
      "code": "835208073237746", 
      "created_time": 1434447593.0, 
      "link": "https://www.facebook.com/539684606123429/posts/835208073237746", 
      "message": "แฮ่ๆ  ตามนี้น้อคนบ่มีแฟน         ရည္း စား မ ရွိ လို ့ ေစာ ေစာ ပဲ အိပ္ ေတာ့ မယ္ ยี ซา มะ ฌิ้ โล๊ะ ซอ ซอ แบ เอ้ง เด๊าะ แหม่ เพราะว่าไม่มีแฟนก็เลยจะนอนแต่หัววันละ ", 
      "picture": "https://scontent.xx.fbcdn.net/hphotos-xpt1/v/t1.0-9/11048745_854282151332909_153145888284166272_n.jpg?oh=e12ac7452c1ce73f09afc096665686f8&oe=56458112"
    }, 
    {
      "code": "833379300087290", 
      "created_time": 1434188463.0, 
      "link": "https://www.facebook.com/539684606123429/posts/833379300087290", 
      "message": "ခဏ ခဏ မငို ပါ နဲ ့คะนะ คะนะ หมะโหง่ บ่า แนะ อย่าร้องให้บ่อยๆเลย    ေလာ က ႀကီး က အ ေမ့ ရင္ ခြင္ မဟုတ္ ဘူး ลอ ก๊ะ จี ก๊ะ อะ เม่ หยิ่น ขุ่ย หมะโฮ่ว บู โลกไม่ใช่อ้อมอกแม่ ", 
      "picture": "https://fbcdn-sphotos-c-a.akamaihd.net/hphotos-ak-xat1/v/t1.0-9/s720x720/10403036_852441931516931_3104316718124651969_n.jpg?oh=b5127817b8bc2ed510a5a0ef289e92cf&oe=56105348&__gda__=1444059956_142998035ba8d6b1713ec17808ecd95a"
    }, 
    {
      "code": "835164659908754", 
      "created_time": 1434442335.0, 
      "link": "https://www.facebook.com/539684606123429/posts/835164659908754", 
      "message": "มูยวาบีเอ้แหม่ พรุ่งนี้เริ่มสู้ชีวิตกันไหม่"
    }, 
    {
      "code": "834859099939310", 
      "created_time": 1434392811.0, 
      "link": "https://www.facebook.com/539684606123429/posts/834859099939310", 
      "message": "ข่าวเรื่องนี้ก็น่าสนใจครับ สัตว์ประหลาดที่อยู่ในได้ท้องทะเล ที่บางคนยังไม่เคยรู้ไม่เคยเห็นมาก่อนครับ https   www facebook com asteriatrainingcenter posts 829662800451859", 
      "picture": "https://scontent.xx.fbcdn.net/hphotos-xta1/v/t1.0-9/11150905_829662127118593_8802472711290805844_n.jpg?oh=81066ff75705985f5596de9da6430fe2&oe=5619BD44"
    }, 
    {
      "code": "834411606650726", 
      "created_time": 1434341729.0, 
      "link": "https://www.facebook.com/539684606123429/posts/834411606650726", 
      "message": "Downtown Of Myanmar", 
      "picture": "https://fbcdn-vthumb-a.akamaihd.net/hvthumb-ak-xaf1/v/t15.0-10/s720x720/11403882_872568606155185_2056307168_n.jpg?oh=6a917bdc5f6f4324689b7ed749d096a6&oe=561B46EC&__gda__=1447560218_299508c8bb54d62e349d7d6d1b529891"
    }, 
    {
      "code": "834864073272146", 
      "created_time": 1434394286.0, 
      "link": "https://www.facebook.com/539684606123429/posts/834864073272146", 
      "message": "รบกวนแปลให้หน่อยนะครับ", 
      "picture": "https://scontent.xx.fbcdn.net/hphotos-xpf1/v/t1.0-9/1472907_835288523213993_6292214845619309048_n.jpg?oh=7ed1e621dc858f44b238b75fb6cfe470&oe=5654A071"
    }, 
    {
      "code": "834909649934255", 
      "created_time": 1434406807.0, 
      "link": "https://www.facebook.com/539684606123429/posts/834909649934255", 
      "message": "သူ တစ္ ပါး ရဲ့ အား နည္း ခ်က္ အား သာ ခ်က္ ေတြ ကို သိ ထား ဖို ့ လို ပါ တယ္ ตู่ ตะ ปา แยะ อา แน แชะ อา ต่า แชะ ด่วย โก่ ตี้ ทา โพ๊ะ โหล่ บ่า แด่ จำเป็นที่จะต้องรู้ข้อดีข้อด้อยของผู้อื่นไว้   ဒါ ေပ မယ့္ သိ တိုင္း ထုတ္ ေျပာ ဖို ့ေတာ့ မ လို ပါ ဘူး ด่า เบ่ แม๊ะ ตี้ ตัย โทก เปยียว โพ๊ะ เด๊าะ มะ โหล่ บ่า บู แต่ว่าไม่จำเป็นต้องพูดออกมาตามที่รู้นั้น   ဦး ၾကည္ လြင္ ျမန္ မာ U 23 နည္း ျပ อู จี่ หลู่ย เหมี่ยน หม่า ยู หนะ แซะ โตง นี เปยี๊ยะ อูจี่หลู่ยผู้ฝึกสอนทีมพม่ายูยี่สิบสาม ", 
      "picture": "https://scontent.xx.fbcdn.net/hphotos-xfp1/v/t1.0-9/s720x720/1424514_854000528027738_2800545496037516547_n.jpg?oh=e8d4d7a01612dfd6e7b819c55e773274&oe=560E6DFA"
    }, 
    {
      "code": "834553019969918", 
      "created_time": 1434355557.0, 
      "link": "https://www.facebook.com/539684606123429/posts/834553019969918", 
      "message": "Don t be feel sad You are doing the best Myanmar"
    }, 
    {
      "code": "834533853305168", 
      "created_time": 1434351628.0, 
      "link": "https://www.facebook.com/539684606123429/posts/834533853305168", 
      "message": "ประเทศไทยจงเจริญ ไทยเจ๋งๆๆๆรักคนไทยที่สุดดดดด ได้กินเบียร์เพื่อนmya"
    }, 
    {
      "code": "834488633309690", 
      "created_time": 1434347332.0, 
      "link": "https://www.facebook.com/539684606123429/posts/834488633309690", 
      "message": "ขอบคุณค่ะ", 
      "picture": "https://scontent.xx.fbcdn.net/hphotos-xfp1/v/t1.0-9/11011204_1594734247445106_3274766427026432367_n.jpg?oh=7061554756a602de4b8ba1a016db2cf1&oe=561764C8"
    }, 
    {
      "code": "834087813349772", 
      "created_time": 1434304024.0, 
      "link": "https://www.facebook.com/539684606123429/posts/834087813349772", 
      "message": "ဟုတ္လာ แปลว่าอะไรคับ"
    }, 
    {
      "code": "833886360036584", 
      "created_time": 1434268174.0, 
      "link": "https://www.facebook.com/539684606123429/posts/833886360036584", 
      "message": "พรุ่งนี้มาเชียไทยกับพม่ากันครับ", 
      "picture": "https://fbcdn-sphotos-a-a.akamaihd.net/hphotos-ak-xta1/v/t1.0-9/s720x720/10153216_655262741242313_9123909497012080979_n.jpg?oh=608a98f9b5023d2bdf58af837a244110&oe=56506338&__gda__=1448064845_9329727802f0cc60229933b808745317"
    }, 
    {
      "code": "834095093349044", 
      "created_time": 1434306058.0, 
      "link": "https://www.facebook.com/539684606123429/posts/834095093349044", 
      "message": "ต้องขออภัยด้วยน่ะค่ะที่ใช้ภาษาไม่ถูกต้อง รบกวนช่วยติเตือนด้วยน่ะค่ะ เจซูบาแด่ชิน"
    }, 
    {
      "code": "833841706707716", 
      "created_time": 1434260306.0, 
      "link": "https://www.facebook.com/539684606123429/posts/833841706707716", 
      "message": "เซ่หย่าจี ขอให้เพื่อนๆทุกคนเตรียมแรง ไว้ต่อสู้พรุ่งนี้"
    }, 
    {
      "code": "833889383369615", 
      "created_time": 1434268732.0, 
      "link": "https://www.facebook.com/539684606123429/posts/833889383369615", 
      "message": "พรุ่งนี้แล้ว เข้าชิงฟุตบอลลงแข่งขันพม่า VS ไทยแลนด์  งั้นกำลังใจให้เชียร์ไทยนะคะ สู้ตาย  อิอิ แต่รักพม่าด้วย  แปลภาษาพม่าหน่อยสิ   เจซูตินบาแดฉิน"
    }
  ], 
  "page_id": "539684606123429"
}