{
  "content": [
    {
      "code": "721441831281038", 
      "created_time": 1416015907.0, 
      "link": "https://www.facebook.com/539684606123429/posts/721441831281038", 
      "message": "အနားယူမယ္ ။ แปลว่า"
    }, 
    {
      "code": "719441961481025", 
      "created_time": 1415689750.0, 
      "link": "https://www.facebook.com/539684606123429/posts/719441961481025", 
      "message": "กรมทางบ้านเราน่าจะทำแบบนี้บ้างเนาะ        เต้าบี ดื่มแล้ว   มองบ่า จงขับ เชิญขับ   อะเฌ่ดวิ่น ในข้างหน้า   แยสะคัง สถานีตำรวจ โรงพัก   เซโหย่ง โรงพยาบาล   เหย่แคต้าย ห้องดับจิต โรงเย็น ", 
      "picture": "https://scontent.xx.fbcdn.net/hphotos-xpt1/v/t1.0-9/10685530_734887616605697_4019137618749103100_n.jpg?oh=2388d179f37cb0f9c7a927bd845dfcb0&oe=5644903A"
    }, 
    {
      "code": "720802218011666", 
      "created_time": 1415903416.0, 
      "link": "https://www.facebook.com/539684606123429/posts/720802218011666", 
      "message": "ตั้งใจทำงาน   ทำงานให้มีความสุข    เขียนยังไงครับพี่"
    }, 
    {
      "code": "720455634712991", 
      "created_time": 1415860337.0, 
      "link": "https://www.facebook.com/539684606123429/posts/720455634712991", 
      "message": "Cr  Easy Burmese Language Center", 
      "picture": "https://scontent.xx.fbcdn.net/hphotos-xap1/v/t1.0-9/p720x720/1604951_1495511177377498_7595670167553961301_n.jpg?oh=c13b769437932db6876561641f8e43ca&oe=564ED8D8"
    }, 
    {
      "code": "719982128093675", 
      "created_time": 1415776654.0, 
      "link": "https://www.facebook.com/539684606123429/posts/719982128093675", 
      "message": "ฝากคำคมของอาจารย์ อ่องติน ไว้ให้ทุกท่านที่ฝักใฝ่การเรียนรู้ทุกท่านครับ  ปะหญ่าติ่นบ่า จงศึกษาหาความรู้   ส่าพ๊าดบ่า จงอ่านหนังสือ   แบ่ตู่ด่วยก๊ะ บ่าเปียวเหน่ เหน่ ใครจะพูดอะไรอยู่ก็ช่าง   มินโก่ มินชิดหยิ่น ถ้าเธอรักตัวเธอเอง   ปะหญ่าติ่นบ่า จงศึกษาหาความรู้   ส่าพ๊าดบ่า จงอ่านหนังสือ     มิบ๊ะโก่ ชิดหยิ่น ถ้ารักพ่อแม่   ปะหญ่าติ่นบ่า จงศึกษาหาความรู้   ส่าพ๊าดบ่า จงอ่านหนังสือ   ตายปยี่แนะ หลู่มิวโก่ ชิดหยิ่น ถ้ารักประเทศชาติและเผ่าพันธุ์   ปะหญ่าติ่นบ่า จงศึกษาหาความรู้   ส่าพ๊าดบ่า จงอ่านหนังสือ   สะหย่าอ่องติน อาจารย์อ่องติน ", 
      "picture": "https://scontent.xx.fbcdn.net/hphotos-xpa1/v/t1.0-9/64783_735368843224241_2833759241432324252_n.jpg?oh=57bbeb866eeba3e3787a8c8cbba95a54&oe=560EE3A5"
    }, 
    {
      "code": "720489871376234", 
      "created_time": 1415865248.0, 
      "link": "https://www.facebook.com/539684606123429/posts/720489871376234", 
      "message": "ไป้สั่ง ชานต่าฉิ่นแด๊ะตู่ห่า ผู้ที่ต้องการความร่ำรวยเงินตรานั้น   ไป้สั่ง เมียเมียซุตะโหล่ จะต้องสะสมเงินตราอย่างมากมาย   เซ๊กชานต่า ฉิ่นแด๊ะตู่ห่าแล และผู้ที่ต้องการความสุขใจก็เช่นกัน   ตี่ละ ตะหม่าดิ๊ ปะหญ่าแนะ สิ่นแด๊ะ เซ๊กกองเซ๊กเมี๊ยดด่วยโก่ เมียเมียซุซองย่าแหม่ จะต้องสะสมบรรดาความใจดีใจประเสริฐคู่กับ ศีล สมาธิ ปัญญา ไว้ให้มากๆ ", 
      "picture": "https://scontent.xx.fbcdn.net/hphotos-xpf1/v/t1.0-9/10173804_735835216510937_9035406575803203610_n.jpg?oh=b5c1dafcb24384159e651f0e8e017967&oe=564D341B"
    }, 
    {
      "code": "720461958045692", 
      "created_time": 1415861496.0, 
      "link": "https://www.facebook.com/539684606123429/posts/720461958045692", 
      "message": "แชร์ต่อใส่เครดิตให้ด้วยนะคะCr  Easy Burmese Language Center  ปล ยืมเค้ามาใช้   O ", 
      "picture": "https://scontent.xx.fbcdn.net/hphotos-xft1/v/t1.0-9/p720x720/10734138_1495521200709829_4681147513977584487_n.jpg?oh=0c4cec6b10632e20dcd3a970a5625e0a&oe=565A0E39"
    }, 
    {
      "code": "720411614717393", 
      "created_time": 1415854135.0, 
      "link": "https://www.facebook.com/539684606123429/posts/720411614717393", 
      "message": "ขอถามรัยหน่อยคร๊  คำว่า ชอบพี่งะจีบได้ป่ะ  ภาษาพม่าเขาเขียนว่างัยหรออออ     คัยรุบอกหน่อยยนะ      พอดีว่าจะจีบสาวพม่างะ  คริๆ"
    }, 
    {
      "code": "719460578145830", 
      "created_time": 1415692681.0, 
      "link": "https://www.facebook.com/539684606123429/posts/719460578145830", 
      "message": "วันนี้ มาพูดถึงคำสรรพนามกันครับ   ทุกคนรู้กันอยู่แล้วละมั้ง แต่เขียนเผื่อคนที่ยังไม่ทราบนะครับ  สรรพนามทั่วๆ ไปที่ใช้กันอยู่ ငါ หง่า แปลว่า ข้า กู ฉัน ค่อนข้างแรง เหมาะที่จะใช้กับคนที่สนิทกันจริงๆ หรือคนที่เราไม่ต้องการให้เกียรติ หรือเรียกตัวเองกับคนที่มีศักดิ์ต่ำกว่าตน  နင္ หนิ่น แปลว่า แก มึง หล่อน ค่อนข้างแรงเหมือน หง่า เดี๋ยวนี้ใช้หมดทุกเพศ แต่เคยมีผู้ใหญ่บอกว่า คำนี้ เฉพาะผู้หญิงใช้  မင္း มีน แปลว่า แก มึง นาย เหมือนกับ หนิ่น แต่คำนี้เคยเป็นคำที่เฉพาะผู้ชายใช้ คำนี้รู้สึกว่าจะมีความสุภาพมากกว่า ผู้ใหญ่มักจะใช้คำนี้เรียกคนที่วัยอ่อนกว่า  သူ သူမ ตู่ ตู่มะ คำนี้เป็นสรรพนามบุรุษที่ 3 ถ้าคนนั้นเพศชายใช้ ตู่ ถ้าเพศหญิง ตู่มะ  သူတို႔ ตู่โด๊ะ พวกเขา  สรรพนามบุรุษที่ 3 นี่ ผมยังไม่เคยเห็นคำอื่นนะครับ ถ้ามีแนะนำได้ ทีนี้เรามาดูสรรพนามแบบสุภาพที่เราควรใช้กันครับ  ကၽြန္ေတာ္ เขียนว่า จุ่นต่อ ออกเสียงว่า จะหน่อ แปลว่า ผม กระผม ข้าพเจ้า  ကၽြန္မ เขียนว่า จุ่นมะ ออกเสียงว่า จะมะ แปลว่า ฉัน ดิฉัน ข้าพเจ้า  ခင္ဗ်ား เขียนว่า ขิ่นบยา ออกเสียงว่า ขะมยา แปลว่า คุณ  เฉพาะผู้ชายใช้   ရွင္ ฌิน แปลว่า คุณ  เฉพาะผู้หญิงใช้   သင္ ติ่น แปลว่า คุณ ท่าน เป็นคำที่ใช้เรียกยกย่องคู่สนทนา ไม่ค่อยมีใครใช้กันแล้ว  แถมให้อีกคำ เคยได้ยินคนเมียนมาร์ทั้งชายและหญิงแทนตัวเองว่า โจ๊ะ หรือ จะโน๊ะ ไหมครับ  ကၽြႏုပ္ จะโน๊ะ มาจาก ကၽြန္ႏုပ္ จุ่นโน๊ะ แปลว่าข้าน้อย พอพูดไวๆ บ่อยๆ เลยเหลือแค่ โจ๊ะ ကၽြဳပ္ คำนี้จะคล้ายๆ หง่า แต่ฟังดูไม่แรงเท่าครับ"
    }, 
    {
      "code": "719410081484213", 
      "created_time": 1415685074.0, 
      "link": "https://www.facebook.com/539684606123429/posts/719410081484213", 
      "message": "ราตรีสวัสดิ์  เขาพูดว่าไงครับ"
    }, 
    {
      "code": "720226021402619", 
      "created_time": 1415816704.0, 
      "link": "https://www.facebook.com/539684606123429/posts/720226021402619", 
      "message": "สวัสดีค่ะ สยา สยามะ และพี่ ๆ เพื่่อน ๆ  วันนี้มะนุนุ นำข่าว รับสมัคร ครูสอนภาษาพม่า และผู้ช่วยสอนภาษาพม่า ผ่านระบบ online   Myanmar Classroom Online    รับทั้งคนไทยและคนพม่าค่ะ หากเป็นคนพม่า  ไม่จำเป็นต้องมีวุฒิ  จะรับเป็นพิเศษ สำหรับผู้ช่วยสอน หากเป็นคนไทย จะต้องพิมพ์ภาษาพม่าอย่างคล่องเลยนะค่ะ มีโควต้ารับจำกัดนะค๊ะ  สวัสดิ์การเพียบเลย ติดต่อ อูซีนยอ ใน inbox ของ เพจนะค๊ะ", 
      "picture": "https://fbcdn-sphotos-b-a.akamaihd.net/hphotos-ak-xfp1/v/t1.0-9/p720x720/10624702_10202737349306199_2056738244677525703_n.jpg?oh=3d0b17106c98f68b14fd9690081434e6&oe=564AB120&__gda__=1448234969_ca241148091fc8408a864b21c25affc4"
    }, 
    {
      "code": "719523928139495", 
      "created_time": 1415702430.0, 
      "link": "https://www.facebook.com/539684606123429/posts/719523928139495", 
      "message": "อันนี้กำลังคิดอยู่ว่าจะปริ้นออกมาใช้งานแต่ต้องมีฉลากยาน้ำด้วย        ตะข่าเต้า    โลง   รับประทานครั้งละ    เม็ด    ตะเน่    เจ่ง   วันละ    ครั้ง    อะส่ามะซาขิ่น   ก่อนอาหาร    อะส่าซาปยี   หลังอาหาร    ซาปยีแชะชิน   หลังอาหารทันที    มะแนะ   เช้า    เน่แหล่   กลางวัน    หญะเหน่   เย็น    เอ้งหย่าหวิ่น   ก่อนนอน         หน่าหยี่ชา   ทุก    ชั่วโมง ", 
      "picture": "https://scontent.xx.fbcdn.net/hphotos-xta1/v/t1.0-9/10689741_734972583263867_2421845724423189470_n.jpg?oh=aa25991f446b438477ae9ba3d79b1422&oe=56191E2D"
    }, 
    {
      "code": "719277948164093", 
      "created_time": 1415657265.0, 
      "link": "https://www.facebook.com/539684606123429/posts/719277948164093", 
      "message": "มะนุนุ ทำ  หนิ๊ดติดกู มิงกลาบ่า  มาให้ สยา สยามะ และเพื่อน ๆ ช่วยแนะนำค่ะ นิยมเขียนกนแบบไหนค่ะ      ช่วยแนะนำด้วยค้าา    ", 
      "picture": "https://scontent.xx.fbcdn.net/hphotos-xat1/v/t1.0-9/q87/s720x720/1609621_10202728567886669_3950607698075081589_n.jpg?oh=2d1cfc4f8714837e75657aa5e5f69700&oe=56531395"
    }, 
    {
      "code": "719183424840212", 
      "created_time": 1415638506.0, 
      "link": "https://www.facebook.com/539684606123429/posts/719183424840212", 
      "message": "สุขสันวันเกิด จะพูดเเละเขียนเป็นภาษาพม่าว่ายังไงคับ"
    }, 
    {
      "code": "719822848109603", 
      "created_time": 1415756562.0, 
      "link": "https://www.facebook.com/539684606123429/posts/719822848109603", 
      "message": "I want to be  to do to make oneself hard and strongsss  โหล่ฉิ่น โก้เซ โก่ไหน่แต่   แน เอ่อโซงเหม่อ เปบู  ตี้ลา ตี้ลา"
    }, 
    {
      "code": "719033974855157", 
      "created_time": 1415611899.0, 
      "link": "https://www.facebook.com/539684606123429/posts/719033974855157", 
      "message": "อันนี้ร้านขายหมากชื่อว่า        วาจี้ไล่ ลองเคี้ยวเลย เคี้ยวดูเลย  กูมหย่า หมากคำ ", 
      "picture": "https://fbcdn-sphotos-g-a.akamaihd.net/hphotos-ak-xat1/t31.0-8/s720x720/1399716_734429666651492_6563992449467969387_o.jpg"
    }, 
    {
      "code": "718490781576143", 
      "created_time": 1415522634.0, 
      "link": "https://www.facebook.com/539684606123429/posts/718490781576143", 
      "message": "วันนี้มีเรื่องของครอบครัวชาวพม่ามาเล่าสู่กันฟังครับ ในภาพพี่ผู้ชายชื่อว่า โซมิ่นอ่อง ชาวมัณฑเล อะหญ่าตา  พี่ผู้หญิงชื่อ มะเอ ชาวพาอ่าน และลูกชายวัยสามขวบกว่า ซานมีนอ่อง ผมรู้จักกับครอบครัวนี้ตอนที่พี่มะเอมาคลอดลูกครับ ทั้งสองคนพูดภาษาไทยไม่ได้เลยแม่บ้านผมก็เลยโทรตามผมให้มาเป็นล่ามสื่อสารกับทั้งสองคนน่ะครับพี่แกก็เลยขอเบอร์ผมไว้เวลาฉุกเฉินครับพี่แกใช้บริการก็นับครั้งไม่ถ้วนแล้วครับและทุกครั้งพี่แกก็จะยัดเงินใส่ในกระเป๋าผมทุกครั้งซึ่งผมก็บอกพี่แกทุกครั้งว่าที่ผมช่วยพี่ผมไม่ได้ต้องการเงินนะครับ ที่ช่วยเพราะพี่แกเดือดร้อนสื่อสารกับทางโรงพยาบาลไม่ได้และผมเองก็พอจะมีความสามารถเล็กน้อยก็อยากใช้ให้เป็นประโยชน์ พี่แกตอบมาว่านี่เป็นน้ำใจเล็กน้อยที่เขาพอที่จะตอบแทนน้ำใจที่ผมได้ช่วยเหลือเขา ก่อนหน้าที่พี่แกจะเจอผมเขาต้องจ้างเพื่อนชาวพม่าด้วยกันที่พอจะพูดไทยได้มาเป็นล่ามซึ่งต้องเสียเงินมากกว่าที่ให้ผม ถ้าผมไม่รับเงินเขาก็ไม่กล้าที่จะขอความช่วยเหลือจากผมได้อีก ผมก็เลยจำเป็นต้องรับเพื่อเอาไว้พึ่งพาอาศัยกันในเวลายากลำบาก เวลาพี่แกกลับไปบ้านที่พม่าพอกลับมาพี่แกก็จะมีของฝากมาให้ผมเสมอ ที่ผมช่วยเหลือพวกเขาผมไม่ได้ต้องการเงินทองสิ่งของใดๆแต่สิ่งเดียวที่ผมหวังที่จะได้ก็คือความสุขใจครับ ทุกครั้งที่ผมได้ช่วยเหลือผู้อื่นที่เดือดร้อนและต้องการความช่วยเหลือ ผมรู้สึกมีความสุขและไม่ได้ไร้ค่าเหมือนกับอดีตที่ผ่านมาและนี่ก็เป็นตัวอย่างของความใจดีใจกว้างของพี่น้องชาวพม่าที่ผมได้พบเจอครับ", 
      "picture": "https://fbcdn-sphotos-h-a.akamaihd.net/hphotos-ak-xfp1/v/t1.0-9/p480x480/1002527_733899140037878_7860676554329591372_n.jpg?oh=e1fff2bfe2e95862a93fb1cc52975f4c&oe=565CB2F2&__gda__=1447894912_c1d99e1bdb82bc313efd9035e92d58ca"
    }, 
    {
      "code": "718933958198492", 
      "created_time": 1415598133.0, 
      "link": "https://www.facebook.com/539684606123429/posts/718933958198492", 
      "message": "มิงกะลาบา  สวัสดีครับเพื่อนชาวพม่าทุกท่านนะครับ  ฝากเนื้อฝากด้วยนะครับ ผมเข้ามากลุ่มนี้นานพอสมควรแต่ยังไม่ได้รู้อะไรเลยครับ"
    }, 
    {
      "code": "719487721476449", 
      "created_time": 1415697287.0, 
      "link": "https://www.facebook.com/539684606123429/posts/719487721476449", 
      "message": "คำว่าพ่อครัวภาษาพม่าออกเสีัยงยังไงค่ะ รบกวนด้วยค่ะ"
    }, 
    {
      "code": "719485704809984", 
      "created_time": 1415696944.0, 
      "link": "https://www.facebook.com/539684606123429/posts/719485704809984", 
      "message": "ผมอยากรู้คำนามในภาษาพม่าว่ามีอะไรบางช่วยโพสหน่อยคับจะดีมากเลย ขอบคุณล่วงหน้าคับ"
    }, 
    {
      "code": "719344781490743", 
      "created_time": 1415673587.0, 
      "link": "https://www.facebook.com/539684606123429/posts/719344781490743", 
      "message": "ขออณุญาต แอดมินนะคับ", 
      "picture": "https://fbcdn-sphotos-a-a.akamaihd.net/hphotos-ak-xpa1/v/t1.0-9/p180x540/10525881_861600920550860_7558695022259396866_n.jpg?oh=90d361e9fea2f4880187f594fad22e98&oe=5648A64D&__gda__=1448460715_6a5364f685ecc7ac4c7f4d7f70be0eeb"
    }, 
    {
      "code": "719449458146942", 
      "created_time": 1415690946.0, 
      "link": "https://www.facebook.com/539684606123429/posts/719449458146942", 
      "message": "ขอบคุณคะที่รับ"
    }
  ], 
  "page_id": "539684606123429"
}