{
  "content": [
    {
      "code": "712218652203356", 
      "created_time": 1414710624.0, 
      "link": "https://www.facebook.com/539684606123429/posts/712218652203356", 
      "message": "ได้แปลประวัติท่านโบมินข่องป่าวครับ"
    }, 
    {
      "code": "712181385540416", 
      "created_time": 1414701084.0, 
      "link": "https://www.facebook.com/539684606123429/posts/712181385540416", 
      "message": "ขอบคุณค่ะ  "
    }, 
    {
      "code": "712170598874828", 
      "created_time": 1414698653.0, 
      "link": "https://www.facebook.com/539684606123429/posts/712170598874828", 
      "message": "วันฮาโลวีน แอดมินเสนอคำว่า  ตา แหย่ เจ้า โลว์ เหน่ อะ โลง โตน ตี่ แปลว่า ใจสั่นเพราะกลัวผี    ลั่น ตวา บ่า แด  แปลว่า ตกใจหมดเลย"
    }, 
    {
      "code": "712157325542822", 
      "created_time": 1414695754.0, 
      "link": "https://www.facebook.com/539684606123429/posts/712157325542822", 
      "message": "ขอขอบคุณนะครับที่อนุญาต และต้อนรับสมาชิก ภาษาพม่าวันละคำ  ขอร่วมกลุ่มด้วยคนนะครับ"
    }, 
    {
      "code": "711790548912833", 
      "created_time": 1414640364.0, 
      "link": "https://www.facebook.com/539684606123429/posts/711790548912833", 
      "message": "ขอบคุณนะคะ"
    }, 
    {
      "code": "712182735540281", 
      "created_time": 1414701416.0, 
      "link": "https://www.facebook.com/539684606123429/posts/712182735540281", 
      "message": "ขอบคุณค่ะที่รับ  "
    }, 
    {
      "code": "712162425542312", 
      "created_time": 1414696865.0, 
      "link": "https://www.facebook.com/539684606123429/posts/712162425542312", 
      "message": "ขอบคุณค่ะ ที่รับ"
    }, 
    {
      "code": "712144558877432", 
      "created_time": 1414693132.0, 
      "link": "https://www.facebook.com/539684606123429/posts/712144558877432", 
      "message": "ขอบคุณคับ"
    }, 
    {
      "code": "712141898877698", 
      "created_time": 1414692667.0, 
      "link": "https://www.facebook.com/539684606123429/posts/712141898877698", 
      "message": "ขอบคุณคะ"
    }, 
    {
      "code": "711853592239862", 
      "created_time": 1414651100.0, 
      "link": "https://www.facebook.com/539684606123429/posts/711853592239862", 
      "message": "ขอบคุณคะ"
    }, 
    {
      "code": "712116915546863", 
      "created_time": 1414689323.0, 
      "link": "https://www.facebook.com/539684606123429/posts/712116915546863", 
      "message": "ขอบคุณนะค่ะ"
    }, 
    {
      "code": "711852205573334", 
      "created_time": 1414650839.0, 
      "link": "https://www.facebook.com/539684606123429/posts/711852205573334", 
      "message": "ขอบคุณครับที่รับเข้ากลุ่ม"
    }, 
    {
      "code": "711852392239982", 
      "created_time": 1414650878.0, 
      "link": "https://www.facebook.com/539684606123429/posts/711852392239982", 
      "message": "เจ ซู แบ"
    }, 
    {
      "code": "712126228879265", 
      "created_time": 1414689655.0, 
      "link": "https://www.facebook.com/539684606123429/posts/712126228879265", 
      "message": "ขอบคุณค่ะที่รับเข้ากลุ่ม"
    }, 
    {
      "code": "712127298879158", 
      "created_time": 1414689908.0, 
      "link": "https://www.facebook.com/539684606123429/posts/712127298879158", 
      "message": "ขอบคุณค่ะที่รับเข้ากลุ่มค่ะ"
    }, 
    {
      "code": "711075632317658", 
      "created_time": 1414544272.0, 
      "link": "https://www.facebook.com/539684606123429/posts/711075632317658", 
      "message": "Seasons", 
      "picture": "https://scontent.xx.fbcdn.net/hphotos-xaf1/v/t1.0-9/q81/s720x720/1391425_809356562439375_6510195907690335855_n.jpg?oh=4b0c4eff95a1d8dd048b65073936278a&oe=56539197"
    }, 
    {
      "code": "711873348904553", 
      "created_time": 1414653605.0, 
      "link": "https://www.facebook.com/539684606123429/posts/711873348904553", 
      "message": "สวัสดีทุกท่านครับผมเล็กครับ ขออนุญาตเข้ากลุ่มด้วยนะครับ ขอฝากเนื้อฝากตัวด้วยนะครับ   "
    }, 
    {
      "code": "711640215594533", 
      "created_time": 1414621986.0, 
      "link": "https://www.facebook.com/539684606123429/posts/711640215594533", 
      "message": "Things", 
      "picture": "https://fbcdn-sphotos-a-a.akamaihd.net/hphotos-ak-xft1/v/t1.0-9/s720x720/10544419_809859222389109_225408423346935461_n.jpg?oh=b6205d782c68f5298f365ad789806142&oe=5618AA00&__gda__=1444660383_60cb2ddb010b149674ffdf0047fd7e0f"
    }, 
    {
      "code": "709524249139463", 
      "created_time": 1414274128.0, 
      "link": "https://www.facebook.com/539684606123429/posts/709524249139463", 
      "message": "ขอบคุณทุกๆท่านครับสำหรับความรู้ แต่ผมอยากเสริมอะไรนิดหน่อยครับ อย่างกระผมเอง หรือหลายๆท่านในกลุ่มนี้ ยังไม่สามารถอ่านภาษาเมียร์ม่าร์ได้เลยครับ บางทีอยากเรียนพูด และเรื่องที่หลายๆท่านมาให้ความรู้ค่อนข้างน่าสนใจ   ก็กลายเป็นคำแปลไทย ตัวหนังสือเมียรม่าร์  ซึ่งบางทีผมคิดว่ามันเป็นประโยชน์มากเลย อยากคุย อยากพูดคำเหล่านั้นได้ แต่อ่านไม่ออก ไม่มีคำอ่านภาษาไทยให้ จึงได้แต่มองแล้วทำหน้าเอ๋อครับ บ่อยครั้งเลยที่เป็นแบบนี้ครับ  จึงใคร่ขอความกรุณาหลายๆท่านรบกวนหากมาให้ความรู้ช่วยพิมคำอ่านภาษาไทยใส่มาด้วย เพื่อคนความรู้น้อยเช่นผมจะได้รับโอกาสเรียนรู้ครับ  ขอบคุณครับ ขออภัยด้วยหากมันทำให้หลายๆคนไม่พอใจครับ  Otaru   "
    }, 
    {
      "code": "711291952296026", 
      "created_time": 1414573552.0, 
      "link": "https://www.facebook.com/539684606123429/posts/711291952296026", 
      "message": "อะปยอง อะแล เมียแด๊ะ    ความเปลี่ยนแปลงมากมายต่างๆนาๆ   ดี่ ลอก๊ะจีแท    ในโลกใบใหญ่ใบนี้   ปยองแล มะตัวแด๊ะ ชิดชิน    ความรักที่ไม่เปลี่ยนแปลงไป   อะเม่สี่หม่าแบ ฌิแด่    มีที่แม่เพียงเท่านั้น ", 
      "picture": "https://scontent.xx.fbcdn.net/hphotos-xfa1/v/t1.0-9/1932350_727917980635994_4663983779057659255_n.jpg?oh=16d433068ad02ad7e38eee329e68d949&oe=560DF871"
    }, 
    {
      "code": "711184935640061", 
      "created_time": 1414565084.0, 
      "link": "https://www.facebook.com/539684606123429/posts/711184935640061", 
      "message": "ได้แต่คิดในใจว่าจะเรียนภาษาพม่า   เห็นที่จะต้องตั้งใจเรียนแล้วแหละ   ขอความกรุณาแนะนำด้วยนะคะ   ว่าจะเริ่มต้นอย่างไรก่อน  เรียนด้วยตนเองคงล้มแน่ๆ "
    }, 
    {
      "code": "711541968937691", 
      "created_time": 1414602315.0, 
      "link": "https://www.facebook.com/539684606123429/posts/711541968937691", 
      "message": "มะแนะมิงกะละบาชิ่น     สวัสดีตอนเช้า"
    }, 
    {
      "code": "710425662382655", 
      "created_time": 1414432361.0, 
      "link": "https://www.facebook.com/539684606123429/posts/710425662382655", 
      "message": "ยีซาชิบีลา      Weera Poocharoen", 
      "picture": "https://fbcdn-sphotos-d-a.akamaihd.net/hphotos-ak-xpf1/v/t1.0-9/s720x720/10382739_808643885843976_1861582750360638176_n.jpg?oh=5ded2b54e73afa50684bb9ff60355ba4&oe=5610A0F7&__gda__=1447863626_9f71e93a276470765c1e82a397870b41"
    }, 
    {
      "code": "711015732323648", 
      "created_time": 1414528014.0, 
      "link": "https://www.facebook.com/539684606123429/posts/711015732323648", 
      "message": "วิธีพูดภาษาพม่า   เรื่องความรัก         ชิตแด   รัก ล้วมแด   คิดถึง โม้แดก   เกลียด ปย่อแต   สนุก เก้าแด   ดี โซ้แด   ร้าย อะโก   พี่ชาย อมะ   พี่สาว"
    }
  ], 
  "page_id": "539684606123429"
}