{
  "content": [
    {
      "code": "577968178961738", 
      "created_time": 1391850355.0, 
      "link": "https://www.facebook.com/539684606123429/posts/577968178961738", 
      "message": "ถ้าเราอยากพูดว่ายินดีต้อนรับเป็นภาษาพม่าจะพูดว่าอย่างไรครับ"
    }, 
    {
      "code": "575679712523918", 
      "created_time": 1391452958.0, 
      "link": "https://www.facebook.com/539684606123429/posts/575679712523918", 
      "message": "ต้องขออภัยสมาชิกนะครับขาดไปหลายวันติดราชการสำคัญครับ   วันนี้เรามาเรียนรู้เรื่องเวลากันต่อนะครับ เริ่มจากเวลาเที่ยง เช้า บ่าย นะครับ ถ้าเวลาเที่ยงวัน 12 00 น อังกฤษเรียก noon เมียนม่าร์เรียก mun Lwe อ่านว่า มูน ละเว โดยคำว่า Lwe ให้อ่านรวบเร็วๆเป็นพยางค์เดียวนะครับ ถ้าเที่ยงคืน 12 00 p m  เมียนม่าร์เรียก tha gaun อ่านว่า ต่ะ กัน แปลว่า  เที่ยงคืน  หากเป็นเวลาเช้า  A M  ma ne thaun na yi อ่านว่า มะ เนะ โตง นายี แปลว่า 3 00 p m  ma ne chau na yi  อ่านว่า มะ เนะ เช้า นา ยี แปลว่า 6 00 p m  คำว่า ma ne มาเนะ แปลว่า A M  na yi นา ยี แปลว่า นาฬิกา เวลา ครับ หากเป็นเวลาหลังเที่ยงวัน 12 00 น  nya nei thaun na yi อ่านว่า ย่ะ เน โตง นา ยี  แปลว่า บ่าย 3 โมง  3 00 p m  nya nei chau na yi  อ่านว่า ย่ะ เน เช้า นา ยี แปลว่า 6 00 p m  คำว่า nya nei ย่ะ เน แปลว่า p m  หากถึงเวลา ตั้งแต่ 3 ทุ่ม 9 00 p m  เป็นต้นไป nya ko na yi อ่านว่า ย่ะ โก นา ยี่ แปลว่า 9 00 p m  สรุปนะครับตั้งแต่เช้าตี 1 เป็นต้นไปนำหน้าคำด้วย ma ne แล้วตามด้วยเวลา ลงท้ายด้วย na yi จนถึง 11 00 a m  ตั้งแต่บ่าย 2 โมงเป็นต้นไป นำหน้าคำด้วย  nya nei แล้วตามด้วยเวลา ลงท้ายด้วย na yi จนถึง 08 00 p m  ตั้งแต่ 3 ทุ่ม ใช้ nya นำหน้าจนถึง 5 ทุ่ม 11 00 p m  ลองฝึกดูครับ", 
      "picture": "https://scontent.xx.fbcdn.net/hphotos-ash4/v/t1.0-9/1618641_809955129030250_1584678506_n.jpg?oh=303b69349cfd306f4f3744bb58c00d71&oe=56451B0B"
    }, 
    {
      "code": "573292126096010", 
      "created_time": 1391020276.0, 
      "link": "https://www.facebook.com/539684606123429/posts/573292126096010", 
      "message": "ห้ามปัสสาวะ ที่ถูกต้องครับ", 
      "picture": "https://scontent.xx.fbcdn.net/hphotos-xtp1/v/t1.0-9/p180x540/1796703_806207129405050_964289519_n.jpg?oh=673b28fc2ebcaadc09fcb2e389f52f6f&oe=561205E7"
    }, 
    {
      "code": "573301572761732", 
      "created_time": 1391022426.0, 
      "link": "https://www.facebook.com/539684606123429/posts/573301572761732", 
      "message": "วันนี้แอดมิน เสนอเรื่องการถามเวลา และการอ่านเวลาเป็นถาาาเมียนม่าร์ นะครับ เริ่มเลยนะครับ Be nha na yi shi bi la  อ่านว่า  แบ นะ หน่า ยี่ ชิ บิ ลา แปลว่า เวลาเท่าไร ืัnya nei thoun  na yi shi bi อ่านว่า ยา เน โตง นา ยี ชิ บิ แปลว่า บ่าย 3 โมง หรือ ตอบแค่ว่า  Thoun na yi shi bi โตง นา ยี ชิ บิ ก้ได้ เพราะคนถามเวลาก็คงทราบว่าตอนที่ถามเช้าหรือบ่ายอยู่แล้ว เวลาอื่นเพื่อนำมาใช้ในประโยคก็มีดังนี้ครับ hse hna na yi  อ่านว่า แซะ นะ หน่า ยี  แปลว่า  12 00  เที่ยงวัน  ta na yi  อ่านว่า ตะ หน่า ยี  แปลว่า 1 00 p m ืัหรือ hse thoun na yi  อ่านว่า แซะ โตง หน่า ยี แปลว่า 13 00 น  ืnha na yi อ่านว่า นะ หน่า ยี่ แปลว่า  2 00 p m sinv hse le na yi อ่านว่า แซะ เล หน่า ยี่ แปลว่า 14 00 น  ลองฝึกดูครับ", 
      "picture": "https://scontent.xx.fbcdn.net/hphotos-xfa1/v/t1.0-9/q84/p180x540/1656357_806221436070286_1261294958_n.jpg?oh=1a6bbe9e853e52ffc990b938409ae8cc&oe=56545EB0"
    }, 
    {
      "code": "573120532779836", 
      "created_time": 1390987159.0, 
      "link": "https://www.facebook.com/539684606123429/posts/573120532779836", 
      "message": "ไม่ทราบว่าป้ายนี้พิมพ์ถูกหรือมั๊ย กลัวจะผิด ไปติดแล้วอายเค้าอะคะ  ", 
      "picture": "https://scontent.xx.fbcdn.net/hphotos-xaf1/t31.0-8/s720x720/1064439_10151840816221949_1760685575_o.jpg"
    }, 
    {
      "code": "573348826090340", 
      "created_time": 1391032908.0, 
      "link": "https://www.facebook.com/539684606123429/posts/573348826090340", 
      "message": "ป้ายห้ามปัสสาวะที่ถูกต้องค่ะ http   www upload thai com download php id 2fddef0bf05d163c3edff4ef49376ecc    ไฟล์นี้เปิดขยายได้ใน photoshop สำหรับคนอยากได้แบบชัดเจน", 
      "picture": "https://scontent.xx.fbcdn.net/hphotos-xfa1/v/t1.0-9/s720x720/156955_10151841829181949_421792948_n.jpg?oh=9e481d2602d52d707f51ea5b77c4a580&oe=5612DE18"
    }, 
    {
      "code": "571890702902819", 
      "created_time": 1390765850.0, 
      "link": "https://www.facebook.com/539684606123429/posts/571890702902819", 
      "message": "มีคนถามในเฟสคำว่าห้ามปัสสาวะเขียนว่าอย่างไร  ดูรูปนะครับ", 
      "picture": "https://scontent.xx.fbcdn.net/hphotos-xfp1/v/t1.0-9/p180x540/1003069_804266856265744_1611288591_n.jpg?oh=a79e9f45f95300d7700c7b2ef0375a21&oe=5653645F"
    }, 
    {
      "code": "572885079470048", 
      "created_time": 1390935225.0, 
      "link": "https://www.facebook.com/539684606123429/posts/572885079470048", 
      "message": "แอดมินเสนอภาษาเมียนม่าร์เกี่ยวกับประโยคสนทนาและการแนะนำเพื่อนต่อนะครับ A   Thu ngei gyin ho a mye tha mi go thi la  B   Thi da thu ka Pailin be  A   kye zu pyu ywei mei hse pei ba la  B   Ya be de  Pailin  da kyadaw thu ngei guin Smith Smith thu ka Pailin ba   A   Khu lo thi ya da wun ta ba de อ่านว่า คุ โล ติ ยา ดา วัน ตา บา แด แปลว่า ฉันยินดีที่ได้รู้จักคุณ  I m pleased to know you  B   khu lo twei ya da wun ta ba de  อ่านว่า คุ โล ตเวะ ยา ดา วัน ตา บา แด แปลว่า ฉันดีใจที่ได้พบคุณ  It s nice to meet you  ลองนำไปฝึกตั้งแต่ต้นจนจบบทสนทนานะครับ  ฝึกบ่อยครับ", 
      "picture": "https://scontent.xx.fbcdn.net/hphotos-xaf1/v/t1.0-9/s720x720/1656276_805608402798256_40183863_n.jpg?oh=f62168a255ba004d7a304376f489de46&oe=5647B7A3"
    }, 
    {
      "code": "572018446223378", 
      "created_time": 1390796759.0, 
      "link": "https://www.facebook.com/539684606123429/posts/572018446223378", 
      "message": "การเรียนการสอนภาษาเมียนม่าร์ของคณะครู โรงเรียนบ้านแม่ตาว อ แม่สอด จ ตาก วันจันทร์ที่ 27 มกราคม 2557", 
      "picture": "https://fbcdn-vthumb-a.akamaihd.net/hvthumb-ak-xfa1/v/t15.0-10/s720x720/1500726_804520436240386_804498399575923_20341_2233_b.jpg?oh=aba75f2480b074a71051baa0ca97d3fd&oe=5616E81C&__gda__=1448694601_53fe83c2013cd81fb41ea7eb2fb438ea"
    }, 
    {
      "code": "572358219522734", 
      "created_time": 1390850699.0, 
      "link": "https://www.facebook.com/539684606123429/posts/572358219522734", 
      "message": "อากาศเย็นๆ แอดมินเสนอภาษาเมียนม่าร์เกี่ยวกับประโยคสนทนาและการแนะนำเพื่อนต่อนะครับ A   Thu ngei gyin ho a mye tha mi go thi la อ่านว่า ตู แง่ จิ่น โฮ อะมิว ตา มิ โก ติ้ ล่า แปลว่า เพือ่นเธอรู้จักผู้หญิงคนนั้นไหม B   Thi da thu ka Pailin be อ่านว่า ติ้ แด ตู กะ ไพลิน แบ แปลว่า รู้จักเขาชื่อไพลิน A   kye zu pyu ywei mei hse pei ba la  อ่านว่า เจ ซู ปุย เหย่วะ เม แซะ เป บา ลา แปลว่า กรุณาแนะนำฉันให้เข้ารู้จักหน่อย B   Ya be de  Pailin  da kyadaw thu ngei guin Smith Smith thu ka Pailin ba  อ่านว่า ย่า แบ แด ไพลิน  ดา จะนอ ตู แง่ จิ่น สมิท  สมิท ตู กะ ไพลิน บา แปลว่า ไพลิน ฉันพาไปแนะนำเพื่อนฉันนี่สมิท สมิทนี่ไพลิน  ลองฝึกดูนะครับ", 
      "picture": "https://fbcdn-sphotos-g-a.akamaihd.net/hphotos-ak-xaf1/v/t1.0-9/1511711_804961572862939_1893806404_n.jpg?oh=59ed34e3ca60d81b726492131401af81&oe=56152EE3&__gda__=1444484144_ba3f8f218bafb9e7aa9c8ad5007b9bb6"
    }, 
    {
      "code": "562115643880325", 
      "created_time": 1389039562.0, 
      "link": "https://www.facebook.com/539684606123429/posts/562115643880325", 
      "message": "มีสมาชิกบางท่านใช้คำว่าสวัสดีปีใหม่ในภาษาเมียนม่าร์ด้วยคำว่า  nit tid gu min ga la ba  อ่านว่า นิด ติีด กู เมง กะ ลา บา โดยเข้าใจว่าแปลว่า สวสัดีปีใหม่  จริงๆแล้วในภาษาเมียนม่าร์ไม่มีใช้นะครับคำนี้ เข้าใจว่าสมาชิกคงใช้คำในภาษาเมียนม่าร์มาเทียบเคียงกับภาษาไทย ซึ่งคำว่า nit tid gu แปลว่า ปีใหม่  min ga la ba แปลว่า สวัสดี เลยเอามาเชื่อมต่อกัน เป็น nit tid gu min ga la ba แปลว่า สวัสดีปีใหม่ การเรียงคำในภาษาเมียนม่าร์จะเหมือนภาษาอังกฤษครับ คือ แปลจากหลังมาหน้า แต่ถ้าแปลตามตัว  จะแปลว่า ปีใหม่ถูกสวัสดี ครับ  ", 
      "picture": "https://fbcdn-sphotos-e-a.akamaihd.net/hphotos-ak-xap1/v/t1.0-9/s720x720/1546292_790632867629143_873058142_n.jpg?oh=070dd2368cfb8fddc2d486b673e75bad&oe=56437407&__gda__=1447369210_3986b056bba6669bf49b911e52d2dabc"
    }, 
    {
      "code": "565416020216954", 
      "created_time": 1389647186.0, 
      "link": "https://www.facebook.com/539684606123429/posts/565416020216954", 
      "message": "ใกล้เที่ยงละ  แอดมินขอเสนอรายการอาหารเป็นภาษาเมียนม่าร์นะครับวันนี้  เอาอาหารจานเดียวก่อนนะ Tha  min  jaw  อ่านว่า ถะ มิน จ่อ  แปลว่า  ข้าวผัด pason  Tha  min  jaw อ่านว่า ปะ โสน ถะ มิน จ่อ  แปลว่า  ข้าวผัดกุ้ง jag Tha  min  jaw อ่านว่า แจก ถะ มิน จ่อ  แปลว่า  ข้าวผัดไก่ vag Tha  min  jaw อ่านว่า แวก ถะ มิน จ่อ  แปลว่า  ข้าวผัดหมู ในการถามและตอบในการกิน  tha min za byi byi la  อ่านว่า ถะ มิน ซา บิ บิ ล่า แปลว่า ทานข้าวหรือยัง za byi byi อ่านว่า ซา บิ บิ แปลว่า ทานแล้ว ma za ya te bu อ่านว่า มะ ซา ยะ เต บู แปลว่า  ยังไม่ได้ทาน ลองเอาไปใช้ดูครับ  ", 
      "picture": "https://scontent.xx.fbcdn.net/hphotos-xpt1/v/t1.0-9/s720x720/1526108_794896353869461_1609432541_n.jpg?oh=29c4bcc251acc9df839955331b910968&oe=56483629"
    }, 
    {
      "code": "571893576235865", 
      "created_time": 1390766496.0, 
      "link": "https://www.facebook.com/539684606123429/posts/571893576235865", 
      "message": "วันนี้แอดมิน  ขอเสนอคำว่า the mo dhe taw อ่านว่า เต่ โม ดิ ท่าว  แปลว่า ส้มตำ the mo dhe  แปลว่า มะละกอ taw  แปลว่า  ตำ และต่อเนื่องจากการสนทนานะครับ ที่ว่าเพื่อนรู้จักผู้หญิง ผู้ชาย คนนี้ไหม Thu ngei gyin ho a mye  tha tha mi  go thi la  เวลาตอบนะครับ Thi da thu ka    ชื่อคนที่เขาถาม   be อ่านว่า  ติ้ แด ตู กะ      แบ  แปลว่า รู้จักเขาชื่อ      ลองฝึกดูนะครับ", 
      "picture": "https://fbcdn-sphotos-f-a.akamaihd.net/hphotos-ak-xpa1/v/t1.0-9/1546339_804274189598344_197646360_n.jpg?oh=d550471913e9905513d8c9b8c91ba9cb&oe=56544908&__gda__=1444184187_9165a640c01595db5a03484df42f97c3"
    }, 
    {
      "code": "571548092937080", 
      "created_time": 1390705734.0, 
      "link": "https://www.facebook.com/539684606123429/posts/571548092937080", 
      "message": "รบกวนหน่อยนะคะ อยากได้คำว่า ห้ามปัสสาวะ เป็นภาษาพม่า ว่าเขียนอย่างไร จะเอามาทำป้ายติดอะคะ"
    }, 
    {
      "code": "570181703073719", 
      "created_time": 1390456624.0, 
      "link": "https://www.facebook.com/539684606123429/posts/570181703073719", 
      "message": "မဂၤလာပါခင္‌ဗ်   เมน กะ ลา บา ขะ เมี๊ยะ สวัสดีครับ   "
    }, 
    {
      "code": "570515649706991", 
      "created_time": 1390505691.0, 
      "link": "https://www.facebook.com/539684606123429/posts/570515649706991", 
      "message": "อากาศหนาวๆวันนี้ 6 องศาครับ แอดมินเสนอภาษาเมียนม่าร์เกี่ยวกับประโยคสนทนาและการแนะนำเพื่อนต่อจากเมื่อวานนะครับ Thu ngei gyin ho a mye tha go thi la อ่านว่า ตู แง่ จิ่น โฮ อะมิว ตา โก ติ้ ล่า  แปลว่า เพื่อนเธอรู้จักผู้ชายคนนั้นไหม เมื่อวานบุคคลที่ 3เป็นหญิง วันนี้เป็นชายนะครับ  เมื่อแยกคำได้ความหมายดังนี้ Thu ngei gyin แปลว่า เพื่อน ho a mye แปลว่า นั้น tha แปลว่า  ผู้ชาย go thi la แปลว่า รู้จักไหม ลองฝึกดูนะครับ", 
      "picture": "https://scontent.xx.fbcdn.net/hphotos-xaf1/v/t1.0-9/1011682_802164006476029_901657667_n.jpg?oh=180caf37beaae1f06a5b198e780d787c&oe=561AD4AE"
    }, 
    {
      "code": "563463973745492", 
      "created_time": 1389300904.0, 
      "link": "https://www.facebook.com/539684606123429/posts/563463973745492", 
      "message": "Chit par de ♡ Chit tal", 
      "picture": "https://fbcdn-sphotos-e-a.akamaihd.net/hphotos-ak-xpf1/v/t1.0-9/1545985_742957119048111_1108887672_n.jpg?oh=738373f9843f213afcf8e6b45ee08eeb&oe=56562C39&__gda__=1444020927_70cf0b2af8f14dd25bc2d7e4c911fb01"
    }, 
    {
      "code": "570192226406000", 
      "created_time": 1390458504.0, 
      "link": "https://www.facebook.com/539684606123429/posts/570192226406000", 
      "message": "พอโอเค นิดหนิ่งหรือป่าวคับ       ", 
      "picture": "https://scontent.xx.fbcdn.net/hphotos-xap1/v/t1.0-9/s720x720/1551490_544361912329097_575637931_n.jpg?oh=5d3f6ac3e91ba580c5a9ab223e49ce68&oe=565887CA"
    }, 
    {
      "code": "569958089762747", 
      "created_time": 1390412475.0, 
      "link": "https://www.facebook.com/539684606123429/posts/569958089762747", 
      "message": "อากาศหนาวๆ แอดมินเลยรีบบริหารนิ้วแก้หนาววันนี้เสนอภาษาเมียนม่าร์เกี่ยวกับประโยคสนทนาและการแนะนำเพื่อนนะครับ Thu ngei gyin ho a mye tha mi go thi la อ่านว่า ตู แง่ จิ่น โฮ อะมิว ตา มิ โก ติ้ ล่า  แปลว่า เพือ่นเธอรู้จักผู้หญิงคนนั้นไหม เมื่อแยกคำได้ความหมายดังนี้ Thu ngei gyin แปลว่า เพื่อน ho a mye แปลว่า นั้น tha mi แปลว่า  ผู้หญิง go thi la แปลว่า รู้จักไหม วันนี้ประโยคค่อนข้างยาว เรียนไปช้าๆก่อนนะครับ เด่วสับสน", 
      "picture": "https://fbcdn-sphotos-a-a.akamaihd.net/hphotos-ak-xfp1/v/t1.0-9/s720x720/1613831_801525349873228_1039491722_n.jpg?oh=8824d18ad6816783d4740b2710c58862&oe=56182B07&__gda__=1447903388_037efa394e830a6b371da51c9720642b"
    }, 
    {
      "code": "569115886513634", 
      "created_time": 1390252295.0, 
      "link": "https://www.facebook.com/539684606123429/posts/569115886513634", 
      "message": "สวัสดดีวันอังคารครับ   ภาษาเมียนม่าร์วันนี้เรามาทำความเข้าใจกับคำ 3 คำนะครับที่เป็นกริยา คือคำว่า  jaw อ่านว่า จ่อ  แปลว่า  ทอด  คำว่า ghin อ่านว่า  กิ่น แปลว่า ย่าง และคำว่า tok อ่านว่า โตก แปลว่า ยำ เมื่อนำคำเหล่านี้ไปต่อท้ายคำนามก็จะเป็นคำนามเฉพาะ คือ คำว่า  jaw อ่านว่า จ่อ  แปลว่า  ทอด jag au jaw อ่านว่า แจก อุ จ่อ  แปลว่า ไข่เจียว jag ta jaw  อ่านว่า แจก ตา จ่อ แปลว่า ไก่ทอด vag ta jaw  อ่านว่า  แวก ตา จ่อ แปลว่า หมูทอด a me ta jaw อ่านว่า อ แม ตา จ่อ แปลว่า เนื้อทอด nga jaw  อ่านว่า  งา จ่อ  แปลว่า ปลาทอด  คำว่า ghin อ่านว่า  กิ่น แปลว่า ย่าง jag ta ghin  อ่านว่า แจก ตา กิ่น แปลว่า ไก่ย่าง vag ta ghin  อ่านว่า  แวก ตา กิ่น แปลว่า หมูย่าง a me ta ghin อ่านว่า อ แม ตา กิ่น แปลว่า เนื้อย่าง nga ghin  อ่านว่า  งา กิ่น  แปลว่า ปลาย่าง  คำว่า tok อ่านว่า โตก แปลว่า ยำ jag ta tok  อ่านว่า แจก ตา โตก แปลว่า ยำไก่ vag ta tok  อ่านว่า  แวก ตา โตก แปลว่า ยำหมู a me ta tok อ่านว่า อ แม ตา โตก แปลว่า ยำเนื้อ nga shing tok  อ่านว่า  งา ฉิง โตก  แปลว่า ยำปลาส้ม ลองไปฝึกใช้ดูครับ", 
      "picture": "https://scontent.xx.fbcdn.net/hphotos-xap1/v/t1.0-9/p180x540/1511303_800431803315916_241919821_n.jpg?oh=a984163943c986e19d9ef750522a8f64&oe=5610651E"
    }, 
    {
      "code": "568673849891171", 
      "created_time": 1390172476.0, 
      "link": "https://www.facebook.com/539684606123429/posts/568673849891171", 
      "message": "ติดตามความเคลื่อนไหวทางการเมือง และติดภาระกิจระยะหนึ่ง กลับมาแล้วภาษาเมียนม่าร์วันนี้แอดมิน เสนอคำที่ใช้ถามราคาสิ่งของนะครับ be lawe le  อ่านว่า แบ เล้า แล  แปลว่า  เท่าไร dhe ha be lawe le  อ่านว่า  ดี หา แบ เล้า แล  แปลว่า  อันนี้เท่าไร ้ho ha be lawe le  อ่านว่า โห หา แบ เล้า แล แปลว่า  อันโน้นเท่าไร a long be lawe le  อ่านว่า อา โล่ง แบ เล้า แล  แปลว่า  ทั้งหมดเท่าไร ลองนำไปทดลองใช้ดูนะครับ", 
      "picture": "https://fbcdn-sphotos-h-a.akamaihd.net/hphotos-ak-xpt1/v/t1.0-9/1524784_799853813373715_761436496_n.jpg?oh=d07af1110c73f4025221c7680498291b&oe=564ED6A0&__gda__=1444226421_c66a9ec91c8575c52fbd3c84f1e025dd"
    }, 
    {
      "code": "564930653598824", 
      "created_time": 1389566259.0, 
      "link": "https://www.facebook.com/539684606123429/posts/564930653598824", 
      "message": "แจ้งข่าวนะครับ  วันนี้แอดมินได้ส่งหนังสือให้ผู้โชคดีแล้ว 4 ท่าน นะครับที่แจ้งที่อยู่มาให้ ดังนี้ 1 คุณธี คับ มหาสารคาม  2 คุณPhetcharee Rupavijetra เชียงใหม่  3 คุณNong barber นครราชสีมา  4 คุณไม่เกเร แต่เฮฮา ไปหน่อย่ เชียงใหม่  ส่วนที่เหลือจะทยอยรีบส่งไปให้ในวันต่อๆนะครับ รอหนังสืออยู่ครับ", 
      "picture": "https://scontent.xx.fbcdn.net/hphotos-xap1/v/t1.0-9/p180x540/1557469_794330090592754_727257970_n.jpg?oh=78f0472f16b4c113823905010dfe9b0b&oe=564A95A3"
    }
  ], 
  "page_id": "539684606123429"
}