{
  "content": [
    {
      "code": "797364940355393", 
      "created_time": 1428126769.0, 
      "link": "https://www.facebook.com/539684606123429/posts/797364940355393", 
      "message": "ขอบคุณที่รับแอดค่ะ"
    }, 
    {
      "code": "797708543654366", 
      "created_time": 1428167521.0, 
      "link": "https://www.facebook.com/539684606123429/posts/797708543654366", 
      "message": "เจซูติน บาเด"
    }, 
    {
      "code": "797453363679884", 
      "created_time": 1428138425.0, 
      "link": "https://www.facebook.com/539684606123429/posts/797453363679884", 
      "message": "มีร้านขายหนังสือภาษาพม่าที่มหาชัยอยู่แถวไหนค่ะอยากรู้มาใครรู้บอกหน่อยค่ะ"
    }, 
    {
      "code": "796679597090594", 
      "created_time": 1428005479.0, 
      "link": "https://www.facebook.com/539684606123429/posts/796679597090594", 
      "message": "ขอบคุณที่รับเข้ากลุ่มนะค๊ะ"
    }, 
    {
      "code": "796701680421719", 
      "created_time": 1428010205.0, 
      "link": "https://www.facebook.com/539684606123429/posts/796701680421719", 
      "message": "ขอบคุณนะค่ะที่รับเข้ากลุ่ม   "
    }, 
    {
      "code": "797239343701286", 
      "created_time": 1428099424.0, 
      "link": "https://www.facebook.com/539684606123429/posts/797239343701286", 
      "message": "ขอบคุณที่รับเขากลุ่มค่ะ  อยากศึกษาภาษาเพื่อนบ้านบ้าง"
    }, 
    {
      "code": "797256213699599", 
      "created_time": 1428102685.0, 
      "link": "https://www.facebook.com/539684606123429/posts/797256213699599", 
      "message": "ขอบคุณที่รับเข้ากลุ่มค่ะ   "
    }, 
    {
      "code": "796647140427173", 
      "created_time": 1427999619.0, 
      "link": "https://www.facebook.com/539684606123429/posts/796647140427173", 
      "message": "ขอบคุณที่รับเข้ากลุ่มนะคะ"
    }, 
    {
      "code": "797097697048784", 
      "created_time": 1428086087.0, 
      "link": "https://www.facebook.com/539684606123429/posts/797097697048784", 
      "message": "อันนี่แปลเป็นไทยว่าไงครับ  ขอบคุณหลายๆๆคร๊าบ", 
      "picture": "https://fbcdn-sphotos-f-a.akamaihd.net/hphotos-ak-xtp1/v/t1.0-9/10484674_1584708071807437_1660556893666145678_n.jpg?oh=bb6f529d92266f77cf3b9aeab31cac48&oe=564C905B&__gda__=1447701629_cb87432788125bbd2fea93909330be7e"
    }, 
    {
      "code": "796633513761869", 
      "created_time": 1427996345.0, 
      "link": "https://www.facebook.com/539684606123429/posts/796633513761869", 
      "message": "ယူႏိုင္ အ႐ူးမေလး အ႐ူးဘာေတြပို႔ေနလဲ  พอดีว่ามีคนรู้จักทักมาอ้ะค่ะ อยากรู้ว่า 3 คำนี้แปลว่าอ่ะไร แปลให้ด้วยนะค่ะ คำอ่านด้วยก็ดีค่ะ"
    }, 
    {
      "code": "795629743862246", 
      "created_time": 1427830459.0, 
      "link": "https://www.facebook.com/539684606123429/posts/795629743862246", 
      "message": "คำว่า  รำคาญ  กับ  เบื่อ     คือคำว่าอะไรครับ ใช้ด้วยกันได้มั้ยครับ"
    }, 
    {
      "code": "796721803753040", 
      "created_time": 1428014187.0, 
      "link": "https://www.facebook.com/539684606123429/posts/796721803753040", 
      "message": "ေအးစားၿပီးၿပီနင္ေရာစားၿပီးၿပီလား เค้าสื่ออ้ะไรค้ะ"
    }, 
    {
      "code": "796700747088479", 
      "created_time": 1428009960.0, 
      "link": "https://www.facebook.com/539684606123429/posts/796700747088479", 
      "message": "เค้าจะสื่ออะไรกับเราหรอค้ะ", 
      "picture": "https://fbcdn-sphotos-f-a.akamaihd.net/hphotos-ak-xtp1/v/t1.0-9/11079358_354532618090351_5575044224517425555_n.jpg?oh=c9e545b1682b9119478a78b258a8c8b3&oe=5648668A&__gda__=1447476924_a3f75db37b09594dfb76e81bb6795644"
    }, 
    {
      "code": "795904157168138", 
      "created_time": 1427866601.0, 
      "link": "https://www.facebook.com/539684606123429/posts/795904157168138", 
      "message": "เรียนแอดมินค่ะ   เพจเราถูกมือนรกรบกวนลงสิ่งบัดซบสู่สาธารณะ เข้าใจว่าจะเป็นไวรัส ช่วยตรวจสอบด้วยค่ะ  สมาชิกเราอย่าไปกดดูนะคะ     "
    }, 
    {
      "code": "796419623783258", 
      "created_time": 1427954460.0, 
      "link": "https://www.facebook.com/539684606123429/posts/796419623783258", 
      "message": "မဂၤလာပါ ဆရာ ဆရာမ်ား   ဒီ  สมาพันธ์แรงงานรัฐวิสาหกิจสัมพันธ์  ဆုိတဲ့ရုံးကုိ  ျမန္မာလုိ ဘယ္လုိရုံးလုိ႔ျပန္ၾကပါသလဲ "
    }, 
    {
      "code": "795711590520728", 
      "created_time": 1427845845.0, 
      "link": "https://www.facebook.com/539684606123429/posts/795711590520728", 
      "message": "แจ้งสมาชิกข่าวจากแอดมินชี้แจงนะครับ   ขณะนี้มีหลายโพสที่โดนไวรัสเกิดจากการเข้าไปคลิกดูลิ้งค์ภาพโป๊ ลามกอนาจาร ทำให้ท่านกลายเป็นแชร์คลิปดังกล่าวโดยไม่รู้ตัว และมาปรากฏในกลุ่มภาษาเมียนม่าร์วันละคำ แอดมินจึงมีความจำเป็นดำเนินการลบโพสนั้นทันทีเมื่อเจอนะครับ แต่ยังไม่แบนความเป็นสมาชิกของท่าน แต่หากมีการโพสเป็นครั้งที่ 2 แอดมินจะดำเนินการลบโพสและแบนการเป็นสมาชิกทันทีนะครับ   แอดมินเข้าใจสมาชิกที่โดนไวรัสนะครับแต่ก็ให้โอกาสท่านแก้ปัญหาก่อน แต่หากท่านไม่แก้ปัญหาและยังเกิดซ้ำอีกก็ต้องขออภัยที่ต้องแบนการเป็นสมาชิกกลุ่มของท่านนะครับ   เมื่อท่านแก้ปัญหาได้ก็สมัครเข้ามาใหม่ได้ครับแอดมินยินดีต้อนรับครับ   จากแอดมิน  ", 
      "picture": "https://scontent.xx.fbcdn.net/hphotos-xpf1/v/t1.0-9/11079617_1105254352833658_772099114437522288_n.jpg?oh=f57fd5f362d271a3693a755c2fa5faaf&oe=56114067"
    }, 
    {
      "code": "796449240446963", 
      "created_time": 1427959387.0, 
      "link": "https://www.facebook.com/539684606123429/posts/796449240446963", 
      "message": "အခ်ိေရေသာက္မလား   อ่านว่ารัยอ่ออ"
    }, 
    {
      "code": "796410570450830", 
      "created_time": 1427953199.0, 
      "link": "https://www.facebook.com/539684606123429/posts/796410570450830", 
      "message": "1 ကိုယ ့္လမ္း ကိုယ ္ေလွ်ာက္ โก๊ะ ลาน โก่ เฌ่า ทางเราเราเดิน    2 ကိုယ့္ သ မိုင္း ကိုယ္ ေရး โก๊ะ ตะ ไม โก่ เย ตำนานของเราเราเขียน   3  ကိုယ့္ အ ေပၚ မ ေကာင္း နုိင ္တဲ့ လူ ေတြ ကို ေက်ာ ခိုင္း လိုက ္နိူင္ တာ လဲ โก๊ะ อะ ป่อ มะ กอง ไหน่ แด๊ะ หลู่ ด่วย โก่ จอ คัย ไล่ หนั่ย ต่า แล หากหันหลังให้บรรดาผู้ที่ไม่สามารถทำดีกับเราได้นั้นก็    4 “ေအာင ္ျမင္ မႈ ပဲ” อ่อง หมิ่น ฮมุ แบ พบกับความสำเร็จ ", 
      "picture": "https://fbcdn-sphotos-a-a.akamaihd.net/hphotos-ak-xat1/v/t1.0-9/11133719_815897515171373_1761530983949936946_n.jpg?oh=e1fe4e79aae3554c1afdfd9e95f09565&oe=56574465&__gda__=1448167098_2278fdb2d97673d13919ea3dc6948ea4"
    }, 
    {
      "code": "795375513887669", 
      "created_time": 1427787430.0, 
      "link": "https://www.facebook.com/539684606123429/posts/795375513887669", 
      "message": "ทมิน ซา ปี บี ลา  กินข้าวหรือยัง ซาปีบี  กินแล้ว มซา ย่ะ เด บู่  ยังไม่ได้กิน"
    }, 
    {
      "code": "795382110553676", 
      "created_time": 1427788535.0, 
      "link": "https://www.facebook.com/539684606123429/posts/795382110553676", 
      "message": "กุ้ง  บ ซุ่น ปลา  งา เนื้อวัว  อะ แม ตา เนื้อไก่  แจ้ด ตา เนื้อหมู  แว้ด ตา เนื้อเป็ด  แบ ตา เนื้อแพะ  เซะ ตา  พริก  งะโยะ ตี เครื่องเทศ  มะซาหล่า เสื้อผ้า  อะวุด อะแท่"
    }, 
    {
      "code": "796368390455048", 
      "created_time": 1427950843.0, 
      "link": "https://www.facebook.com/539684606123429/posts/796368390455048", 
      "message": "ေတာ္တယ္   อ่านว่ารัยค่ะ ေကြၽးရင္စားမယ္  สองคำเลยย"
    }, 
    {
      "code": "795589020532985", 
      "created_time": 1427821738.0, 
      "link": "https://www.facebook.com/539684606123429/posts/795589020532985", 
      "message": "อาโลง เนเกา หล่าดีเน่ะ  วันนี้ ทุกคนสบายดีไหม"
    }, 
    {
      "code": "796168587141695", 
      "created_time": 1427914333.0, 
      "link": "https://www.facebook.com/539684606123429/posts/796168587141695", 
      "message": "ผมขอแชร์มาจากเฟสเพื่อนมาอีกทีครับ   สะท้อนให้เห็นถึงอีกปัญหานึง ที่เกิดจากการเปลี่ยนแปลงอย่างรวดเร็วหลังจากการเปิดประเทศพม่าครับ บรรทัดแรก ၁၂ လက္မ ၁ ေပ อ่านว่า แสะ หนะ และ มะ ตะ เป่ แปลว่า 12 นิ้วได้ 1 ฟุต บรรทัดสอง ၃ ေပ ၁ ခါ ေရြ႕ อ่านว่า โตง เป่ ตะ ข่า เยว้ ออกเสียง ย กับ ว พร้อมกัน  แปลว่า เคลื่อน 1 ครั้งได้ 3 ฟุต บรรทัดสาม ၁၀ ခါေရြ႕ ၁ မွတ္တိုင္  อ่านว่า แส่ ข่า เยว้ ตะ มัด ไต่ง์ แปลว่า เคลื่อน 10 ครั้งได้ 1 ป้ายรถเมล์ บรรทัดสี่ ၃ မွတ္တိုင္ ၁ ေရးရ อ่านว่า โตง มัด ไต่ง์ ตะ เย ยะ แปลว่า 3 ป้ายรถเมล์ได้ 1 งีบ หลับ  บรรทัดห้า အဲ့ဒါ ရန္ကုန္ ကြ ဒါပဲ   ကဲ  อ่านว่า แอ้ะ ด่า หย่าง โก่ง กวะ ด่า แบ แก แปลว่า นั่นคือ ย่างกุ้ง ว่ะ แค่นี้  เอาละ"
    }
  ], 
  "page_id": "539684606123429"
}