{
  "content": [
    {
      "code": "628598320565390", 
      "created_time": 1400746712.0, 
      "link": "https://www.facebook.com/539684606123429/posts/628598320565390", 
      "message": "ขอบคุณมากค่ะที่รับ"
    }, 
    {
      "code": "628829760542246", 
      "created_time": 1400782892.0, 
      "link": "https://www.facebook.com/539684606123429/posts/628829760542246", 
      "message": "ขอบคุณคับที่รับเขีากลุ่ม"
    }, 
    {
      "code": "628581063900449", 
      "created_time": 1400744525.0, 
      "link": "https://www.facebook.com/539684606123429/posts/628581063900449", 
      "message": "มิงกาลาบา"
    }, 
    {
      "code": "628488053909750", 
      "created_time": 1400726060.0, 
      "link": "https://www.facebook.com/539684606123429/posts/628488053909750", 
      "message": "โปรไหม่คับ  ไอโฟน5s ท้อป จาก6990 ลดเหลือ 4900 บาท ไอโฟน5s รองท้อป จาก5990 ลดเหลือ 3900 บาทคับ จัดส่งฟรี แถมเคส แถมฟิมล์กันรอย โปรนี้ถึง 25 5 57  โทร 0986144328 https   www facebook com nywoot9865 https   m facebook com tanawootmaket", 
      "picture": "https://fbcdn-sphotos-h-a.akamaihd.net/hphotos-ak-xpf1/v/t34.0-12/s720x720/10405774_461112103992460_2033296470_n.jpg?oh=3d72d5c017c0a181deefbe5d7a462c89&oe=55B246CA&__gda__=1437756469_3fec60275a66b76744bd4f9f74107df1"
    }, 
    {
      "code": "627926310632591", 
      "created_time": 1400648618.0, 
      "link": "https://www.facebook.com/539684606123429/posts/627926310632591", 
      "message": "Mingala", 
      "picture": "https://scontent.xx.fbcdn.net/hphotos-xat1/v/t1.0-9/10341614_902476599778484_4899894326562743774_n.jpg?oh=4034435ae47dcd1832a11be0a9907fd2&oe=5649255F"
    }, 
    {
      "code": "628029253955630", 
      "created_time": 1400660022.0, 
      "link": "https://www.facebook.com/539684606123429/posts/628029253955630", 
      "message": "ต้องไปซื้อขนมจีบซาละเปา แม่ค้าพม่าค่ะ อยากคุยกะเขา แบบสั่ง ขนมจีบ10 บาท ขอบคุณค่ะ พูดว่ายังไงบ้างคะ"
    }, 
    {
      "code": "627869610638261", 
      "created_time": 1400635581.0, 
      "link": "https://www.facebook.com/539684606123429/posts/627869610638261", 
      "message": "หนูอย่างรู้ว่า เราชอบเทอ เทอน่ารัก ภาษาพม่าเขียนยังไง"
    }, 
    {
      "code": "627297947362094", 
      "created_time": 1400533482.0, 
      "link": "https://www.facebook.com/539684606123429/posts/627297947362094", 
      "message": "ทหารประกาศกฏอัยการศึก ตี 3 วันนี้ เรามาเรียนรู้ศัพท์เกี่ยวกับ ทหารบ้างนะครับ   jee tud  อ่านว่า จี่  ตั๊ด  แปลว่า กองทัพบก hyea tud อ่านว่า เหย่   ตั๊ด  แปลว่า กองทัพเรือ hlea tud อ่านว่า เหล่ ตั๊ด แปลว่า กองทัพอากาศ sit ta อ่านว่า ซิด ตา แปลว่า ทหาร a hna zin อ่านว่า อ่า หน่า สิ่น แปลว่า เผด็จการ zid pa vae อ่านว่า ซิด ปะ แว แปลว่า  สงคราม je hya  อ่านว่า เจ หย่า แปลว่า ประกาศ hnee bew ha  อ่านว่า นี่ บิว ห่า แปลว่า ยุทธวิธี a hna teng de  อ่านว่า อ่า หน่า เต็ง แด่ แปลว่า ยึดอำนาจ ปฏิวัติ ", 
      "picture": "https://scontent.xx.fbcdn.net/hphotos-xft1/v/t1.0-9/10320610_877656775593418_7096559793319087255_n.jpg?oh=8d13b199cb1ad187aa5cbb4c7aa8c620&oe=5652ECE2"
    }, 
    {
      "code": "627295980695624", 
      "created_time": 1400533123.0, 
      "link": "https://www.facebook.com/539684606123429/posts/627295980695624", 
      "message": "ขอบคุณนะคะ"
    }, 
    {
      "code": "627222137369675", 
      "created_time": 1400519727.0, 
      "link": "https://www.facebook.com/539684606123429/posts/627222137369675", 
      "message": "มิงกะลาบ่า ทุกท่านค่ะ"
    }, 
    {
      "code": "627401817351707", 
      "created_time": 1400556489.0, 
      "link": "https://www.facebook.com/539684606123429/posts/627401817351707", 
      "message": "ขอบคุณจ้า"
    }, 
    {
      "code": "626794300745792", 
      "created_time": 1400439134.0, 
      "link": "https://www.facebook.com/539684606123429/posts/626794300745792", 
      "message": "ขอบคุณครับ"
    }, 
    {
      "code": "627335734024982", 
      "created_time": 1400543959.0, 
      "link": "https://www.facebook.com/539684606123429/posts/627335734024982", 
      "message": "ขอบคุณครับ"
    }, 
    {
      "code": "627350014023554", 
      "created_time": 1400547826.0, 
      "link": "https://www.facebook.com/539684606123429/posts/627350014023554", 
      "message": "เรียนภาษาพม่า จากป้ายใกล้ตัวกันบ้างเนาะ   สำหรับท่านที่ browser ไม่โชว์ตัวอักษรพม่า ผมได้ทำเป็นรูปภาพประกอบ    ซึ่งต้องอ่านประกอบคำอธิบายนะครับ    ป้าย  ให้เช่า  นี้ ให้ความรู้อะไรกับเราได้บ้าง อ่านได้ว่า  เอ้กค้านฮง่าแหม่  จะให้เช่าห้อง คำศัพท์   အိမ်   เอ้ก     บ้าน   ခန်း   ค้าน     ห้อง  ฉะนั้น အိမ်ခန်း จึงหมายถึงบ้านห้อง หากเป็นตึกที่มีห้องสามชั้น ก็จะรวมทั้งสามชั้นนั้นด้วย เหมือนอพาร์ทเมนต์สามชั้น ก็หมายถึงทุกช้น ถ้าจะระบุห้องนี้ห้องเดียว ควรใช้คำว่า အခန်း  อะค้าน  ที่แปลว่าห้อง หรือระบุคำบ่ง นี้ ไว้ด้านหน้า ให้ชัดว่า  ดีอะค้าน  ห้องนี้ก็ชัดเจนดี    ငှါး   ฮง่า     เป็นกริยาแปลว่า  เช่า  ตัวนี้เป็น ง  งู  บวกกับ ห  หีบ  ถ้าตัด ห  หีบ  ออกเสีย ก็จะแปลว่า ปลา และ เลขห้า คุ้น ๆ กันเนาะ   မည် เป็นคำท้ายประโยค แบบภาษาเขียนของคำว่า မယ် ที่เแปลว่า  จะ   ประโยคนี้ในภาษาพูดจะคุยกันว่า အိမ်ခန်းငှါးမယ်။   ในทางไวยากรณ์จัดว่ายังไม่ครอบคลุมเมื่อเขียนเป็นภาษาเขียนแล้วก็ระบุตัวบ่งกรรม  คือห้อง  ให้ชัดเป็น အိမ်ခန်းမှာ ငှါးမည်။   จัดเป็นการเขียนป้ายแบบทางการอีกป้ายครับ", 
      "picture": "https://scontent.xx.fbcdn.net/hphotos-xaf1/v/t1.0-9/s720x720/10338821_665247893541024_7874135380846136195_n.jpg?oh=957dc0519cace803ca280b86934ea830&oe=5644DAF2"
    }, 
    {
      "code": "627316067360282", 
      "created_time": 1400538251.0, 
      "link": "https://www.facebook.com/539684606123429/posts/627316067360282", 
      "message": "ขอบคุณที่รับแอดนะคะ เจซูติ่นบ่าแด่  ♡", 
      "picture": "https://scontent.xx.fbcdn.net/hphotos-xpf1/v/t1.0-9/10268591_1423503304582264_3841823913204031070_n.jpg?oh=422080ef2f56da4df226c1bdd0daa5c1&oe=564FA534"
    }, 
    {
      "code": "627296230695599", 
      "created_time": 1400533155.0, 
      "link": "https://www.facebook.com/539684606123429/posts/627296230695599", 
      "message": "ขอบคุณนะคะ"
    }, 
    {
      "code": "626856524072903", 
      "created_time": 1400453139.0, 
      "link": "https://www.facebook.com/539684606123429/posts/626856524072903", 
      "message": "มิงกะลาบาร์ชิ"
    }, 
    {
      "code": "626396297452259", 
      "created_time": 1400371609.0, 
      "link": "https://www.facebook.com/539684606123429/posts/626396297452259", 
      "message": "ปูแด่   "
    }, 
    {
      "code": "626932630731959", 
      "created_time": 1400471530.0, 
      "link": "https://www.facebook.com/539684606123429/posts/626932630731959", 
      "message": "เชิญทานข้าวเย็น ใช้คำอะไรคะ"
    }, 
    {
      "code": "626900320735190", 
      "created_time": 1400464651.0, 
      "link": "https://www.facebook.com/539684606123429/posts/626900320735190", 
      "message": "ขอบคุณค่ะที่รับนู๋ได้เรียนรู้ภาษาด้วยค่ะ"
    }, 
    {
      "code": "626875937404295", 
      "created_time": 1400457824.0, 
      "link": "https://www.facebook.com/539684606123429/posts/626875937404295", 
      "message": "ขอบคุณค่ะที่รับเข้ากลุ่ม"
    }, 
    {
      "code": "626857794072776", 
      "created_time": 1400453461.0, 
      "link": "https://www.facebook.com/539684606123429/posts/626857794072776", 
      "message": "ทะมีน ซ้าร์ บิบิ หร่ะ "
    }, 
    {
      "code": "626860694072486", 
      "created_time": 1400454324.0, 
      "link": "https://www.facebook.com/539684606123429/posts/626860694072486", 
      "message": "วันนี้ ขับรถอา่นอย่างไรครับ"
    }, 
    {
      "code": "626771140748108", 
      "created_time": 1400433629.0, 
      "link": "https://www.facebook.com/539684606123429/posts/626771140748108", 
      "message": "มิง  กะ  ลา  บ่า   มะ  นะ  เตร์", 
      "picture": "https://scontent.xx.fbcdn.net/hphotos-xfp1/v/t1.0-9/10264945_521987771240929_4597877751521627212_n.jpg?oh=e3dba3b1ef57d07473064952fcfd1422&oe=5655A947"
    }, 
    {
      "code": "626764300748792", 
      "created_time": 1400432833.0, 
      "link": "https://www.facebook.com/539684606123429/posts/626764300748792", 
      "message": "เมงกะลาบ่า    เช้าวันนี้ค่ะครู", 
      "picture": "https://scontent.xx.fbcdn.net/hphotos-xap1/v/t1.0-9/s720x720/10382988_1402723206680767_5864504668346955047_n.jpg?oh=ea42f9210435abcddddeb34a795f6fc5&oe=565A4FEB"
    }
  ], 
  "page_id": "539684606123429"
}