{
  "content": [
    {
      "code": "793289254096295", 
      "created_time": 1427445915.0, 
      "link": "https://www.facebook.com/539684606123429/posts/793289254096295", 
      "message": "ขอถามนอกเรื่อง หน่อยนะครับ พม่ามีGPSใหมครับ"
    }, 
    {
      "code": "790403937718160", 
      "created_time": 1426919105.0, 
      "link": "https://www.facebook.com/539684606123429/posts/790403937718160", 
      "message": "วันนี้ไปเรียนภาษาพม่าที่  วัดตะล่อมสนุกมากครับ   "
    }, 
    {
      "code": "793182870773600", 
      "created_time": 1427425419.0, 
      "link": "https://www.facebook.com/539684606123429/posts/793182870773600", 
      "message": "ขอบคุณนะคับ☺"
    }, 
    {
      "code": "793168750775012", 
      "created_time": 1427421838.0, 
      "link": "https://www.facebook.com/539684606123429/posts/793168750775012", 
      "message": "ขอบคุณนะค๊า"
    }, 
    {
      "code": "793141684111052", 
      "created_time": 1427414294.0, 
      "link": "https://www.facebook.com/539684606123429/posts/793141684111052", 
      "message": "เพราะรักจึงยอม พูดเป็นภาษาพม่า ว่าอย่างไงค่ะ ขอบคุณค่ะ"
    }, 
    {
      "code": "792654730826414", 
      "created_time": 1427320634.0, 
      "link": "https://www.facebook.com/539684606123429/posts/792654730826414", 
      "message": "ขอบคุณคับที่รับเข้ากลุ่ม"
    }, 
    {
      "code": "792620764163144", 
      "created_time": 1427313002.0, 
      "link": "https://www.facebook.com/539684606123429/posts/792620764163144", 
      "message": "มวย กะ เด ก๊ะ ตั้งแต่เกิด   ตะ ข่า ฮมะ มะ มา บู แด๊ะ ตู่ โส่ ด่า อันว่าผู้ที่ไม่ผิดสักครั้งเลยนั้น   ลอ ก๊ะ จี หม่า ในโลกนี้   มะ ฌิ้ เต บู ยังไม่มี   เรียบเรียงใหม่ก็ได้ดังนี้ครับ       อันว่าผู้ที่ไม่ผิดเลยสักครั้งตั้งแต่เกิดนั้น  ยังไม่มีในโลกนี้", 
      "picture": "https://fbcdn-sphotos-e-a.akamaihd.net/hphotos-ak-xfa1/v/t1.0-9/p720x720/17830_812209518873506_4234472464277741903_n.jpg?oh=a5515ee43789749ed0ca9e670b4d7d5b&oe=5618704B&__gda__=1448533057_8a1610ede7b0dd6a3d36dabc2450cfa5"
    }, 
    {
      "code": "792608517497702", 
      "created_time": 1427310217.0, 
      "link": "https://www.facebook.com/539684606123429/posts/792608517497702", 
      "message": "ขอบคุณค่ะ"
    }, 
    {
      "code": "792325737525980", 
      "created_time": 1427260920.0, 
      "link": "https://www.facebook.com/539684606123429/posts/792325737525980", 
      "message": "ขอบคุณค่ะ"
    }, 
    {
      "code": "789087401183147", 
      "created_time": 1426676268.0, 
      "link": "https://www.facebook.com/539684606123429/posts/789087401183147", 
      "message": "ฉันชอบหมามากกว่าแมว ต้องพูดยังไงค่ะ"
    }, 
    {
      "code": "792327827525771", 
      "created_time": 1427261397.0, 
      "link": "https://www.facebook.com/539684606123429/posts/792327827525771", 
      "message": "อยากได้ประโยคแนะนำการบริการจะพิมพ์ไปติดใบ lab คะ   งดอาหารและเครื่องดื่มตั้งแต่เวลา 20 00 น    24 00 น  เพื่อตรวจเลือด"
    }, 
    {
      "code": "791250767633477", 
      "created_time": 1427065041.0, 
      "link": "https://www.facebook.com/539684606123429/posts/791250767633477", 
      "message": "อาหารพม่าอร่อยๆ เยอะครับ แต่เรียกไม่ถูก อย่างบะหมี่นี่ไปกินที่ บากัน  พุกาม  ถามพ่อค้าเขาบอกเรียกว่า  จูไล  ไม่รู้ฟังผิดรึเปล่า ถ้าเพื่อนสมาชิกมีชื่ออาหารพม่าแนะนำหน่อยนะครับ เผื่อได้หาโอกาสทานบ้าง   อะซา อะส่า อาหาร  เข้า ซแว ก๋วยเตี๋ยว   ส่าน ปโย่ก ข้าวต้ม   ถะมิน จ่อ ข้าวผัด   แจ้ด จ่อ ไก่ทอด   แจ้ด อุ้ จ่อ ไข่ดาว   แจ้ด อุ้ มเหว่ จ่อ ไข่เจียว  ", 
      "picture": "https://fbexternal-a.akamaihd.net/safe_image.php?d=AQCv0L3xzGIVQK_j&w=720&h=720&url=http%3A%2F%2Fi.ytimg.com%2Fvi%2FRjLEO8_VuF0%2Fhqdefault.jpg&cfs=1"
    }, 
    {
      "code": "792143284210892", 
      "created_time": 1427218829.0, 
      "link": "https://www.facebook.com/539684606123429/posts/792143284210892", 
      "message": "ขอความช่วยเหลือค่ะ แปลให้หน่อยค่ะเจซูตินบ่าแด่", 
      "picture": "https://fbcdn-sphotos-a-a.akamaihd.net/hphotos-ak-xat1/v/t34.0-12/11076130_1418843241754108_837399402_n.jpg?oh=34b76c0d55e92f25bc286662599bd6e1&oe=55B25840&__gda__=1437825365_2487acdb961c415748f140c66765d7d1"
    }, 
    {
      "code": "791706840921203", 
      "created_time": 1427143629.0, 
      "link": "https://www.facebook.com/539684606123429/posts/791706840921203", 
      "message": "ไม่มีอะไรมากขำๆครับ       อะ โลง จี แด่ เต แด่ ลูกใหญ่ลูกเล็ก  โล้บ มะ เหน่ แนะ อย่าได้แต่ว่าอยู่เลย   โก่ ได่ อุ๊ จี้ โอง ลองออกไข่ดูเองบ้างสิ   หุ้น หึ้ย ฮึ   เรียบเรียงใหม่ก็ประมาณนี้ครับ   อย่าได้แต่ว่าลูกเล็กลูกใหญ่อยู่เลย  ลองมาออกไข่ดูเองบ้างสิ  ฮึ", 
      "picture": "https://scontent.xx.fbcdn.net/hphotos-xap1/v/t1.0-9/17821_811270105634114_3650911324340207897_n.jpg?oh=db7c3242e2f8a2705d4f9ad86973e76c&oe=5655135F"
    }, 
    {
      "code": "791718544253366", 
      "created_time": 1427146641.0, 
      "link": "https://www.facebook.com/539684606123429/posts/791718544253366", 
      "message": "รบกวนถามพี่ๆที่ใจดีนะคะ ถ้ามิ้มจะเริ่มเรียนรู้ภาษาพม่า มิ้มควรเริ่มจากตรงไหนก่อน    ขอบคุณค่ะ ปล แอบติดตามกลุ่มนี้มาได้สักพักละคะ   "
    }, 
    {
      "code": "792160007542553", 
      "created_time": 1427223233.0, 
      "link": "https://www.facebook.com/539684606123429/posts/792160007542553", 
      "message": "อยากรู้เพื่อนๆMyanmaเค้าเขียนภาษาอังกฤษ ยีงงัยค่ะเพราะรู้สึกว่า จะไม่เหมือนของเราค่ะ ผู้รู้ช่วยสอนด้วยค่ะ ขอบคุณค่ะ"
    }, 
    {
      "code": "791905107568043", 
      "created_time": 1427184836.0, 
      "link": "https://www.facebook.com/539684606123429/posts/791905107568043", 
      "message": "เดือนด้วยนะคับ", 
      "picture": "https://scontent.xx.fbcdn.net/hphotos-xap1/v/t1.0-9/s720x720/11012998_1598389377073168_4485309723301101927_n.jpg?oh=f71626d27563a8f71c86d9a3a87e1dcf&oe=561AC464"
    }, 
    {
      "code": "789772867781267", 
      "created_time": 1426797174.0, 
      "link": "https://www.facebook.com/539684606123429/posts/789772867781267", 
      "message": "ดะบ๊อเป๊าหล่า   เข้าใจไหม  ดะบ๊อเป๊าหบี่หล่า   เข้าใจรึยัง  ฝากสองคำง่ายๆที่พูดบ่อยๆครับผม"
    }, 
    {
      "code": "791436434281577", 
      "created_time": 1427097620.0, 
      "link": "https://www.facebook.com/539684606123429/posts/791436434281577", 
      "message": "จัดไปคับ     ", 
      "picture": "https://scontent.xx.fbcdn.net/hphotos-xfa1/v/t1.0-9/s720x720/11082621_1597934183785354_5728136699534044490_n.jpg?oh=fb6dbdf6c58b7cbc7122a79ef9580403&oe=56465041"
    }
  ], 
  "page_id": "539684606123429"
}