{
  "content": [
    {
      "code": "590329014392321", 
      "created_time": 1394072503.0, 
      "link": "https://www.facebook.com/539684606123429/posts/590329014392321", 
      "message": "ตอบ  คำถามเรื่อง  การห้ามเข้าก่อนได้รับอนุญาต  นะครับ  ", 
      "picture": "https://fbcdn-sphotos-e-a.akamaihd.net/hphotos-ak-xpf1/v/t34.0-12/p180x540/10003305_829922503700179_1221721320_n.jpg?oh=33a640faea5b7cd971d98401d33d8ded&oe=55B24576&__gda__=1437742537_ea305fddc458395a11ce7849593ce13a"
    }, 
    {
      "code": "591247884300434", 
      "created_time": 1394214870.0, 
      "link": "https://www.facebook.com/539684606123429/posts/591247884300434", 
      "message": "ขอบคุณมากค่ะ"
    }, 
    {
      "code": "591014844323738", 
      "created_time": 1394180894.0, 
      "link": "https://www.facebook.com/539684606123429/posts/591014844323738", 
      "message": " ใหม่ ล่าสุด  เราจะพูดด้วยคำว่า  ปู่ปู่ นวยนวย  และ หรือ   เน่า ซง ป่อ  พอจะได้ไหม "
    }, 
    {
      "code": "590868784338344", 
      "created_time": 1394155626.0, 
      "link": "https://www.facebook.com/539684606123429/posts/590868784338344", 
      "message": "ภาษาพม่าน่ารู้ Photo by   Buranin Boon Im", 
      "picture": "https://fbcdn-sphotos-b-a.akamaihd.net/hphotos-ak-xtf1/v/t1.0-9/10014998_799722983374643_1370689190_n.jpg?oh=6be2f2c6c28c2d192dc7b6029b96594c&oe=561922CD&__gda__=1448046152_aad91c30a33bc95a23fe4fd68b51566d"
    }, 
    {
      "code": "590763894348833", 
      "created_time": 1394134193.0, 
      "link": "https://www.facebook.com/539684606123429/posts/590763894348833", 
      "message": "แอดมิน  มีภาระกิจiทางราชการต้องไปทำงานให้กระทรวงศึกษาที่กทม  1 อาทิตย์ คงห่างหายการโพสไปช่วงหนึ่งนะครับหากมีใครถามเข้ามา จะให้คุณ somo dech ตอบแทนก่อนนะครับ", 
      "picture": "https://fbcdn-sphotos-h-a.akamaihd.net/hphotos-ak-xpf1/v/t34.0-12/p180x540/1964709_825634947462268_14910960_n.jpg?oh=5f990f81d1f2df4d4af0fa08dec57961&oe=55B26293&__gda__=1437749074_d069d1f77cdfb63e7188f00774836919"
    }, 
    {
      "code": "589733754451847", 
      "created_time": 1393982403.0, 
      "link": "https://www.facebook.com/539684606123429/posts/589733754451847", 
      "message": "ภาษาพม่าน่ารู้ Photo by   Buranin Boon Im", 
      "picture": "https://scontent.xx.fbcdn.net/hphotos-xpf1/v/t1.0-9/1977007_798544590159149_908163267_n.jpg?oh=ab2a0d443ca84adced1ec21c1deee433&oe=564445B6"
    }, 
    {
      "code": "589190561172833", 
      "created_time": 1393880039.0, 
      "link": "https://www.facebook.com/539684606123429/posts/589190561172833", 
      "message": "หายไปหลายวันครับติดราชการ  วันนี้กลับมาแล้วก็นำเสนอคำถามคำตอบให้บ้างดีกว่าครับ ba lok hne le kinbya shin อ่านว่า บา ลก เน แล ขะเมี่ย ชิน แปลว่า ทำอะไรอยู่ครับ คะ ba hma  ma lok bu อ่านว่า บ่า ม่า มะ ลก บู้ แปลว่า ไม่ได้ทำอะไร หากกำลังกินข้าวอยู่ ก็ตอบ tha min za อ่านว่า ทะ มิน ซา แปลว่า กินข้าว ลองฝึกใช้ดูนะครับ", 
      "picture": "https://scontent.xx.fbcdn.net/hphotos-frc3/v/t1.0-9/p180x540/10001288_828606310498465_813664812_n.jpg?oh=18a652c3172e0121e0ac0f8bf82a200d&oe=565784E9"
    }, 
    {
      "code": "588342277924328", 
      "created_time": 1393733968.0, 
      "link": "https://www.facebook.com/539684606123429/posts/588342277924328", 
      "message": "ภาษาพม่าน่ารู้ Photo by   Buranin Boon Im", 
      "picture": "https://scontent.xx.fbcdn.net/hphotos-xfp1/v/t1.0-9/1620985_796976266982648_952984622_n.jpg?oh=72ce721f4db288a44c1a38d820fcdc5b&oe=565AF1B7"
    }, 
    {
      "code": "587932117965344", 
      "created_time": 1393657283.0, 
      "link": "https://www.facebook.com/539684606123429/posts/587932117965344", 
      "message": "ภาษาพม่าน่ารู้ Photo by   Buranin Boon Im", 
      "picture": "https://fbcdn-sphotos-d-a.akamaihd.net/hphotos-ak-xap1/v/t1.0-9/1926648_796518850361723_1516439603_n.jpg?oh=01f06e656c097e9dbd536973c6e3de3e&oe=561261AD&__gda__=1447831940_d057c47243d05efe8ec33632a5506179"
    }, 
    {
      "code": "587386891353200", 
      "created_time": 1393551777.0, 
      "link": "https://www.facebook.com/539684606123429/posts/587386891353200", 
      "message": "ภาษาพม่าน่ารู้ Photo by   Buranin Boon Im", 
      "picture": "https://scontent.xx.fbcdn.net/hphotos-xft1/v/l/t1.0-9/1619221_795787113768230_1392606460_n.jpg?oh=9704170af67a7085fe237a2d3cefb363&oe=5615C878"
    }, 
    {
      "code": "584017751690114", 
      "created_time": 1392928254.0, 
      "link": "https://www.facebook.com/539684606123429/posts/584017751690114", 
      "message": "ภาษาพม่าน่ารู้ Photo By   Buranin Boon Im", 
      "picture": "https://fbcdn-sphotos-e-a.akamaihd.net/hphotos-ak-xpf1/v/t1.0-9/1622669_791854570828151_1199153628_n.jpg?oh=f3c2a70f0a2061293159dc4d4ec70dc3&oe=565C188F&__gda__=1448552713_ab5e63a9bc204de561a14f9df878aec3"
    }, 
    {
      "code": "586954351396454", 
      "created_time": 1393465872.0, 
      "link": "https://www.facebook.com/539684606123429/posts/586954351396454", 
      "message": "ภาษาพม่าน่ารู้ Photo by   Buranin Boon Im", 
      "picture": "https://fbcdn-sphotos-f-a.akamaihd.net/hphotos-ak-xpf1/v/t1.0-9/1613765_795258957154379_1512844607_n.jpg?oh=a26061f67cca19e7b36c78b15bbf1da5&oe=5613FC42&__gda__=1448572868_f99b9f204a7cb0d18ce179c13dc48c9a"
    }, 
    {
      "code": "586449221446967", 
      "created_time": 1393388437.0, 
      "link": "https://www.facebook.com/539684606123429/posts/586449221446967", 
      "message": "เจซูอะเมียติ่นแด่คะเมีย     "
    }, 
    {
      "code": "586397001452189", 
      "created_time": 1393374035.0, 
      "link": "https://www.facebook.com/539684606123429/posts/586397001452189", 
      "message": "ภาษาพม่าน่ารู้ Photo by   Buranin Boon Im", 
      "picture": "https://scontent.xx.fbcdn.net/hphotos-xap1/v/t1.0-9/1620959_794684403878501_1801272947_n.jpg?oh=0e3a903ceec88688d2a8fb2aa6a551ea&oe=5619A8FA"
    }, 
    {
      "code": "585945621497327", 
      "created_time": 1393286436.0, 
      "link": "https://www.facebook.com/539684606123429/posts/585945621497327", 
      "message": "ภาษาพม่าน่ารู้ Photo by   Buranin Boon Im", 
      "picture": "https://fbcdn-sphotos-g-a.akamaihd.net/hphotos-ak-xfp1/v/t1.0-9/1932392_794149460598662_691415876_n.jpg?oh=1508942d1cea850d435f89a2f6cb3dba&oe=561BDBD3&__gda__=1448483634_c9348e97e9510512156647b6b2b0bde8"
    }, 
    {
      "code": "583640575061165", 
      "created_time": 1392853206.0, 
      "link": "https://www.facebook.com/539684606123429/posts/583640575061165", 
      "message": "ภาษาพม่าน่ารู้ ภาพจาก   Buranin Boon Im", 
      "picture": "https://scontent.xx.fbcdn.net/hphotos-xap1/v/t1.0-9/1969122_791421530871455_2015258076_n.jpg?oh=0cb2ca2dbdde84aac6aba7bb19f34d27&oe=565114A2"
    }, 
    {
      "code": "585072808251275", 
      "created_time": 1393121057.0, 
      "link": "https://www.facebook.com/539684606123429/posts/585072808251275", 
      "message": "ภาษาพม่าน่ารู้ Photo by   Buranin Boom Im", 
      "picture": "https://scontent.xx.fbcdn.net/hphotos-xpf1/v/t1.0-9/1796459_792994604047481_1393473465_n.jpg?oh=bd5fc861c514e0d7329939af659dadfe&oe=561453C7"
    }, 
    {
      "code": "584640781627811", 
      "created_time": 1393038320.0, 
      "link": "https://www.facebook.com/539684606123429/posts/584640781627811", 
      "message": "ภาษาพม่าน่ารู้ Photo by   Buranin Boon Im", 
      "picture": "https://scontent.xx.fbcdn.net/hphotos-xat1/v/t1.0-9/1779045_792508540762754_253196796_n.jpg?oh=39358f96c358092fa635e23c83104d2a&oe=56466917"
    }, 
    {
      "code": "584023948356161", 
      "created_time": 1392929731.0, 
      "link": "https://www.facebook.com/539684606123429/posts/584023948356161", 
      "message": "เนื่องจากแอดมิน มีภาระกิจต้องเดินทางอยู่เนืองๆ เพื่อไม่ให้สมาชิกคอยนาน แอดมินจึงให้ สมาชิกคุณ Somo Decth โพส ภาษาเมียนม่าร์ให้วันละคำนะครับ ส่วนแอดมินว่างเมื่อไรจะเข้ามาโพสให้นะครับ", 
      "picture": "https://scontent.xx.fbcdn.net/hphotos-xfp1/v/t1.0-9/s720x720/923130_821549257870837_2066242762_n.jpg?oh=2d1aa70bdd2353b64cf863ce08bf3f81&oe=5651D6A7"
    }, 
    {
      "code": "583607238397832", 
      "created_time": 1392845750.0, 
      "link": "https://www.facebook.com/539684606123429/posts/583607238397832", 
      "message": "ห่างหายไปพักหนึ่ง  เนื่องจากติดภาระกิจครับ วันนี้มีเวลาก็เข้ามานำเสนอต่อนะครับ เรามาเรียนรู้เรื่องลำดับที่กันบ้างนะครับ เริ่มจาก ลำดับที่ 1 st  ภาษาเมียนม่าร์  pah ta ma   อ่านว้า ปะ ตะ มะ ลำดับที่ 2 nd ภาษาเมียนม่าร์  du ti ya      อ่านว่า ดู ติ ยะ ลำดับที่ 3 rd  ภาษาเมียนม่าร์  ta  ti ya      อ่านว่า ตั๊ด ติ ยะ ลำดับที่ 4 th  ภาษาเมียนม่าร์  za dou hta  อ่านว่า สะ โด ถะ ลำดับที่ 5 th  ภาษาเมียนม่าร์  pyin sa ma  อ่านว่า ปิน สะ มะ ลำดับที่ 6 th  ภาษาเมียนม่าร์  hsa  hta ma อ่านว่า แซด ตะ มะ ลำดับที่ 7 th  ภาษาเมียนม่าร์  tha  hta ma อ่านว่า แต๊ด ตะ มะ ลำดับที่ 8 th  ภาษาเมียนม่าร์  a  hta ma    อ่านว่า อั๊ต ตะ มะ ลำดับที่ 9 th  ภาษาเมียนม่าร์  na wa ma   อ่านว่า หน่า วะ มะ ลำดับที่ 10 th  ภาษาเมียนม่าร์  da  tha ma อ่านว่า แด๊ด ตะ มะ ลองฝึกกันดูนะครับ", 
      "picture": "https://scontent.xx.fbcdn.net/hphotos-xap1/v/t1.0-9/p180x540/1800390_821004934591936_599541872_n.jpg?oh=868b9ecd00103d26f9258b93dedc56c3&oe=5649EDF5"
    }, 
    {
      "code": "579318178826738", 
      "created_time": 1392091331.0, 
      "link": "https://www.facebook.com/539684606123429/posts/579318178826738", 
      "message": "อ่านว่าอะไรครับ", 
      "picture": "https://scontent.xx.fbcdn.net/hphotos-xpf1/v/t1.0-9/p720x720/1661294_1462657043962848_862237271_n.jpg?oh=4786206a7d3e401335824a4ee6098144&oe=5650FD82"
    }, 
    {
      "code": "579281458830410", 
      "created_time": 1392081473.0, 
      "link": "https://www.facebook.com/539684606123429/posts/579281458830410", 
      "message": "แปลว่สอะไรค่ะ", 
      "picture": "https://scontent.xx.fbcdn.net/hphotos-xfa1/v/t1.0-9/q81/s720x720/1620421_548975975209570_549539444_n.jpg?oh=ed2b9877b948df03553a0ee53f027835&oe=56551ABA"
    }, 
    {
      "code": "578706642221225", 
      "created_time": 1391990648.0, 
      "link": "https://www.facebook.com/539684606123429/posts/578706642221225", 
      "message": "วันนี้มาเรียนบทสนทนาต่อนะครับ วันนี้แอดมินเสนอคำถามตอบในบทสนทนาดังนี้ครับ ถาม   na hle la อ่านว่า นา แหล่ ลา แปลว่า  เข้าใจไหม ตอบ   na hle de อ่านว่า นา แหล่ แด แปลว่า เข้าใจ ตอบ   na ma hle bu อ่านว่า นา มะ แหล่ บู  แปลว่า ไม่เข้าใจ ของฝึกกันดูนะครับ", 
      "picture": "https://fbcdn-sphotos-g-a.akamaihd.net/hphotos-ak-xpf1/v/t1.0-9/998158_814025938623169_1249369605_n.jpg?oh=1013b60f84dc6a02f15618d39150bbcf&oe=5653B5F5&__gda__=1443807676_9f07086ec6a770ea7383bae7738b0e13"
    }
  ], 
  "page_id": "539684606123429"
}