{
  "content": [
    {
      "code": "791250767633477", 
      "created_time": 1427065041.0, 
      "link": "https://www.facebook.com/539684606123429/posts/791250767633477", 
      "message": "อาหารพม่าอร่อยๆ เยอะครับ แต่เรียกไม่ถูก อย่างบะหมี่นี่ไปกินที่ บากัน  พุกาม  ถามพ่อค้าเขาบอกเรียกว่า  จูไล  ไม่รู้ฟังผิดรึเปล่า ถ้าเพื่อนสมาชิกมีชื่ออาหารพม่าแนะนำหน่อยนะครับ เผื่อได้หาโอกาสทานบ้าง   อะซา อะส่า อาหาร  เข้า ซแว ก๋วยเตี๋ยว   ส่าน ปโย่ก ข้าวต้ม   ถะมิน จ่อ ข้าวผัด   แจ้ด จ่อ ไก่ทอด   แจ้ด อุ้ จ่อ ไข่ดาว   แจ้ด อุ้ มเหว่ จ่อ ไข่เจียว  ", 
      "picture": "https://fbexternal-a.akamaihd.net/safe_image.php?d=AQCv0L3xzGIVQK_j&w=720&h=720&url=http%3A%2F%2Fi.ytimg.com%2Fvi%2FRjLEO8_VuF0%2Fhqdefault.jpg&cfs=1"
    }, 
    {
      "code": "792143284210892", 
      "created_time": 1427218829.0, 
      "link": "https://www.facebook.com/539684606123429/posts/792143284210892", 
      "message": "ขอความช่วยเหลือค่ะ แปลให้หน่อยค่ะเจซูตินบ่าแด่", 
      "picture": "https://fbcdn-sphotos-a-a.akamaihd.net/hphotos-ak-xat1/v/t34.0-12/11076130_1418843241754108_837399402_n.jpg?oh=34b76c0d55e92f25bc286662599bd6e1&oe=55B25840&__gda__=1437825365_2487acdb961c415748f140c66765d7d1"
    }, 
    {
      "code": "791706840921203", 
      "created_time": 1427143629.0, 
      "link": "https://www.facebook.com/539684606123429/posts/791706840921203", 
      "message": "ไม่มีอะไรมากขำๆครับ       อะ โลง จี แด่ เต แด่ ลูกใหญ่ลูกเล็ก  โล้บ มะ เหน่ แนะ อย่าได้แต่ว่าอยู่เลย   โก่ ได่ อุ๊ จี้ โอง ลองออกไข่ดูเองบ้างสิ   หุ้น หึ้ย ฮึ   เรียบเรียงใหม่ก็ประมาณนี้ครับ   อย่าได้แต่ว่าลูกเล็กลูกใหญ่อยู่เลย  ลองมาออกไข่ดูเองบ้างสิ  ฮึ", 
      "picture": "https://scontent.xx.fbcdn.net/hphotos-xap1/v/t1.0-9/17821_811270105634114_3650911324340207897_n.jpg?oh=db7c3242e2f8a2705d4f9ad86973e76c&oe=5655135F"
    }, 
    {
      "code": "791718544253366", 
      "created_time": 1427146641.0, 
      "link": "https://www.facebook.com/539684606123429/posts/791718544253366", 
      "message": "รบกวนถามพี่ๆที่ใจดีนะคะ ถ้ามิ้มจะเริ่มเรียนรู้ภาษาพม่า มิ้มควรเริ่มจากตรงไหนก่อน    ขอบคุณค่ะ ปล แอบติดตามกลุ่มนี้มาได้สักพักละคะ   "
    }, 
    {
      "code": "792160007542553", 
      "created_time": 1427223233.0, 
      "link": "https://www.facebook.com/539684606123429/posts/792160007542553", 
      "message": "อยากรู้เพื่อนๆMyanmaเค้าเขียนภาษาอังกฤษ ยีงงัยค่ะเพราะรู้สึกว่า จะไม่เหมือนของเราค่ะ ผู้รู้ช่วยสอนด้วยค่ะ ขอบคุณค่ะ"
    }, 
    {
      "code": "791905107568043", 
      "created_time": 1427184836.0, 
      "link": "https://www.facebook.com/539684606123429/posts/791905107568043", 
      "message": "เดือนด้วยนะคับ", 
      "picture": "https://scontent.xx.fbcdn.net/hphotos-xap1/v/t1.0-9/s720x720/11012998_1598389377073168_4485309723301101927_n.jpg?oh=f71626d27563a8f71c86d9a3a87e1dcf&oe=561AC464"
    }, 
    {
      "code": "789772867781267", 
      "created_time": 1426797174.0, 
      "link": "https://www.facebook.com/539684606123429/posts/789772867781267", 
      "message": "ดะบ๊อเป๊าหล่า   เข้าใจไหม  ดะบ๊อเป๊าหบี่หล่า   เข้าใจรึยัง  ฝากสองคำง่ายๆที่พูดบ่อยๆครับผม"
    }, 
    {
      "code": "791436434281577", 
      "created_time": 1427097620.0, 
      "link": "https://www.facebook.com/539684606123429/posts/791436434281577", 
      "message": "จัดไปคับ     ", 
      "picture": "https://scontent.xx.fbcdn.net/hphotos-xfa1/v/t1.0-9/s720x720/11082621_1597934183785354_5728136699534044490_n.jpg?oh=fb6dbdf6c58b7cbc7122a79ef9580403&oe=56465041"
    }, 
    {
      "code": "791193804305840", 
      "created_time": 1427051806.0, 
      "link": "https://www.facebook.com/539684606123429/posts/791193804305840", 
      "message": "ขอเข้าเรียนรู้ภาษาเมียนมาร์ด้วยครับ"
    }, 
    {
      "code": "791829880908899", 
      "created_time": 1427173694.0, 
      "link": "https://www.facebook.com/539684606123429/posts/791829880908899", 
      "message": "วันละคำ  เสียงไม่หล่อ ", 
      "picture": "https://fbcdn-vthumb-a.akamaihd.net/hvthumb-ak-xaf1/v/t15.0-10/s720x720/11049023_1157917220900412_794288402_n.jpg?oh=30c8ee611ee28172e41767162568534f&oe=564E0C4B&__gda__=1447597501_b4342f7f4ce789b2f2c03d58c2bb1883"
    }, 
    {
      "code": "791723630919524", 
      "created_time": 1427147947.0, 
      "link": "https://www.facebook.com/539684606123429/posts/791723630919524", 
      "message": "วันละคำ", 
      "picture": "https://fbcdn-vthumb-a.akamaihd.net/hvthumb-ak-xft1/v/t15.0-10/10957106_1157774707581330_1858590929_n.jpg?oh=757d963d70554d565037325f26838a46&oe=560EFD80&__gda__=1448727453_f5c4059d5ea85ec36413c355c34af0c0"
    }, 
    {
      "code": "791681384257082", 
      "created_time": 1427138310.0, 
      "link": "https://www.facebook.com/539684606123429/posts/791681384257082", 
      "message": "มัว ดูอะไร   คำว่า  มัว  จะแปลเป็นภาษาพม่าว่าอย่างไรครับ   เท่าที่ผมรู้  คำว่า มัวเมา မူးယစ္"
    }, 
    {
      "code": "791377934287427", 
      "created_time": 1427089811.0, 
      "link": "https://www.facebook.com/539684606123429/posts/791377934287427", 
      "message": "วันแนะนำคำว่า  ซาเต๊าไส่  แปลว่า ร้านอาหารครับ"
    }, 
    {
      "code": "790727791019108", 
      "created_time": 1426969520.0, 
      "link": "https://www.facebook.com/539684606123429/posts/790727791019108", 
      "message": "မလန္းပါဘူးဂ်ာ Love Min อ่านว่ายังไงและแปลว่าอะไรคับ มะหล่าบาบู อ่านแบบนี้หรือเปล่าคับ "
    }, 
    {
      "code": "791238020968085", 
      "created_time": 1427061187.0, 
      "link": "https://www.facebook.com/539684606123429/posts/791238020968085", 
      "message": "ขอบคุณคับ"
    }, 
    {
      "code": "790746427683911", 
      "created_time": 1426973480.0, 
      "link": "https://www.facebook.com/539684606123429/posts/790746427683911", 
      "message": "ဖရဲသီး พะแยตี   แตงโม  ဒီ ดี  นี้ ဒီဟာ ดีห่า  อันนี้  ดี    ห่า ဒီဟာ  ดีห่าก้องแด ဒီဟာေကာင္းတယ္။ อันนี้ดี   Noun နာမ္ ดีพะแยตีห่าก้องแด ဒီဖရဲသီးဟာေကာင္းတယ္။ แตงโมนี้ดี  ดีลานห่าจิ้นแด ဒီလမ္းဟာက်ဥ္းတယ္။ ทางนี้แคบ  ดีอาคารห่าแจ่แด ဒီအခန္းဟာက်ယ္တယ္။ อาคารนี้กว้าง  အရမ္း    ေကာင္းတယ္။ อะยั้น     ก้องแด  ดีมาก  อะยั้นก้องแด ดีมาก  စား လို႔ ซา โล่  กิน ေကာင္းတယ္ ก้องแด  ดี  ဒီဖရဲသီးအရမ္းစား လို႔ ေကာင္းတယ္။ ดี พะแยตี อะยั้น ซา โล่  ก้องแด แตงโมนี้กินอร่อยมาก  คำว่าလို႔ โล่  ใส่ก็ได้ไม่ใส่ก็ใด้ ถ้าใส่แล้วมันจะทำให้คำพูดฟังดีขึ้นครับ  ႀကိယာျဖင့္သံုးေသာအခါ  อะยั้น     โล่ก้องแด အရမ္း အိပ္ လို႔ေကာင္းတယ္။ အရမ္း သံုး လို႔ေကာင္းတယ္။ အရမ္း ၾကည့္ လို႔ေကာင္းတယ္။ အရမ္း ေသာက္ လို႔ေကာင္းတယ္။  စိတၱဇနာမ္ျဖင့္သံုးေသာအခါ   အရမ္း  ေပ်ာ္  ဖို႔ေကာင္းတယ္။ အရမ္း  ဝမ္းနည္း ဖို႔ေကာင္းတယ္။ အရမ္း  သနား  ဖို႔ေကာင္းတယ္။ အရမ္း  ခ်စ္  ဖို႔ေကာင္းတယ္။ အရမ္း  ေလးစား ဖို႔ေကာင္းတယ္။", 
      "picture": "https://scontent.xx.fbcdn.net/hphotos-xap1/v/t1.0-9/11041751_1061425493885531_5584484599225107392_n.jpg?oh=1b2ceacea3f5cc31ca5bc3dbb564de40&oe=5659FD1E"
    }, 
    {
      "code": "791289904296230", 
      "created_time": 1427074482.0, 
      "link": "https://www.facebook.com/539684606123429/posts/791289904296230", 
      "message": "ขอบคุณครับ"
    }, 
    {
      "code": "791218870970000", 
      "created_time": 1427056465.0, 
      "link": "https://www.facebook.com/539684606123429/posts/791218870970000", 
      "message": "อยากให้พี่ๆๆ แนะนำภาษาพม่าวันละคำค่ะ ได้ไหมค่ะ"
    }, 
    {
      "code": "790711321020755", 
      "created_time": 1426966211.0, 
      "link": "https://www.facebook.com/539684606123429/posts/790711321020755", 
      "message": "สวัสดีค่ะ  ขอทราบความหมายประโยคเหล่านี้ค่ะ 1  တစ္ကယ္ေတာ့ ခင္မင္ၿပီးသားလူတစ္ေယာက္ကုိမုန္းဖုိဆုိတာမလြယ္ပါဘူး ဒီေကာင္မွာ မုန္းတဲ့ဆုိတဲ့စိတ္မရွီပါဘူး ကၽြန္ေတာ္ယုံတယ္။  2 ေကာင္းရင္ ေကာင္းတယ္မွတ္ စတာေနာ္ รบกวนนิดหนึ่งนะคะขอบคุณมากๆค่ะ😊😊"
    }, 
    {
      "code": "791202974304923", 
      "created_time": 1427053864.0, 
      "link": "https://www.facebook.com/539684606123429/posts/791202974304923", 
      "message": "เค้าว่าอ้ะไรค้ะ", 
      "picture": "https://scontent.xx.fbcdn.net/hphotos-xfa1/v/t1.0-9/s720x720/11073353_350311285179151_8626746535286231874_n.jpg?oh=ea7c8b142b39b9fb67f2b5776e419b93&oe=56582E07"
    }, 
    {
      "code": "790969527661601", 
      "created_time": 1427015390.0, 
      "link": "https://www.facebook.com/539684606123429/posts/790969527661601", 
      "message": "ผมขอถามน้อยใด้ไหมครับ พอดีผมแปลไม่ใด้ อยากรู้ด้วย ก็เลยมาถามที่นี้ครับ จะเป็นภาษาพม่าก็ใด้หรือว่า ภาษาไทยที่ความหหมายเป็นยังไงก็ใด้ครับ   ขอบคุณมากครับ", 
      "picture": "https://scontent.xx.fbcdn.net/hphotos-xfa1/v/t1.0-9/q90/s720x720/10987408_889114701130227_5364491144872369129_n.jpg?oh=23662f8addb22641e77e9b015e61fda6&oe=560F9EE4"
    }
  ], 
  "page_id": "539684606123429"
}