{
  "content": [
    {
      "code": "794500917308462", 
      "created_time": 1427623784.0, 
      "link": "https://www.facebook.com/539684606123429/posts/794500917308462", 
      "message": "https   www facebook com video php v 827473430664703 set vb 469313653147351 type 2 theater", 
      "picture": "https://fbcdn-vthumb-a.akamaihd.net/hvthumb-ak-xpa1/v/t15.0-10/11048969_827474413997938_2122543914_n.jpg?oh=a333596093b47bc071c6ec0b02f06418&oe=5612E8F2&__gda__=1448278162_077df992cefa754493465c8d8a3b50f9"
    }, 
    {
      "code": "794147540677133", 
      "created_time": 1427566200.0, 
      "link": "https://www.facebook.com/539684606123429/posts/794147540677133", 
      "message": "มิงกะหล่าบ่า ครับ", 
      "picture": "https://fbcdn-sphotos-e-a.akamaihd.net/hphotos-ak-xft1/v/t1.0-9/s720x720/18808_787441231343547_2077254663483785592_n.jpg?oh=16c858d037252928de83347e22118765&oe=564B5C0F&__gda__=1448601995_34eb411bccb65baa088a6d55c6f015c9"
    }, 
    {
      "code": "794298863995334", 
      "created_time": 1427596769.0, 
      "link": "https://www.facebook.com/539684606123429/posts/794298863995334", 
      "message": "ขำๆครับ    มะ แนะ อะ โล้บ ซิน ย่า โอง แหม่   พรุ่งนี้จะต้องเข้าทำงาน   ฮี เช๊ก หญี้ แด่  ฮือ  กลุ้มใจ ", 
      "picture": "https://scontent.xx.fbcdn.net/hphotos-xpa1/v/t1.0-9/17384_813864602041331_4857320730705444718_n.jpg?oh=317dda09a43ef768930e2f80e5dddb66&oe=564DC489"
    }, 
    {
      "code": "793827574042463", 
      "created_time": 1427530758.0, 
      "link": "https://www.facebook.com/539684606123429/posts/793827574042463", 
      "message": "อะ เฉ่ง โส่ ด่า อันว่าเวลานั้น   อะ ล่ะ กา ย่า ต่า ม่ะ โฮ่ว บู ไม่ใช่ได้มาฟรีๆ   อะ เฉ่ง ห่า บะ วะ แบ เวลาก็คือชีวิต ", 
      "picture": "https://scontent.xx.fbcdn.net/hphotos-xpf1/v/t1.0-9/s720x720/10989246_813521788742279_6848911854225555742_n.jpg?oh=a8a6ef52936ec2ae37c0202c2f507f1d&oe=564DBEA4"
    }, 
    {
      "code": "793114270780460", 
      "created_time": 1427407117.0, 
      "link": "https://www.facebook.com/539684606123429/posts/793114270780460", 
      "message": "ขอถามเป็นวิทยาทานหน่อยครับ ผมใช้function COPYที่ตัวอักษรพม่า  แล้วไปPASTE ในprogram wordแล้ว แต่ตัวอักษรพม่าไม่ติด เป็นแค่รูปสี่เหลี่ยม เป็นเพราะอะไรครับ ต้องลงโปรแกรมอะไรเพิ่มหรือครับ"
    }, 
    {
      "code": "792944020797485", 
      "created_time": 1427373915.0, 
      "link": "https://www.facebook.com/539684606123429/posts/792944020797485", 
      "message": "สวัสดีค่ะ Happy Friday เขียนยังไงค่ะ"
    }, 
    {
      "code": "793630377395516", 
      "created_time": 1427496383.0, 
      "link": "https://www.facebook.com/539684606123429/posts/793630377395516", 
      "message": "ขอบคุณครับ"
    }, 
    {
      "code": "793539664071254", 
      "created_time": 1427483440.0, 
      "link": "https://www.facebook.com/539684606123429/posts/793539664071254", 
      "message": "แถวรามอินทราที่ไหนมีสอนภาษาพม่า"
    }, 
    {
      "code": "793289254096295", 
      "created_time": 1427445915.0, 
      "link": "https://www.facebook.com/539684606123429/posts/793289254096295", 
      "message": "ขอถามนอกเรื่อง หน่อยนะครับ พม่ามีGPSใหมครับ"
    }, 
    {
      "code": "790403937718160", 
      "created_time": 1426919105.0, 
      "link": "https://www.facebook.com/539684606123429/posts/790403937718160", 
      "message": "วันนี้ไปเรียนภาษาพม่าที่  วัดตะล่อมสนุกมากครับ   "
    }, 
    {
      "code": "793182870773600", 
      "created_time": 1427425419.0, 
      "link": "https://www.facebook.com/539684606123429/posts/793182870773600", 
      "message": "ขอบคุณนะคับ☺"
    }, 
    {
      "code": "793168750775012", 
      "created_time": 1427421838.0, 
      "link": "https://www.facebook.com/539684606123429/posts/793168750775012", 
      "message": "ขอบคุณนะค๊า"
    }, 
    {
      "code": "793141684111052", 
      "created_time": 1427414294.0, 
      "link": "https://www.facebook.com/539684606123429/posts/793141684111052", 
      "message": "เพราะรักจึงยอม พูดเป็นภาษาพม่า ว่าอย่างไงค่ะ ขอบคุณค่ะ"
    }, 
    {
      "code": "792654730826414", 
      "created_time": 1427320634.0, 
      "link": "https://www.facebook.com/539684606123429/posts/792654730826414", 
      "message": "ขอบคุณคับที่รับเข้ากลุ่ม"
    }, 
    {
      "code": "792620764163144", 
      "created_time": 1427313002.0, 
      "link": "https://www.facebook.com/539684606123429/posts/792620764163144", 
      "message": "มวย กะ เด ก๊ะ ตั้งแต่เกิด   ตะ ข่า ฮมะ มะ มา บู แด๊ะ ตู่ โส่ ด่า อันว่าผู้ที่ไม่ผิดสักครั้งเลยนั้น   ลอ ก๊ะ จี หม่า ในโลกนี้   มะ ฌิ้ เต บู ยังไม่มี   เรียบเรียงใหม่ก็ได้ดังนี้ครับ       อันว่าผู้ที่ไม่ผิดเลยสักครั้งตั้งแต่เกิดนั้น  ยังไม่มีในโลกนี้", 
      "picture": "https://fbcdn-sphotos-e-a.akamaihd.net/hphotos-ak-xfa1/v/t1.0-9/p720x720/17830_812209518873506_4234472464277741903_n.jpg?oh=a5515ee43789749ed0ca9e670b4d7d5b&oe=5618704B&__gda__=1448533057_8a1610ede7b0dd6a3d36dabc2450cfa5"
    }, 
    {
      "code": "792608517497702", 
      "created_time": 1427310217.0, 
      "link": "https://www.facebook.com/539684606123429/posts/792608517497702", 
      "message": "ขอบคุณค่ะ"
    }, 
    {
      "code": "792325737525980", 
      "created_time": 1427260920.0, 
      "link": "https://www.facebook.com/539684606123429/posts/792325737525980", 
      "message": "ขอบคุณค่ะ"
    }, 
    {
      "code": "789087401183147", 
      "created_time": 1426676268.0, 
      "link": "https://www.facebook.com/539684606123429/posts/789087401183147", 
      "message": "ฉันชอบหมามากกว่าแมว ต้องพูดยังไงค่ะ"
    }, 
    {
      "code": "792327827525771", 
      "created_time": 1427261397.0, 
      "link": "https://www.facebook.com/539684606123429/posts/792327827525771", 
      "message": "อยากได้ประโยคแนะนำการบริการจะพิมพ์ไปติดใบ lab คะ   งดอาหารและเครื่องดื่มตั้งแต่เวลา 20 00 น    24 00 น  เพื่อตรวจเลือด"
    }
  ], 
  "page_id": "539684606123429"
}