{
  "content": [
    {
      "code": "696882960403592", 
      "created_time": 1412206852.0, 
      "link": "https://www.facebook.com/539684606123429/posts/696882960403592", 
      "message": "ต้องไปสัมภาษณ์ พนักงานพม่าเบื้องต้น ถ้าจะถามว่า คุณเคยทำอาชีพอะไรมา ถามว่ายังไงค่ะ    งานทีจะให้ทำเป็นงานล้างจานและงานทำความสะอาดสระว่ายน้ำ  ต้องพูดว่ายังไงค่ะ  ขอบกวนผู้รู้ด้วยค่ะ่"
    }, 
    {
      "code": "696577677100787", 
      "created_time": 1412152781.0, 
      "link": "https://www.facebook.com/539684606123429/posts/696577677100787", 
      "message": "สวัสดีนะครับทุกท่าน   ผมมา post ใน group นี่  อยากมา share หนังสือที่ผมทำไว้  ผมก็เลยอยากแบ่งไห้ที่นี่ครับ  บ่างคำที่ผิด ขอโทษด้วยนะครับ  เพราะผมก็ไม่ไช่เป็นคนไทย ภาษาไทยก็ไม่เก่งครับ  บ่างคำที่บอกมาว่าผิด จริงไม่ผิดก็มี แต่ผมไม่รู้อธิบายยังไง  ต้อง Aung Kyaw   โก่อ่องจ่อ มาแปลไห้นะ      ขอบคุณทุกท่านครับ", 
      "picture": "https://scontent.xx.fbcdn.net/hphotos-xft1/v/t1.0-9/s720x720/10398682_793240357384329_1771663068237571890_n.jpg?oh=307bf37e8474150d2e61d7fcf33fbbad&oe=560FFCFB"
    }, 
    {
      "code": "696882827070272", 
      "created_time": 1412206826.0, 
      "link": "https://www.facebook.com/539684606123429/posts/696882827070272", 
      "message": "นี่ก็อีกตัวหนึ่งครับตัว ต๊ะ"
    }, 
    {
      "code": "696881740403714", 
      "created_time": 1412206717.0, 
      "link": "https://www.facebook.com/539684606123429/posts/696881740403714", 
      "message": "ลองฟังเสียงตัว หญะ กันนะครับ ตัวที่หลายคนบอกว่าออกเสียงค่อนข้างยาก"
    }, 
    {
      "code": "696341983791023", 
      "created_time": 1412117403.0, 
      "link": "https://www.facebook.com/539684606123429/posts/696341983791023", 
      "message": "Colours     A Yaung ", 
      "picture": "https://fbcdn-sphotos-h-a.akamaihd.net/hphotos-ak-xfp1/v/t1.0-9/s720x720/10514649_793014214073610_5274179416751431756_n.jpg?oh=4c9928d783b018aef74a8d126413a919&oe=5619F4B1&__gda__=1444561025_64173399de896679ad9d45cd4351de8f"
    }, 
    {
      "code": "696778833747338", 
      "created_time": 1412186051.0, 
      "link": "https://www.facebook.com/539684606123429/posts/696778833747338", 
      "message": "เช้านี้อากาศดีมาก", 
      "picture": "https://fbcdn-sphotos-c-a.akamaihd.net/hphotos-ak-xft1/v/t1.0-9/p180x540/10433075_694217434025758_6531644781840814942_n.jpg?oh=74a717e1318fcda3276a3a2d8d0384e3&oe=56189B9F&__gda__=1447284877_c4177516fecc035c9ebe7ef059586b0b"
    }, 
    {
      "code": "696802807078274", 
      "created_time": 1412190366.0, 
      "link": "https://www.facebook.com/539684606123429/posts/696802807078274", 
      "message": "ขอบคุณค่ะที่รับเข้ากลุ่ม", 
      "picture": "https://fbcdn-sphotos-d-a.akamaihd.net/hphotos-ak-xap1/v/t1.0-9/10626810_846609338706153_7355946058644556642_n.jpg?oh=3129bef63a583007141afd0ef155454a&oe=565A7BA3&__gda__=1447646591_17d1418f0a8b0acafe2bd14d4382e505"
    }, 
    {
      "code": "696593747099180", 
      "created_time": 1412155368.0, 
      "link": "https://www.facebook.com/539684606123429/posts/696593747099180", 
      "message": "กำลังทำความรู้จักเพื่อนๆชาวพม่า", 
      "picture": "https://scontent.xx.fbcdn.net/hphotos-xfa1/v/t1.0-9/10599503_1479955562268744_5031710900234103417_n.jpg?oh=f1b076ad1b07cb0cc9f65adba0a7a3bb&oe=564923FF"
    }, 
    {
      "code": "695983283826893", 
      "created_time": 1412063851.0, 
      "link": "https://www.facebook.com/539684606123429/posts/695983283826893", 
      "message": "มิบ๊ะ แมยะเหย่ ตะแซะ    หนึ่งหยดน้ำตาพ่อแม่   ตาตะมี ซินแย ตะแต๊ะ แด๊ะ โก่จ้อง  เพราะตนเองที่ชีวิตลูกต้องลำบาก   มิบ๊ะ เซ๊กมะซินแย ป่าเส่แนะ    อย่าลำบากใจเลยพ่อแม่   ถ้าจะรวมประโยคแบบนี้มันจะใช้ได้หรือเปล่าก็ไม่รู้นะ   หนึ่งหยดน้ำตาของพ่อแม่ เพราะตนเองที่ชีวิตของลูกต้องลำบาก อย่าลำบากใจไปเลยพ่อแม่ ", 
      "picture": "https://scontent.xx.fbcdn.net/hphotos-xtf1/v/t1.0-9/p720x720/10439369_712235492204243_3115243283589586027_n.jpg?oh=57f45ec32eea473ad7313d76442fcf30&oe=564AB50D"
    }, 
    {
      "code": "696473127111242", 
      "created_time": 1412145282.0, 
      "link": "https://www.facebook.com/539684606123429/posts/696473127111242", 
      "message": "ครับ"
    }, 
    {
      "code": "696291013796120", 
      "created_time": 1412106237.0, 
      "link": "https://www.facebook.com/539684606123429/posts/696291013796120", 
      "message": "Malaysia are not American   "
    }, 
    {
      "code": "696063453818876", 
      "created_time": 1412070665.0, 
      "link": "https://www.facebook.com/539684606123429/posts/696063453818876", 
      "message": "หมิ่งกะหล่า หนั่งแนะคีน เลบ่า    อรุณสวัสดิ์   เบหย่าน ยอก่า กีนสิ่นกว่า    ปลอดภัยห่างไกลจากภยันตรายโรคภัย   ชานต่า โก่เซ๊ก แมยจ้าบ่าเส่    จงสุขใจกายตลอดเถิด    อรุณสวัสดิ์ยามเช้า จงสุขใจสุขกายปลอดภัยห่างไกลจากภยันตรายโรคภัยตลอดไปด้วยเถิด ", 
      "picture": "https://fbcdn-sphotos-e-a.akamaihd.net/hphotos-ak-xfp1/v/t1.0-9/10568940_712294545531671_2741880048627590751_n.jpg?oh=1d2990e3ede0620a5c9f454e49713364&oe=5610D9F9&__gda__=1447645040_e1d5a52f1a4f4ce4f022bc25fbf9416f"
    }, 
    {
      "code": "696260940465794", 
      "created_time": 1412099584.0, 
      "link": "https://www.facebook.com/539684606123429/posts/696260940465794", 
      "message": "อรุณสวัส", 
      "picture": "https://fbcdn-sphotos-a-a.akamaihd.net/hphotos-ak-xpa1/v/t1.0-9/p180x540/10456786_693718344075667_6556578226856410421_n.jpg?oh=43d6fd8f7ea710150833dfb82c04909d&oe=564BC9FB&__gda__=1448188189_663605caebf5d29871027ef32daf0648"
    }, 
    {
      "code": "695932663831955", 
      "created_time": 1412055662.0, 
      "link": "https://www.facebook.com/539684606123429/posts/695932663831955", 
      "message": "ขอบคุณค่ะที่รับเข้ากลุ่ม"
    }, 
    {
      "code": "695625027196052", 
      "created_time": 1411990582.0, 
      "link": "https://www.facebook.com/539684606123429/posts/695625027196052", 
      "message": "มา ต่า ฌิ หยิ่น    ถ้าหากมีความผิดพลาด      ตอง ป่าน บ่า แด่    ต้องขอโทษด้วย    ต้องขอโทษด้วยถ้าหากมีความผิดพลาดประการใด ", 
      "picture": "https://fbcdn-sphotos-a-a.akamaihd.net/hphotos-ak-xft1/v/t1.0-9/1888508_711822348912224_170494743900525575_n.jpg?oh=ac39b8e5ac54ad7443070bbbec95bd01&oe=5650B814&__gda__=1448553387_50042c273681728917dd6233697495e0"
    }, 
    {
      "code": "695628357195719", 
      "created_time": 1411991236.0, 
      "link": "https://www.facebook.com/539684606123429/posts/695628357195719", 
      "message": "ขอขอบคุณคนที่ตั้งเฟสตัวนี้มากเลยนะครับ   ซึ่งช่วยให้ผมได้ความรู้อย่างมาก   เพราะตอนนี้ผมกำลังเรียนภาษาพม่าที่มหาลัยครับ"
    }, 
    {
      "code": "695621367196418", 
      "created_time": 1411989996.0, 
      "link": "https://www.facebook.com/539684606123429/posts/695621367196418", 
      "message": "ตะ แหง่ จิน  อา โลง กอง ตอ    เพื่อนที่ดีทุกคน    หมิ่ง กะ หล่า  หนั่ง แนะ คีน เล บ่า    อรุณสวัสดิ์    อรุณสวัสดิ์เพื่อนที่ดีทุกคน ", 
      "picture": "https://fbcdn-sphotos-g-a.akamaihd.net/hphotos-ak-xap1/v/t1.0-9/10649756_711816735579452_7221226783874414107_n.jpg?oh=31bda73cc2521dc81d264c56e4bd764f&oe=5647A421&__gda__=1443813885_f476f39ffd19416e3e5b8e20a7774914"
    }, 
    {
      "code": "695368543888367", 
      "created_time": 1411941346.0, 
      "link": "https://www.facebook.com/539684606123429/posts/695368543888367", 
      "message": "ปู่ ไล่ ต่า กว๊า    ร้อนจังเลยเว้ย   เหย่ แค โดง อะเหย่ เปยี่ยว ตะโหล่ แบ น้อ    เหมือนก้อนน้ำแข็งละลายเป็นน้ำเลยเนาะ   มะ เหน่ หน่าย ด้อ บู เก่ว    ไม่ไหวล่ะ อยู่ไม่ได้ล่ะ "
    }, 
    {
      "code": "695359517222603", 
      "created_time": 1411938860.0, 
      "link": "https://www.facebook.com/539684606123429/posts/695359517222603", 
      "message": "ขอขอบคุณทุกความคิดเห็นที่ลงในโพสของผมทุกโพสนะครับ ทุกๆโพสของผมนั้นล้วนเป็นการฝึกฝนทักษะภาษาพม่า ผมต้องการรู้ว่าที่สิ่งผมเข้าใจและเรียนรู้มานั้นมันถูกต้องหรือไม่ และทุกๆความเห็นที่แสดงมานั้นก็เปรียบเหมือนครูที่ช่วยชี้แนะสั่งสอนศิษย์ให้ได้รู้เข้าใจอย่างถ่องแท้ครับ ช่วยคอมเม้นให้หนักๆเลยนะครับไม่ต้องเกรงใจ "
    }, 
    {
      "code": "695307233894498", 
      "created_time": 1411927143.0, 
      "link": "https://www.facebook.com/539684606123429/posts/695307233894498", 
      "message": "ภาษาพม่าขอบคุณพูดว่าไงค่ะ"
    }, 
    {
      "code": "694895393935682", 
      "created_time": 1411857781.0, 
      "link": "https://www.facebook.com/539684606123429/posts/694895393935682", 
      "message": " จงทำดี รักกันไว้เถิดพี่น้อง เขียนยัังงัยครับ รบกวนด้วยคับ  "
    }
  ], 
  "page_id": "539684606123429"
}