{
  "content": [
    {
      "code": "617708444987711", 
      "created_time": 1398881830.0, 
      "link": "https://www.facebook.com/539684606123429/posts/617708444987711", 
      "message": "အလုပ်သမားနေ့သည် မေလ ၁ ရက်နေ့ဖြစ်ပြီး အစိုးရရုံးများ၊ အလုပ်ရုံများ၊   วันแรงงาน ตรงกับวันที่ หนึ่ง เดือน พฤษภาคม สำนักงานราชการทั้งหลาย สำนักงานโรงงานทั้งหลาย     ဈေးဆိုင်ကန္နားများကို ပိတ်၍  ร้านค้ากิจการทั้งหลาย เป็นวันหยุด      แบบนี้เป็นภาษาเขียน ถ้าท่านเคาะในกูเกิลด้วยคำว่า အလုပ်သမားနေ့ จะพบมากมายครับ      มีคำศัพท์มากมายที่น่าจำและนำไปใช้ต่อ เช่น  အလုပ်    งาน เป็นนามที่แปลงมาจากกิริยาด้วยการเติม အ အလုပ်သမား    คนงาน ถ้าเขียนใบสมัครงานต้องการคนงาน มาก ๆ ใช้คำนี้ได้ครับ မေလ   เดือนพฤษภาคม ในประโยคนี้เขียนตามภาษาอังกฤษ ถ้าเรียกตามนักษัตรจะเรียกเดือนพฤษภาคมว่า  กะโซน   ကဆုန်  ၁ ตัว ซี กลับด้านนี่คือเลขหนึ่งในภาษาพม่า อ่านว่า ติ้ด  ရက် อ่า่นว่า แย๊ะ แปลว่า เป็นวัน နေ့ วัน        หากจะถามว่า เป็นวันที่เท่าไหร่ คำถามและคำตอบจะมี ရက်   နေ့   คำว่า หยุดคือกิริยา ပိတ် อ่านว่าเป๊ะ หรือ เป้ก       วิเคราะห์แบบใช้พม่าได้บ้าง เน๊ะ เน๊ะ นะครับ หวังว่าท่านผู้รู้ จะได้อธิบายเพิ่มเติม", 
      "picture": "https://scontent.xx.fbcdn.net/hphotos-ash4/v/t1.0-9/1620861_656272391105241_111395650008037129_n.jpg?oh=187c5d169e056857441687e7c66f9350&oe=5658A5BC"
    }, 
    {
      "code": "617393768352512", 
      "created_time": 1398831738.0, 
      "link": "https://www.facebook.com/539684606123429/posts/617393768352512", 
      "message": "ขอบคุณครับ เขียนไม่เป็น อ่านไม่เป็น  อต่อยากเรียนรู้คับ"
    }, 
    {
      "code": "617408185017737", 
      "created_time": 1398834285.0, 
      "link": "https://www.facebook.com/539684606123429/posts/617408185017737", 
      "message": "คำว่า  ที่นี่มีบริการเติมเงินออนไลน์  ภาษาเมียนม่าร์ครับ  อ่านว่า ดี่ เหน่ ย่า มา โพง ออนไลน์ ตุยว เยี่ยน ชิ ตี่     ตามที่สมาชิกถามมาว่าเขียนอย่างไร  สำหรับสมาชิกที่คอมหรือมือถือยังไม่ได้ลงฟ้อนท์เมียนม่าร์นะครับ  ดูได้โพสนี้นะครับ", 
      "picture": "https://fbcdn-sphotos-h-a.akamaihd.net/hphotos-ak-ash4/v/t34.0-12/p180x540/10276368_865005006858595_1474083119_n.jpg?oh=cb7ba54fad72fa75293ba39f1de2c81e&oe=55B26E5D&__gda__=1437752996_793d114cc16a5e7b3b502d020db25f6e"
    }, 
    {
      "code": "617280435030512", 
      "created_time": 1398804942.0, 
      "link": "https://www.facebook.com/539684606123429/posts/617280435030512", 
      "message": "มีสมาชิกถามเข้ามาว่า บริการเติมเงินออนไลน์เขียนอย่างไร ตอบนะครับ   ဒီေနရာမွာဖုန္းေအာ္လိုင္းသြင္းရန္ရိွသည္  อ่านว่า  ดี่ เหน่ ย่า ม่า โพง ออนไลน์ ตุยว เยี่ยน ชิ ตี่ แปลว่า ที่นี่มีบริการเติมเงินออนไลน์"
    }, 
    {
      "code": "617178971707325", 
      "created_time": 1398791181.0, 
      "link": "https://www.facebook.com/539684606123429/posts/617178971707325", 
      "message": "ขอบคุณที่รับเข้ากลุ่มอ่านเขียนไม่ได้เลยแต่อยากเรียน"
    }, 
    {
      "code": "616770828414806", 
      "created_time": 1398728207.0, 
      "link": "https://www.facebook.com/539684606123429/posts/616770828414806", 
      "message": "ขอบคุณ ที่รับเข้า กลุ่มคับ  ผม เริ่ม ยังไงดี พูดภาษาพม่าได้ ประมาน 80เปอเซน เเต่ อ่านเขียนพม่าไม่ได้"
    }, 
    {
      "code": "617194571705765", 
      "created_time": 1398793649.0, 
      "link": "https://www.facebook.com/539684606123429/posts/617194571705765", 
      "message": "แอดมิน  ยินดีต้อนรับสมาชิกใหม่ทุกๆท่านครับ  การเข้าเป็นสมาชิกกลุ่มเพื่อให้เกิดการเรียนรู้ที่เป็นประโยชน์สำหรับตัวท่านเอง   แอดมิน แนะนำให้ย้อนไปเรียนรู้กับการโพสในกลุ่มตั้งแต่ต้นที่เปิดกลุ่มมานะครับ เพราะจะมีเนื้อหา และข้อความสนทนาที่จะช่วยให้ท่านได้เรียนรู้ภาษาเมียนม่าร์ได้มากขึ้น  และจะเชื่อมโยงถึงปัจจจุบันได้ดีครับ   ", 
      "picture": "https://fbcdn-sphotos-b-a.akamaihd.net/hphotos-ak-xfp1/v/t1.0-9/10295776_864750356884060_6509516747967601291_n.jpg?oh=33bdd4d136da407c867568333d3f0b29&oe=560FB9AC&__gda__=1447874085_b57dc257f5704e91c6277f7085551d0f"
    }, 
    {
      "code": "616738131751409", 
      "created_time": 1398720153.0, 
      "link": "https://www.facebook.com/539684606123429/posts/616738131751409", 
      "message": "จี่ซูติ่นแด่ ใช่ไม๊ครับ"
    }, 
    {
      "code": "616938158398073", 
      "created_time": 1398752558.0, 
      "link": "https://www.facebook.com/539684606123429/posts/616938158398073", 
      "message": "ขยะในมือท่านลงถังเถอะนะ    เห็นมีถามกันในที่ือื่น ๆ เกี่ยวกับ ทิ้งขยะของพมา่ ก็เลยถือโอกาสแต่งประโยค ตามแบบคนพม่า ตามนี้ครับ  ขยะ เป็นนาม   อะไม่ အမှိုက် ถังขยะเป็นนาม   อะไม่โปง အမှိုက်ပုံ ทิ้ง เป็นกิริยา   ปี๊ด ပစ် ใน เป็นคำเชืื่อม หรือโพสิชั่น   แท တဲ  เข้าประโยคว่า      อะไม่ อะไม่โปง แท ปี้ดบ่า   အမှိုက် အမှိုက်ပုံတဲပစ်ပါ။  ถ้าอยากเขียนป้ายว่า  ทิ้งขยะที่นี่    ดีหม่า อะไม่ ปี้ดแด่  ဒိမှာ အမှိုက် ပစ်တယ်။  หากจะห้ามท้ิงขยะที่นี่ ก็ว่า   ดีหม่า อะไม่ มะปี้ดแน๊ะ  ဒိမှာ အမှိုက် မပစ်နဲ။ หรือ  ดีหม่า อะไม่ มะปี้ด ยะ  ဒိမှာ အမှိုက် မပစ်ရ။  คำแรกชนชั้นแรงงานจะเข้าใจมากกว่าเนาะ ดูจริงจังดี  ถ้าจะเขียนให้พม่าอ่าน ต้องเขียนเป็นตังอักขระพม่าเนาะ  เด่วมาดูคำว่า  เข้าห้องนำ้แล้ว โปรดราดนำ้ด้วย  กับ  อย่าทิ้งขยะลงชักโครก   ผิดถูกน้อมรับคำวิจารณ์ จากเด็กหัดเรียนได้สี่เดือนขอรับ  "
    }, 
    {
      "code": "616935771731645", 
      "created_time": 1398752201.0, 
      "link": "https://www.facebook.com/539684606123429/posts/616935771731645", 
      "message": "လွည္း က်ိဳး ထမ္း  แหล้ จโญ้ ท้าน  แปลว่า หาบ เกวียน พัง หักหรือเสีย  เป็นสำนวนพม่าที่ใช้เรียก ผู้ชายที่ไปแต่งงาน กับหญิงที่เคยมีสามีมาแล้ว"
    }, 
    {
      "code": "616850605073495", 
      "created_time": 1398736060.0, 
      "link": "https://www.facebook.com/539684606123429/posts/616850605073495", 
      "message": "ขอบคุณครับไม่มีความรู้ด้านนี้เลย"
    }, 
    {
      "code": "616771861748036", 
      "created_time": 1398728570.0, 
      "link": "https://www.facebook.com/539684606123429/posts/616771861748036", 
      "message": "ขอบคุณครับที่รับเข้าร่วมกลุ่มเป็นครูครับแต่ไม่รู้ภาษานี้เลยอยากเก็บเกี่ยวความรู้ให้นร ครับเพราะจะเข้าสู่ประเทศอาเซี่ยนภาษาจึงสำคัญมากในการสื่อสารแนะนำไงยินดีนะครับ"
    }, 
    {
      "code": "616762915082264", 
      "created_time": 1398726061.0, 
      "link": "https://www.facebook.com/539684606123429/posts/616762915082264", 
      "message": "บริการเติมเงินออนไลน์ ภาษาพม่า เขียนยังไงครับ"
    }, 
    {
      "code": "611127705645785", 
      "created_time": 1397812483.0, 
      "link": "https://www.facebook.com/539684606123429/posts/611127705645785", 
      "message": "ใครพอทราบวิธีใส่ font พม่าใน iphone  ipad ครับ ผมเคยเอา iphone ไปให้ร้านโทรศัพท์ที่ย่างกุ้งทำให้ ร้านทำให้ฟรีโดยไม่ต้องเจลเบรค แต่เสียดายที่ไม่ได้ถามวิธีทำมา เลยมาทำให้ ipad อีกเครื่องไม่เป็น ช่วยแนะนำด้วยนะครับ"
    }, 
    {
      "code": "616685485090007", 
      "created_time": 1398713081.0, 
      "link": "https://www.facebook.com/539684606123429/posts/616685485090007", 
      "message": "ขอบพระคุณที่รับเข้ากลุ่ม กระผมเรียนภาษาพม่าได้สี่เดือนแล้ว    หวังว่าจะได้รับความรู้ และคำแนะนำจากเพื่อน ๆ ในกลุ่มนี้ครับ    "
    }, 
    {
      "code": "616697795088776", 
      "created_time": 1398715113.0, 
      "link": "https://www.facebook.com/539684606123429/posts/616697795088776", 
      "message": "เรียนผู้รู้ครับ  คำว่า လား กับ သလား ที่เป็นวิภัตติ ท้ายประโยค ถามเพื่อต้องการคำตอบว่า ใช่ คำว่า သလား นั้นมุ่งหมายเอาคำตอบเป็นจริงเป็นจังกว่าคำว่า လား ใช่หรือไม่ครับ    ผมเจอในคำอธิบายว่า    The question သလား   tha1 la3 is almost the same as လား   la3  The extra သ   tha1 in Burmese spoken language appears to come from the ending word သည်   the2 in the written language  which is the affirmation word  So  tha1 la3 probably expects the answer  yes  more than la3   ဗမာစကားပြောတတ်လား   Ba1 ma2 sa1 ga3 pyau3 tut la3    Can you speak Burmese     จากที่นี่  ", 
      "picture": "https://fbexternal-a.akamaihd.net/safe_image.php?d=AQASOw2Q5M0n7Dov&url=http%3A%2F%2Fwww.asiapearltravels.com%2Flanguage%2Fimages%2Fmyanmar_census_2014.jpg"
    }, 
    {
      "code": "616684845090071", 
      "created_time": 1398712959.0, 
      "link": "https://www.facebook.com/539684606123429/posts/616684845090071", 
      "message": "วันนี้ขอเสนอคำว่า  มินกะลานะแน๊ตขีนบา  สวัสดีตอนเช้า  มินกะลานะแน๊ตขีนบา  สวัสดีตอนเที่ยง  มินกะลาญะแน๊ตขีนบา  สวัสดีตอนเย็น "
    }, 
    {
      "code": "616681265090429", 
      "created_time": 1398712360.0, 
      "link": "https://www.facebook.com/539684606123429/posts/616681265090429", 
      "message": "วันนี้มีคำพูดอะไรบ้างฮะ"
    }, 
    {
      "code": "616445075114048", 
      "created_time": 1398672119.0, 
      "link": "https://www.facebook.com/539684606123429/posts/616445075114048", 
      "message": "ขอบคุณครับขอศึกษาด้วยครับ"
    }, 
    {
      "code": "616455575112998", 
      "created_time": 1398673629.0, 
      "link": "https://www.facebook.com/539684606123429/posts/616455575112998", 
      "message": "ขอบคุณค่ะที่รับ   "
    }, 
    {
      "code": "616450111780211", 
      "created_time": 1398672933.0, 
      "link": "https://www.facebook.com/539684606123429/posts/616450111780211", 
      "message": "ขอบคุณที่รับ", 
      "picture": "https://fbcdn-sphotos-c-a.akamaihd.net/hphotos-ak-xpf1/v/t1.0-9/s720x720/10174831_705367532859806_3270564680553545213_n.jpg?oh=6c64b3395f2304662df5899dfe861a65&oe=56188954&__gda__=1444080361_7ab1ab2608a56e6468067e03f95ac9fe"
    }, 
    {
      "code": "616402601784962", 
      "created_time": 1398666189.0, 
      "link": "https://www.facebook.com/539684606123429/posts/616402601784962", 
      "message": "เน่าก์ มี้ ลิ้น แต่ ေနာက္ မီး လင္း တယ္  เป็นสำนวนพม่า แปลว่า ไฟท้ายสว่าง ใช้เรียกผู้หญิงที่มีชู้ครับ   ไม่นิยมใช้กับผู้ชาย "
    }, 
    {
      "code": "600072663417956", 
      "created_time": 1395908693.0, 
      "link": "https://www.facebook.com/539684606123429/posts/600072663417956", 
      "message": "ภาษาพม่าน่ารู้ Photo by   Buranin Boon Im", 
      "picture": "https://scontent.xx.fbcdn.net/hphotos-xta1/v/t1.0-9/1964771_810550522291889_806848901_n.jpg?oh=63ba3e713288be59b7a1bf705b025f7e&oe=56159CCF"
    }, 
    {
      "code": "616158971809325", 
      "created_time": 1398616575.0, 
      "link": "https://www.facebook.com/539684606123429/posts/616158971809325", 
      "message": "ขออนุญาต ฝากเพจค่ะ ท่านใดมีเรื่องเกี่ยวกับพม่า เมียนมาร์ที่น่าสนใจ โพสลงในเพจได้เลยค่ะ ทางเรายินดีจะช่วยแชร์ให้ ขอบคุณมากค่ะ  เจซูอมยาจีตินบ่าเด่ฉิน   https   www facebook com goodmorningaseanmyanmar"
    }
  ], 
  "page_id": "539684606123429"
}