{
  "content": [
    {
      "code": "819767874781766", 
      "created_time": 1432063366.0, 
      "link": "https://www.facebook.com/539684606123429/posts/819767874781766", 
      "message": "ภาษาพม่าที่เห็นใน FB เป็นแบบนี้หมดเลยครับ โหลดฟ้อนท์มาใส่ในเครื่องแล้วก็ไม่เป็นผล เป็นเพราะอะไรหรือว่าต้องอับเดทวินโดวส์  ผมใช้ Chrome ครับ ท่านไหนทราบบ้างครับ", 
      "picture": "https://scontent.xx.fbcdn.net/hphotos-xaf1/v/t1.0-9/10501928_999890586689626_408965299821489926_n.jpg?oh=8c728443373237b6cf40bc2cc2252bf2&oe=56197C92"
    }, 
    {
      "code": "820067444751809", 
      "created_time": 1432107999.0, 
      "link": "https://www.facebook.com/539684606123429/posts/820067444751809", 
      "message": "เรายังรักกันอยู่มั้ย  เขียนแบบไหนค้ะ"
    }, 
    {
      "code": "819078574850696", 
      "created_time": 1431931736.0, 
      "link": "https://www.facebook.com/539684606123429/posts/819078574850696", 
      "message": "တာပဲတက္လို ့လာ แปลคำนี้ด้วยค่ะ"
    }, 
    {
      "code": "820001498091737", 
      "created_time": 1432103837.0, 
      "link": "https://www.facebook.com/539684606123429/posts/820001498091737", 
      "message": "ขอบคุณครับที่รับ", 
      "picture": "https://fbcdn-sphotos-f-a.akamaihd.net/hphotos-ak-xpf1/v/t1.0-9/11168390_482612558556581_4787963721135440214_n.jpg?oh=84477925150f4ac3572e733f87a8b1a2&oe=56181079&__gda__=1447474451_3c7b13aebd3470b04ec7b55e02e8047b"
    }, 
    {
      "code": "819759768115910", 
      "created_time": 1432060913.0, 
      "link": "https://www.facebook.com/539684606123429/posts/819759768115910", 
      "message": "รบกวนหน่อยค่ะ ช่วยแนะนำ app ที่ใช้กับ android แปลไทยเป็นพม่าหน่อยค่ะ พอดีรับแม่บ้านพม่าเข้ามาทำงานใหม่  ขอบคุณค่ะ"
    }, 
    {
      "code": "819973898094497", 
      "created_time": 1432095129.0, 
      "link": "https://www.facebook.com/539684606123429/posts/819973898094497", 
      "message": "สมน้ำหน้า ภาษาพม่าว่ายังไงคับ จะเอาไว้พูดเล่นกับเพื่อนน่ะคับ"
    }, 
    {
      "code": "819405058151381", 
      "created_time": 1432001759.0, 
      "link": "https://www.facebook.com/539684606123429/posts/819405058151381", 
      "message": "တ႐ုတ္မွ ဆန္အတုမ်ား အာရွႏုိင္ငံ အခ်ိဳ႕သို႔ ပ်ံ႕ႏွံ႔ေရာက္ရွိေနဟု Straits Times သတင္းစာေဖာ္ျပ  ใครรู้จักคำศัพท์นี้บ้างครับ  http   7daydaily com story 37571"
    }, 
    {
      "code": "816486188443268", 
      "created_time": 1431401974.0, 
      "link": "https://www.facebook.com/539684606123429/posts/816486188443268", 
      "message": "เพลงพม่าครับ     ေျပာျပီးပါျပီး บอกไปแล้ว ปยอปีปาปี", 
      "picture": "https://fbcdn-vthumb-a.akamaihd.net/hvthumb-ak-xap1/v/t15.0-10/10840959_1094732283888185_507316336_n.jpg?oh=b5dabb55154d7b06e0661924d93e1852&oe=564B7B28&__gda__=1448110205_cc8a6698efa300ce73905d51d0d9981e"
    }, 
    {
      "code": "819474704811083", 
      "created_time": 1432012623.0, 
      "link": "https://www.facebook.com/539684606123429/posts/819474704811083", 
      "message": "ฉันไม่อยากจะเชื่อสายตาของฉันวิดีโอโหดร้าย ห้ามเด็กอายุต่ำกว่า 18", 
      "picture": "https://fbexternal-a.akamaihd.net/safe_image.php?d=AQBzdpLqrNfawU8Z&url=http%3A%2F%2F3.bp.blogspot.com%2F-SW4ygpsd4k8%2FVVrsh1gRilI%2FAAAAAAAAAgY%2FEBPLrW8kafw%2Fs1600%2F11199019_454286141401445_378948179_n.jpg"
    }, 
    {
      "code": "818924761532744", 
      "created_time": 1431895308.0, 
      "link": "https://www.facebook.com/539684606123429/posts/818924761532744", 
      "message": "ช่วยแปลให้หน่อยได้ไหมคะ แปลว่าอะไรคะ ขอบคุณคะ", 
      "picture": "https://scontent.xx.fbcdn.net/hphotos-xpt1/v/t34.0-12/11267320_1585038265099145_981486916_n.jpg?oh=47d4eacba681a032e690b6d4c4b8c6a0&oe=55B23281"
    }, 
    {
      "code": "819448538147033", 
      "created_time": 1432010808.0, 
      "link": "https://www.facebook.com/539684606123429/posts/819448538147033", 
      "message": "ฉันไม่อยากจะเชื่อสายตาของฉันวิดีโอโหดร้าย ห้ามเด็กอายุต่ำกว่า 18", 
      "picture": "https://fbexternal-a.akamaihd.net/safe_image.php?d=AQBzdpLqrNfawU8Z&url=http%3A%2F%2F3.bp.blogspot.com%2F-SW4ygpsd4k8%2FVVrsh1gRilI%2FAAAAAAAAAgY%2FEBPLrW8kafw%2Fs1600%2F11199019_454286141401445_378948179_n.jpg"
    }, 
    {
      "code": "819447851480435", 
      "created_time": 1432010784.0, 
      "link": "https://www.facebook.com/539684606123429/posts/819447851480435", 
      "message": "ฉันไม่อยากจะเชื่อสายตาของฉันวิดีโอโหดร้าย ห้ามเด็กอายุต่ำกว่า 18", 
      "picture": "https://fbexternal-a.akamaihd.net/safe_image.php?d=AQBzdpLqrNfawU8Z&url=http%3A%2F%2F3.bp.blogspot.com%2F-SW4ygpsd4k8%2FVVrsh1gRilI%2FAAAAAAAAAgY%2FEBPLrW8kafw%2Fs1600%2F11199019_454286141401445_378948179_n.jpg"
    }, 
    {
      "code": "819425301482690", 
      "created_time": 1432006180.0, 
      "link": "https://www.facebook.com/539684606123429/posts/819425301482690", 
      "message": "ห่างหายไปนานเอาคำกริยามาฝากครับ", 
      "picture": "https://scontent.xx.fbcdn.net/hphotos-xpf1/v/t1.0-9/s720x720/11036420_10206603336179017_1721478019769444059_n.jpg?oh=e3820dd5c1acc50b5d31b5437a05a232&oe=5650DBBC"
    }, 
    {
      "code": "819409698150917", 
      "created_time": 1432002484.0, 
      "link": "https://www.facebook.com/539684606123429/posts/819409698150917", 
      "message": "  ทำไมไม่สนใจกันมั้งอ่ะนิ่งเฉยอยู่ได้  ภาษาพม่าเขียนยังไงค่ะ"
    }, 
    {
      "code": "819343668157520", 
      "created_time": 1431983468.0, 
      "link": "https://www.facebook.com/539684606123429/posts/819343668157520", 
      "message": "สวัสดีค่ะ รบกวนเขียนคำว่า กระจกรถยนต์  ฟิล์มกรองแสง เป็นภาษาพม่าได้มั้ยค่ะ พอดีตอนนี้ มี2แบบ จาก2ที่ ก็เลยไม่แน่ใจว่าอันไหนถูกต้องกันแน่ ขอบคุณล่วงหน้ามากๆเลยค่ะ"
    }, 
    {
      "code": "818923858199501", 
      "created_time": 1431894950.0, 
      "link": "https://www.facebook.com/539684606123429/posts/818923858199501", 
      "message": "ขอบคุณนะคับที่รับหนูเป็นเพื่อนคะ"
    }, 
    {
      "code": "818862091539011", 
      "created_time": 1431881287.0, 
      "link": "https://www.facebook.com/539684606123429/posts/818862091539011", 
      "message": "ขอบคุณค่ะที่รับเข้ากลุ่ม"
    }, 
    {
      "code": "819085804849973", 
      "created_time": 1431933309.0, 
      "link": "https://www.facebook.com/539684606123429/posts/819085804849973", 
      "message": "แปลให้หน่อยค้ะ", 
      "picture": "https://scontent.xx.fbcdn.net/hphotos-xap1/v/t1.0-9/11137143_369565316587081_6958234072102122901_n.jpg?oh=833aa153c69befaed5e086e76e2cfdc5&oe=5611FD16"
    }, 
    {
      "code": "818955898196297", 
      "created_time": 1431903503.0, 
      "link": "https://www.facebook.com/539684606123429/posts/818955898196297", 
      "message": "อยากจะถามว่า คุณมีแฟนยัง เป็น ภาษาพม่าเขียนยังไงค่ะบอกหน่อยน่ะค่ะ"
    }, 
    {
      "code": "819003211524899", 
      "created_time": 1431911619.0, 
      "link": "https://www.facebook.com/539684606123429/posts/819003211524899", 
      "message": "ช่วยแปลบทความในรูปเป็นภาษาพม่าให้หน่อยครับ ขอบคุณเป็นอย่างยิ่ง", 
      "picture": "https://scontent.xx.fbcdn.net/hphotos-xap1/v/t1.0-9/s720x720/11230604_1397527513907516_1740432787551880755_n.jpg?oh=091f3f83735071cc26adbf72ea5565f8&oe=564BB45E"
    }, 
    {
      "code": "818933538198533", 
      "created_time": 1431897538.0, 
      "link": "https://www.facebook.com/539684606123429/posts/818933538198533", 
      "message": "จะถามคนพม่าว่า ชื่ออะไร อายุเท่ารัย จะพูดยังงัยคะ"
    }, 
    {
      "code": "816736825084871", 
      "created_time": 1431457486.0, 
      "link": "https://www.facebook.com/539684606123429/posts/816736825084871", 
      "message": "รบกวนผู้รู้ช่วยแปล 2 ประโยคนี้เป็นภาษาพม่าให้ที่ครับ    เพื่อนกินหาได้ เพื่อนตายหายาก   เพื่อนแท้คือเพื่อนที่อยู่เคียงข้างในยามทุกข์ยาก"
    }, 
    {
      "code": "818700124888541", 
      "created_time": 1431848175.0, 
      "link": "https://www.facebook.com/539684606123429/posts/818700124888541", 
      "message": "แปลว่าไรครับอ่านว่าไรครับ   อ่านว่า  นิน จอนฺ  ดิน เน่  งา  อะ แต กวย  เล็ด  เม โช่ ติ ลวก แนะ   นิน โก งา ชิด ดา บา   ตะ แก ดอ นิน หา  งา แยะ นฺลุ ตา แทกฺ ลา แด่ะ  อะ ชิด ซิด โด โบนฺ โชนฺ  บู บา    ใช่ไหมครับ  อิอิ", 
      "picture": "https://fbcdn-sphotos-c-a.akamaihd.net/hphotos-ak-xpa1/v/t1.0-9/14088_1446176085695141_5344455501254417727_n.jpg?oh=84c81af93227bcba6f4c66bb0764fada&oe=5651F608&__gda__=1448291210_87f667c55ddbb77e6cbd4e88cb299022"
    }, 
    {
      "code": "818720981553122", 
      "created_time": 1431852804.0, 
      "link": "https://www.facebook.com/539684606123429/posts/818720981553122", 
      "message": "เพิ่งโพสครั้งแรกครับ ยินดีที่ได้รู้จักทุกท่าน  ภาพเอามาจากข่าววันนี้ ตรงป้ายอยากสอบถามว่าแถวบนสุดคำว่า  หลู่ทุคองซอง   น่าจะเกี่ยวกับ คน ประชาชน  กับคำว่า  ไล้ก์แลซั่ว  ก่อนคำว่า โจโซป่าตี ที่แปลว่าต้อนรับหน่ะครับ แปลว่าอะไร น่าจะขยายคำว่าต้อนรับเน้อะ แปลว่า ยินดี แนวๆนี้หรือเปล่า ขอบคุณคับ   ", 
      "picture": "https://scontent.xx.fbcdn.net/hphotos-xfa1/v/t1.0-9/s720x720/11265120_997921543553197_4216305609419579713_n.jpg?oh=c51f99ebaf1fd6dc38f4e275fffc82e3&oe=5656E6DE"
    }
  ], 
  "page_id": "539684606123429"
}