{
  "content": [
    {
      "code": "581291331901014", 
      "created_time": 1360745133.0, 
      "link": "https://www.facebook.com/323147821048701/posts/581291331901014", 
      "message": "单身 ตาน เซิน  dān shēn   โสด   ใครโสดขอ like หน่อยครับ   ", 
      "picture": "https://fbcdn-sphotos-g-a.akamaihd.net/hphotos-ak-xaf1/v/t1.0-9/308034_581291321901015_1236863231_n.jpg?oh=d18a404501fa0a433c258213ca25ff7b&oe=56159408&__gda__=1444244953_dbe5ab9e7eeea9cf1a46d20fd42c4975"
    }, 
    {
      "code": "580061098690704", 
      "created_time": 1360558330.0, 
      "link": "https://www.facebook.com/323147821048701/posts/580061098690704", 
      "message": "限量款 เซี่ยน เลี่ยง ข่วน  xiàn liàng kuǎn  limited edition", 
      "picture": "https://scontent.xx.fbcdn.net/hphotos-frc3/v/t1.0-9/539805_580061072024040_1443518124_n.jpg?oh=f8a4410aed7d4c3d2cf8e8619ec6a95d&oe=5655D455"
    }, 
    {
      "code": "260754410725130", 
      "created_time": 1360392094.0, 
      "link": "https://www.facebook.com/323147821048701/posts/260754410725130", 
      "message": "จีน ปน ไทย เพราะ ฮา ต้องดูให้ได้นะ", 
      "picture": "https://fbexternal-a.akamaihd.net/safe_image.php?d=AQB_2oYZ-oJLKmrk&w=720&h=720&url=http%3A%2F%2Fi4.ytimg.com%2Fvi%2FSwZMS-ISbH4%2Fmqdefault.jpg&cfs=1"
    }, 
    {
      "code": "579120822118065", 
      "created_time": 1360391515.0, 
      "link": "https://www.facebook.com/323147821048701/posts/579120822118065", 
      "message": "วันนี้ทำอะไรเนื่องในวันตรุษจีนบ้างครับ   D"
    }, 
    {
      "code": "578585155504965", 
      "created_time": 1360312976.0, 
      "link": "https://www.facebook.com/323147821048701/posts/578585155504965", 
      "message": "车牌  chē pái  ทะเบียนรถ", 
      "picture": "https://fbcdn-sphotos-h-a.akamaihd.net/hphotos-ak-ash2/v/t1.0-9/p180x540/529212_578585132171634_1090040605_n.jpg?oh=cd269475772427b3bab94291e1ec5e83&oe=564896B9&__gda__=1444305699_2e9a1523f4093043e123f284233bb314"
    }, 
    {
      "code": "552716808072454", 
      "created_time": 1360310006.0, 
      "link": "https://www.facebook.com/323147821048701/posts/552716808072454", 
      "message": "กิจกรรมดีๆ แจกของรางวัลอีกแล้ว", 
      "picture": "https://fbcdn-sphotos-d-a.akamaihd.net/hphotos-ak-xpf1/v/t1.0-9/734577_528850947146156_1711056633_n.jpg?oh=e3d8c7f207d028df443b8869d062e888&oe=5653BED8&__gda__=1444667281_c966e31dc886a29c9b92733666d9eb5a"
    }, 
    {
      "code": "578559625507518", 
      "created_time": 1360309426.0, 
      "link": "https://www.facebook.com/323147821048701/posts/578559625507518", 
      "message": "甘蔗  gān zhe  อ้อย", 
      "picture": "https://scontent.xx.fbcdn.net/hphotos-frc3/v/t1.0-9/603962_578559502174197_1893813234_n.jpg?oh=2024652d0a14ab851a006c47217e32c4&oe=564D005F"
    }, 
    {
      "code": "578523528844461", 
      "created_time": 1360308058.0, 
      "link": "https://www.facebook.com/323147821048701/posts/578523528844461", 
      "message": "ความจริงฉันรักเธอเข้าแลัว แล้วเธอล่ะ", 
      "picture": "https://fbcdn-sphotos-a-a.akamaihd.net/hphotos-ak-prn2/v/t1.0-9/536056_578523508844463_236876074_n.jpg?oh=e28a5d2a68617fc41ff6e99c8ddade11&oe=56577510&__gda__=1444019294_1f1f0e44af1fbde9b426e2a8280d5a11"
    }, 
    {
      "code": "577472462282901", 
      "created_time": 1360138289.0, 
      "link": "https://www.facebook.com/323147821048701/posts/577472462282901", 
      "message": "ไม่กินให้อิ่ม จะมีแรงลดความอ้วนได้ยังไง", 
      "picture": "https://scontent.xx.fbcdn.net/hphotos-ash2/v/t1.0-9/557856_577472442282903_1670862670_n.jpg?oh=21335566a21664216d858b9b46ae1d99&oe=561AB755"
    }, 
    {
      "code": "577452332284914", 
      "created_time": 1360134751.0, 
      "link": "https://www.facebook.com/323147821048701/posts/577452332284914", 
      "message": "ฉันคิดถึงเธอ แต่ก็แค่คิดถึงเธอ ไม่อยากรบกวนเธอ", 
      "picture": "https://fbcdn-sphotos-c-a.akamaihd.net/hphotos-ak-xaf1/v/t1.0-9/382245_577452308951583_79745945_n.jpg?oh=50da084a5afdd64c6e4ee43b2187d3fd&oe=5650EA91&__gda__=1447398646_417d2ff7d0a387a57399fecb24235994"
    }, 
    {
      "code": "576565039040310", 
      "created_time": 1359964385.0, 
      "link": "https://www.facebook.com/323147821048701/posts/576565039040310", 
      "message": "สวัสดีครับแฟนเพจทุกท่าน  สำหรับผู้ที่ถามคำถามมาทั้งทางข้อความและในหน้าเพจ ถ้าผมไม่ตอบแสดงว่าผมไม่รู้นะครับ ที่ไม่ตอบเพราะกลัวเสียฟอร์ม ฮ่าๆ   P  ถ้าจะให้ดีถามในหน้าเพจดีกว่าครับ เผื่อมีผู้อื่นทราบจะได้มาตอบแทน    "
    }, 
    {
      "code": "576556455707835", 
      "created_time": 1359962690.0, 
      "link": "https://www.facebook.com/323147821048701/posts/576556455707835", 
      "message": "相信爱情的力量  xiāng xìn ài qíng de lì liàng  เชื่อในพลังแห่งรัก   D", 
      "picture": "https://fbcdn-sphotos-e-a.akamaihd.net/hphotos-ak-frc3/v/t1.0-9/580596_576556435707837_1737164872_n.jpg?oh=f1bc3bb2f0a1cc60fcde9ea4dfede8bb&oe=565065FF&__gda__=1447332363_790ae6ab58362df7f084e5edaf784f09"
    }, 
    {
      "code": "576021495761331", 
      "created_time": 1359865352.0, 
      "link": "https://www.facebook.com/323147821048701/posts/576021495761331", 
      "message": "你爱我吗   หนี่ อ้าย หว่อ มา  nǐ ài wǒ ma   เธอรักฉันไหม", 
      "picture": "https://fbcdn-sphotos-a-a.akamaihd.net/hphotos-ak-xaf1/v/t1.0-9/s720x720/14863_576021479094666_950673374_n.jpg?oh=5a435110cd50ed1920b2cfff3c02387a&oe=564AE76F&__gda__=1448091818_7ff7207ed427578400e0afdf96811328"
    }, 
    {
      "code": "574991775864303", 
      "created_time": 1359698551.0, 
      "link": "https://www.facebook.com/323147821048701/posts/574991775864303", 
      "message": "ขอ  ภาษาจีน  สองคำให้อาตี๋หน่อยครับ", 
      "picture": "https://fbcdn-sphotos-b-a.akamaihd.net/hphotos-ak-xfa1/v/t1.0-9/294956_574991762530971_677676945_n.jpg?oh=7e54bceb064cd2ee35f361c57c4564e8&oe=56523DA7&__gda__=1447640857_300c2a78edc0a4f5aed6b2dde8d9935c"
    }, 
    {
      "code": "573959695967511", 
      "created_time": 1359531787.0, 
      "link": "https://www.facebook.com/323147821048701/posts/573959695967511", 
      "message": "交通工具 เจียว ทง กง จวี้  jiāo tōng gōng jù  ยานพาหนะ", 
      "picture": "https://scontent.xx.fbcdn.net/hphotos-xfa1/v/t1.0-9/s720x720/312398_573959682634179_1068292498_n.jpg?oh=4a808183b4c3c10848454d32f43cbe5f&oe=56570489"
    }, 
    {
      "code": "573953835968097", 
      "created_time": 1359531121.0, 
      "link": "https://www.facebook.com/323147821048701/posts/573953835968097", 
      "message": "真的吗 ", 
      "picture": "https://scontent.xx.fbcdn.net/hphotos-xpf1/v/t1.0-9/734205_573953809301433_1704586760_n.jpg?oh=dd739a1c13f00a5d0d30546c34b9e3d5&oe=5646691D"
    }, 
    {
      "code": "573952365968244", 
      "created_time": 1359530886.0, 
      "link": "https://www.facebook.com/323147821048701/posts/573952365968244", 
      "message": "เอิ่ม   ", 
      "picture": "https://fbcdn-sphotos-b-a.akamaihd.net/hphotos-ak-xfa1/v/t1.0-9/481902_573952349301579_1467064343_n.jpg?oh=8a46d2fbad00716d111ba2ea40010956&oe=565352F6&__gda__=1448682879_f08e277dfe1aa84bf3ab9dfe82895ead"
    }, 
    {
      "code": "569810879715726", 
      "created_time": 1359440495.0, 
      "link": "https://www.facebook.com/323147821048701/posts/569810879715726", 
      "message": "坐在电脑前，不知道做什么，却又不想关掉它  นั่งอยู่หน้าคอม ไม่รู้จะทำอะไร แต่ก็ไม่อยากปิด"
    }, 
    {
      "code": "568652233164924", 
      "created_time": 1359248083.0, 
      "link": "https://www.facebook.com/323147821048701/posts/568652233164924", 
      "message": "不管遇到任何事情，乐观的心态很重要 ไม่ว่าจะพบเจอเรื่องอะไร การมองโลกในแง่ดีนั้นสำคัญมาก", 
      "picture": "https://scontent.xx.fbcdn.net/hphotos-xfa1/v/t1.0-9/421698_568652219831592_1312630454_n.jpg?oh=a379478d861212e7a241a407f140bff2&oe=560F642C"
    }, 
    {
      "code": "567770603253087", 
      "created_time": 1359098165.0, 
      "link": "https://www.facebook.com/323147821048701/posts/567770603253087", 
      "message": "抹茶   มัทฉะ", 
      "picture": "https://scontent.xx.fbcdn.net/hphotos-xpa1/v/t1.0-9/14797_567770583253089_177794663_n.jpg?oh=90a0e60eef112785af3afc0936e3e04f&oe=560FC402"
    }
  ], 
  "page_id": "323147821048701"
}