{
  "content": [
    {
      "code": "567766009920213", 
      "created_time": 1359097485.0, 
      "link": "https://www.facebook.com/323147821048701/posts/567766009920213", 
      "message": "บางครั้ง เมื่อได้ยินเพลงๆ นึง ก็คิดถึงคนๆ นึง", 
      "picture": "https://scontent.xx.fbcdn.net/hphotos-xtp1/v/t1.0-9/p720x720/74968_567765989920215_2079155066_n.jpg?oh=4d8a254c71b2a0b6f65d36f7f415d888&oe=5651C9EE"
    }, 
    {
      "code": "567762123253935", 
      "created_time": 1359096919.0, 
      "link": "https://www.facebook.com/323147821048701/posts/567762123253935", 
      "message": "爆米花 เป้า หมี่ ฮวา  bào mǐ huā  ข้าวโพดคั่ว", 
      "picture": "https://fbcdn-sphotos-a-a.akamaihd.net/hphotos-ak-xaf1/v/t1.0-9/319754_567762106587270_2076088354_n.jpg?oh=ef5370a0271ac9020753e07f9bea6312&oe=5616F566&__gda__=1447720119_e55531e065eb61419cfd6a1e3c51891b"
    }, 
    {
      "code": "564949580201856", 
      "created_time": 1358649826.0, 
      "link": "https://www.facebook.com/323147821048701/posts/564949580201856", 
      "message": "睡姿  shuì zī  ท่านอน   ชอบนอนท่าไหนกันครับ", 
      "picture": "https://fbcdn-sphotos-e-a.akamaihd.net/hphotos-ak-xpf1/v/t1.0-9/19109_564949566868524_824404834_n.jpg?oh=aac9e56e5ef233757ff4da850cd8676e&oe=565A581F&__gda__=1444042964_ea98fca43955975868c376b2003f5473"
    }, 
    {
      "code": "564925696870911", 
      "created_time": 1358644471.0, 
      "link": "https://www.facebook.com/323147821048701/posts/564925696870911", 
      "message": "我离开之后 你还会记得我吗 เมื่อฉันจากไป เธอยังจะจำฉันได้ไหม", 
      "picture": "https://fbcdn-sphotos-d-a.akamaihd.net/hphotos-ak-xpf1/v/t1.0-9/s720x720/537002_564925680204246_369077001_n.jpg?oh=122625a4d41d87f930b1700fa41c2d8b&oe=56470D7C&__gda__=1444571287_96c0c8e98758527eec49c1c6839df170"
    }, 
    {
      "code": "564321663597981", 
      "created_time": 1358563045.0, 
      "link": "https://www.facebook.com/323147821048701/posts/564321663597981", 
      "message": "有时候突然想哭  yǒu shí hou tú rán xiǎng kū  บางครั้ง อยู่ๆ ก็อยากร้องไห้", 
      "picture": "https://scontent.xx.fbcdn.net/hphotos-xap1/v/t1.0-9/p720x720/734876_564321650264649_771023538_n.jpg?oh=f067cae847ae3a9695783f09aaadc220&oe=5615E7E7"
    }, 
    {
      "code": "560755550621259", 
      "created_time": 1357973506.0, 
      "link": "https://www.facebook.com/323147821048701/posts/560755550621259", 
      "message": "儿童节 เอ๋อ ถง เจี๋ย  ér tóng jié  วันเด็ก", 
      "picture": "https://scontent.xx.fbcdn.net/hphotos-xaf1/v/t1.0-9/393114_560755487287932_1572526892_n.jpg?oh=6c1777699434a7a9ef0a9df0a42a9a3f&oe=564C9838"
    }, 
    {
      "code": "560744857288995", 
      "created_time": 1357972608.0, 
      "link": "https://www.facebook.com/323147821048701/posts/560744857288995", 
      "message": "害怕  hài pà  กลัว", 
      "picture": "https://scontent.xx.fbcdn.net/hphotos-xfa1/v/t1.0-9/s720x720/480976_560744833955664_1849774616_n.jpg?oh=5a77acb4c122437ce02bb34895ee7885&oe=5611BE63"
    }, 
    {
      "code": "559278300768984", 
      "created_time": 1357712340.0, 
      "link": "https://www.facebook.com/323147821048701/posts/559278300768984", 
      "message": "撒娇  sā jiāo  งอน", 
      "picture": "https://fbcdn-sphotos-g-a.akamaihd.net/hphotos-ak-xap1/v/t1.0-9/524773_559278244102323_1650960854_n.jpg?oh=bafe6e924c96b60d2e7dfff984e7c88d&oe=56147673&__gda__=1443978992_4453efa941fdbf0a3adaf6dfb364cb38"
    }, 
    {
      "code": "557185740978240", 
      "created_time": 1357350800.0, 
      "link": "https://www.facebook.com/323147821048701/posts/557185740978240", 
      "message": "擤鼻涕 สิ่ง ปี๋ ที่  xǐng bí tì  สั่งน้ำมูก", 
      "picture": "https://fbcdn-sphotos-g-a.akamaihd.net/hphotos-ak-xaf1/v/t1.0-9/418076_557185727644908_724716471_n.jpg?oh=b6f9026223364a25a11ff685890614c1&oe=564D6A24&__gda__=1444233205_41b1934d7af9ac8b294bf4166ae2c827"
    }, 
    {
      "code": "397028363716686", 
      "created_time": 1357349301.0, 
      "link": "https://www.facebook.com/323147821048701/posts/397028363716686", 
      "message": " สถานที่ท่องเที่ยวแห่งใดของประเทศจีนที่คุณอยากไปสักครั้งหนึ่งในชีวิต เพราะอะไร   มีแจกรางวัลด้วยครับ", 
      "picture": "https://scontent.xx.fbcdn.net/hphotos-xaf1/v/t1.0-9/s720x720/12607_505091986188719_12884496_n.jpg?oh=9e3b902b9233d1388733bdb03d438df7&oe=56454C56"
    }, 
    {
      "code": "556672141029600", 
      "created_time": 1357277636.0, 
      "link": "https://www.facebook.com/323147821048701/posts/556672141029600", 
      "message": "แม่จ๋า หนูรักแม่", 
      "picture": "https://scontent.xx.fbcdn.net/hphotos-xfa1/v/t1.0-9/p720x720/527447_556672107696270_80287848_n.jpg?oh=1a3e411da26e05abc75f367ea9bac450&oe=56583B03"
    }, 
    {
      "code": "556172364412911", 
      "created_time": 1357197860.0, 
      "link": "https://www.facebook.com/323147821048701/posts/556172364412911", 
      "message": "男孩：我可以向你问路吗   ชายหนุ่ม   เราขอถามทางหน่อยได้ปะ 女孩：到哪里   หญิงสาว   จะไปไหนเหรอ 男孩：到你心里  ชายหนุ่ม   เข้าไปในหัวใจเธอ   ตึ่งโป๊ะ"
    }, 
    {
      "code": "555627301134084", 
      "created_time": 1357110268.0, 
      "link": "https://www.facebook.com/323147821048701/posts/555627301134084", 
      "message": "打鼾  dǎ hān  กรน", 
      "picture": "https://scontent.xx.fbcdn.net/hphotos-xaf1/v/t1.0-9/190612_555627281134086_811231482_n.jpg?oh=a7c7fb3f769f69263598474705e5dbc5&oe=56129007"
    }, 
    {
      "code": "555614867801994", 
      "created_time": 1357107913.0, 
      "link": "https://www.facebook.com/323147821048701/posts/555614867801994", 
      "message": "男孩：你的腿一定很累吧   ชายหนุ่ม   ขาเธอคงเมื่อยมากใช่ไหม 女孩：为什么   หญิงสาว   ทำไมล่ะ 男孩：因为你在我的脑海里跑了一整天  ชายหนุ่ม   ก็เพราะเธอวิ่งอยู่ในหัวฉันทั้งวันเลย   ตึ่งโป๊ะ"
    }, 
    {
      "code": "554960664534081", 
      "created_time": 1357008742.0, 
      "link": "https://www.facebook.com/323147821048701/posts/554960664534081", 
      "message": "男孩：相信我 我会让你成为世界上第二幸福 的人   ชายหนุ่ม   เชื่อฉัน ฉันจะทำให้เธอกลายเป็นคนมีความสุขที่สองของโลก 女孩：为什么不是第一   หญิงสาว    ทำไมไม่เป็นที่หนึ่งล่ะ 男孩：有了你   我就是世界上最幸福的人啊  ชายหนุ่ม   ก็เพราะมีเธอ ฉันก็เลยเป็นคนมีความสุขที่สุดในโลกไง   ตึ่งโป๊ะ"
    }, 
    {
      "code": "554800111216803", 
      "created_time": 1356984983.0, 
      "link": "https://www.facebook.com/323147821048701/posts/554800111216803", 
      "message": "你现在在哪里 "
    }, 
    {
      "code": "554551607908320", 
      "created_time": 1356946297.0, 
      "link": "https://www.facebook.com/323147821048701/posts/554551607908320", 
      "message": "ขอให้ทุกคนสุขตลอดปี ตลอดไป สมหวังดังใจ ไร้ความทุกข์นะครับ    "
    }, 
    {
      "code": "554479427915538", 
      "created_time": 1356938084.0, 
      "link": "https://www.facebook.com/323147821048701/posts/554479427915538", 
      "message": "倒计时 เต้า จี้ สือ  dào jì shí  นับถอยหลัง   Countdown", 
      "picture": "https://scontent.xx.fbcdn.net/hphotos-xaf1/v/t1.0-9/s720x720/386591_554479407915540_1340993187_n.jpg?oh=6a400ce25dfa0f0616a4832a1b2b3d05&oe=56449514"
    }, 
    {
      "code": "554452727918208", 
      "created_time": 1356933799.0, 
      "link": "https://www.facebook.com/323147821048701/posts/554452727918208", 
      "message": "蛇年快乐    ", 
      "picture": "https://scontent.xx.fbcdn.net/hphotos-xpa1/t31.0-8/s720x720/735585_554452714584876_2122649043_o.jpg"
    }, 
    {
      "code": "186667638144915", 
      "created_time": 1356850530.0, 
      "link": "https://www.facebook.com/323147821048701/posts/186667638144915", 
      "message": "这是爱", 
      "picture": "https://scontent.xx.fbcdn.net/hphotos-xap1/v/t1.0-9/282828_131778326981175_1484599601_n.jpg?oh=ea6fddad934531e480c58fda9340aaf6&oe=565503C8"
    }, 
    {
      "code": "553954177968063", 
      "created_time": 1356850349.0, 
      "link": "https://www.facebook.com/323147821048701/posts/553954177968063", 
      "message": "ไม่ค่อยมีเวลาทำเพจนี้เต็มที่เลย  ผิดคอนเซ็ปต์วันละนิดมานานแล้ว  มีใครสนใจเป็นแอดมินมั้ยครับ มาแบ่งปันความรู้กันนะ    "
    }, 
    {
      "code": "552824828080998", 
      "created_time": 1356665292.0, 
      "link": "https://www.facebook.com/323147821048701/posts/552824828080998", 
      "message": "มือของแม่อบอุ่นจัง", 
      "picture": "https://fbcdn-sphotos-g-a.akamaihd.net/hphotos-ak-xaf1/v/t1.0-9/p720x720/548162_552824808081000_1603358407_n.jpg?oh=0ef3b9b80d100d162bd41e62516dd251&oe=5647FD59&__gda__=1447844734_5db4671003955859e402388671b81b48"
    }
  ], 
  "page_id": "323147821048701"
}