{
  "content": [
    {
      "code": "756720621024750", 
      "created_time": 1388807146.0, 
      "link": "https://www.facebook.com/323147821048701/posts/756720621024750", 
      "message": "你现在想去哪儿 ", 
      "picture": "https://scontent.xx.fbcdn.net/hphotos-xap1/v/t1.0-9/1545034_756720507691428_517948006_n.jpg?oh=7d63ba3f1c0246b3a46b1e46fda75c1e&oe=5646C7B8"
    }, 
    {
      "code": "756686704361475", 
      "created_time": 1388799532.0, 
      "link": "https://www.facebook.com/323147821048701/posts/756686704361475", 
      "message": "怎么没有北瓜 ", 
      "picture": "https://fbcdn-sphotos-e-a.akamaihd.net/hphotos-ak-frc3/v/t1.0-9/995598_756686551028157_1724492415_n.jpg?oh=b27e79c665d7891f378b1ba52d69af9c&oe=560EF871&__gda__=1448038533_6f3207f6f283e16cccd2abef5ead975a"
    }, 
    {
      "code": "756292871067525", 
      "created_time": 1388734531.0, 
      "link": "https://www.facebook.com/323147821048701/posts/756292871067525", 
      "message": "รู้จักกี่ตัวครับบบ", 
      "picture": "https://scontent.xx.fbcdn.net/hphotos-xap1/v/t1.0-9/1499438_756292671067545_1974001069_n.jpg?oh=3085475809609de7be87b77e3a6d9d20&oe=564F1F3D"
    }, 
    {
      "code": "755526854477460", 
      "created_time": 1388633662.0, 
      "link": "https://www.facebook.com/323147821048701/posts/755526854477460", 
      "message": "นิทานเต๋า เรื่อง ชายชรากับม้า    ชายชราคนหนึ่งมีม้าดี    ชาวบ้านมาแสดงความยินดีที่โชคดี    ชายชราตอบ   โชคดีเหรอ ใครเล่าจะบอกได้    ต่อมาม้าหายไป    ชาวบ้านมาแสดงความเสียใจที่โชคร้าย    ชายชราตอบ   โชคร้ายเหรอ ใครเล่าจะบอกได้    ต่อมาม้ากลับมาพร้อมม้าป่าหนุ่มสง่างาม    ชาวบ้านมาแสดงความยินดีที่โชคดี    ชายชราตอบ   โชคดีเหรอ ใครเล่าจะบอกได้    ต่อมาลูกชายของชายชราขี่ม้าตัวใหม่และตกม้า เลยพิการ    ชาวบ้านมาแสดงความเสียใจที่โชคร้าย    ชายชราตอบ   โชคร้ายเหรอ ใครเล่าจะบอกได้    ต่อมาเกิดสงคราม มีการเกณฑ์คนหนุ่มไปรบ ลูกชายพิการเลยไม่ต้องไป ลูกบ้านอื่นตายหมดเพราะสงคราม    จบ    เครดิต    http   manager co th", 
      "picture": "https://fbcdn-sphotos-c-a.akamaihd.net/hphotos-ak-xft1/v/t1.0-9/1549383_755526571144155_2095903959_n.jpg?oh=c3a019f7da04c3b67291da3bbdc74c9b&oe=56163F98&__gda__=1444077890_fcf7765b3136942b35845f6e5bd29d32"
    }, 
    {
      "code": "754317714598374", 
      "created_time": 1388475589.0, 
      "link": "https://www.facebook.com/323147821048701/posts/754317714598374", 
      "message": "新年快乐 สวัสดีปีใหม่    ", 
      "picture": "https://scontent.xx.fbcdn.net/hphotos-frc3/t31.0-8/s720x720/919506_754317187931760_1474483791_o.jpg"
    }, 
    {
      "code": "754097154620430", 
      "created_time": 1388437338.0, 
      "link": "https://www.facebook.com/323147821048701/posts/754097154620430", 
      "message": "ส่วนใครที่ยังไม่มีคู่ เราขอเสนอช้างคู่ครับ เอ้ย  ไม่ใช่  马上有对象 แปลว่าบนม้ามีช้างคู่ครับ ยังไงช้างคู่ก็ดีกว่าช้างคี่ ขี้  เอ๊ะ ยังไง 对象 แปลว่า เป้าหมาย  คู่รัก  คนรัก ครับ เพราะฉะนั้นปีม้านี้ขอให้ทุกคนสมหวังในความรัก มีคู่ครองที่ดี 马上有对象    มีคู่ครองเดี๋ยวนี้เลยครับ   ", 
      "picture": "https://scontent.xx.fbcdn.net/hphotos-xpa1/v/t1.0-9/1535615_754096244620521_1742485926_n.jpg?oh=8e55403d061c1e2fb79273c90f91a6c3&oe=56197B47"
    }, 
    {
      "code": "754094064620739", 
      "created_time": 1388436676.0, 
      "link": "https://www.facebook.com/323147821048701/posts/754094064620739", 
      "message": "จะปีม้าแล้วครับ 马上有钱 เป็นการเล่นคำครับ 马上 แปลได้ทั้ง  บนม้า  และ  ทันที  เดี๋ยวนี้   เพราะฉะนั้นขอให้ทุกคนมีเงินในตอนนี้เลยนะครับ   ", 
      "picture": "https://scontent.xx.fbcdn.net/hphotos-frc3/v/t1.0-9/564526_754093721287440_616887887_n.jpg?oh=e338e6064961577a978b8c16b1812b36&oe=564D7DED"
    }, 
    {
      "code": "754089854621160", 
      "created_time": 1388435772.0, 
      "link": "https://www.facebook.com/323147821048701/posts/754089854621160", 
      "message": "什么牌子  什么颜色  要有翅膀吗  ยี่ห้ออะไร สีอะไร เอาแบบมีปีกไหม   แหมะ เหมือนเจอเพื่อนร่วมชะตากรรม", 
      "picture": "https://fbcdn-sphotos-c-a.akamaihd.net/hphotos-ak-xtf1/v/t1.0-9/1483090_754088931287919_1402426467_n.jpg?oh=486abff318ee0a489929bd1243aa4164&oe=5643C4F5&__gda__=1448199222_31b9b6db325629b7fe6eeac27d669927"
    }, 
    {
      "code": "753663147997164", 
      "created_time": 1388383003.0, 
      "link": "https://www.facebook.com/323147821048701/posts/753663147997164", 
      "message": "别人的东西特别好吃   ของคนอื่นอร่อยกว่าเสมอ", 
      "picture": "https://scontent.xx.fbcdn.net/hphotos-xpa1/v/t1.0-9/s720x720/1545987_753662567997222_723510834_n.jpg?oh=ce9d5aed0d6dd94c526dabc720ccea36&oe=5644DAD4"
    }, 
    {
      "code": "886120334751444", 
      "created_time": 1387663200.0, 
      "link": "https://www.facebook.com/323147821048701/posts/886120334751444", 
      "message": "零食  líng shí  ขนมขบเคี้ยว", 
      "picture": "https://scontent.xx.fbcdn.net/hphotos-xpa1/v/t1.0-9/s720x720/1488254_748926755137470_119834365_n.jpg?oh=30bf40b3668a748ceb7e5c234ff9ca83&oe=564F52D8"
    }, 
    {
      "code": "748349048528574", 
      "created_time": 1387592790.0, 
      "link": "https://www.facebook.com/323147821048701/posts/748349048528574", 
      "message": "ใครเป็นแบบนี้บ้าง", 
      "picture": "https://scontent.xx.fbcdn.net/hphotos-xfp1/v/t1.0-9/1527133_748349001861912_1806955573_n.jpg?oh=021e86877bed8b755cae58588856af28&oe=5645B1E7"
    }, 
    {
      "code": "748331528530326", 
      "created_time": 1387589902.0, 
      "link": "https://www.facebook.com/323147821048701/posts/748331528530326", 
      "message": "距离 ระยะห่าง  不会破坏感情 มิอาจทำลายมิตรภาพ  怀疑才会 แต่ความหวาดระแวงนี่สิที่เป็นตัวทำลาย", 
      "picture": "https://scontent.xx.fbcdn.net/hphotos-xfp1/v/t1.0-9/1488047_748330971863715_1806943192_n.jpg?oh=82408d63b201ddeb697fb638bdc13989&oe=5647EC62"
    }, 
    {
      "code": "747823471914465", 
      "created_time": 1387507251.0, 
      "link": "https://www.facebook.com/323147821048701/posts/747823471914465", 
      "message": "สับสนประจำ    ", 
      "picture": "https://fbcdn-sphotos-h-a.akamaihd.net/hphotos-ak-ash2/v/t1.0-9/s720x720/1184984_747823225247823_267290300_n.jpg?oh=c4a97883a98248599131e4d20bee1d6d&oe=561420A8&__gda__=1448728882_50f10543b4d8b3521947e6f09df50676"
    }, 
    {
      "code": "747342188629260", 
      "created_time": 1387418678.0, 
      "link": "https://www.facebook.com/323147821048701/posts/747342188629260", 
      "message": "ฉันแค่ต้องการดู   ฉันไม่ซื้ออะไรทั้งนั้น  ฉันไม่ได้เอาเงินมา  เพราะฉะนั้นไม่ต้องมาสนใจฉัน  ขอบคุณ", 
      "picture": "https://scontent.xx.fbcdn.net/hphotos-xap1/v/t1.0-9/1525224_747341808629298_560116934_n.jpg?oh=e501941d631ce4d613fe357a050f1fa8&oe=564CCC01"
    }, 
    {
      "code": "746953915334754", 
      "created_time": 1387352543.0, 
      "link": "https://www.facebook.com/323147821048701/posts/746953915334754", 
      "message": "囍 เป็นสัญลักษณ์มงคลที่นิยมใช้ในพิธีแต่งงานของชาวจีนครับ     โดยจะเรียกคำนี้ว่า “ซวงสี่” （双喜）ซึ่งแปลว่า “มงคลคู่” หรือ “มงคลคู่มงคล  มงคลซ้อนมงคล”    ประวัติความเป็นมาของสัญลักษณ์ ซวงสี่ มีตำนานเล่าว่า              ราชวงศ์ซ่ง มีบัณฑิตหนุ่มนามว่า หวังอันสือ  王安石   ซึ่งต่อมาภายหลังได้เป็นมหาเสนาบดีคนสำคัญในสมัยราชวงศ์ซ่ง  เดินทางเข้าเมืองหลวงเพื่อสอบเข้ารับราชการ ภายหลังเสร็จสิ้นการสอบ เขาโชคดีที่มีมหาเศรษฐีพึงใจในบุคลิกภาพ จึงยกลูกสาวให้และรับ หวังอันสือ เป็นเขยขวัญ              ในวันแต่งงาน ปรากฏว่ามีคนมาแจ้งข่าว่า หวังอันสือ สามารถสอบได้ตำแหน่งจอหงวนหรือจ้วงเอวี๋ยน  状元  เรื่องมงคลทั้งสองเกิดขึ้นซ้อน ๆ กัน ทำให้ หวังอันสือ ที่กำลังจะเขียนอักษรคำว่า “สี่” （喜）เพื่อปิดไว้ที่ประตูบ้าน จึงได้เขียนอักษร“สี่” （喜）ซ้อนติดกันอีก เชื่อมต่อกันเป็น囍 เมื่อชาวบ้านพบเห็นก็เกิดความชอบใจ นับตั้งแต่บัดนั้นเป็นต้นมา สัญลักษณ์มงคลคำว่า 囍 จึงถูกนำไปใช้ต่อ ๆ กันมาจนถึงปัจจุบัน              ลักษณะของสัญลักษณ์ซวงสี่ ซังฮี้    双喜 มีผู้ตีความหมายว่า สาเหตุที่อักษรสัญลักษณ์ดังกล่าวใช้กับงานแต่งงานของคู่บ่าวสาว เพราะสัญลักษณ์นี้ เหมือนรอยยิ้มที่เปี่ยมไปด้วยความสุข และการแต่งงานย่อมเกิดขึ้นจากคน 2 คน และญาติทั้ง 2 ฝ่าย การแต่งงาน เจ้าบ่าวก็มีความสุข（喜）เจ้าสาวก็มีความสุข（喜）รวมทั้งบิดาหมารดาและญาติมิตรทั้งสองฝ่ายต่างก็มีความสุข ความหมายอันเป็นมงคลซ้อน ๆ กันนี้เองที่เป็นที่มาของการนำความสุขทั้ง 2 คำคือ喜 喜 มารวมกัน กลายมาเป็นคำมงคลคู่囍ไปในที่สุด    ขอบคุณข้อมูลจาก   jiewfudao com", 
      "picture": "https://fbcdn-sphotos-d-a.akamaihd.net/hphotos-ak-xap1/v/t1.0-9/1524950_746953898668089_752553854_n.jpg?oh=2445128fe463528519fcaf145cf7a477&oe=56467655&__gda__=1443770326_97782b64d9b5de3fdf63b44e12a7a7bb"
    }, 
    {
      "code": "746960158667463", 
      "created_time": 1387299420.0, 
      "link": "https://www.facebook.com/323147821048701/posts/746960158667463", 
      "message": "ถ้า男คือผู้ชาย และ女คือผู้หญิง แล้วนี่คือ ", 
      "picture": "https://scontent.xx.fbcdn.net/hphotos-prn2/v/t1.0-9/1475788_746957268667752_1947288190_n.jpg?oh=0df732476d3c192e2840c5994bf33422&oe=564FA17B"
    }, 
    {
      "code": "745097512187061", 
      "created_time": 1387074673.0, 
      "link": "https://www.facebook.com/323147821048701/posts/745097512187061", 
      "message": "不管好坏，一切都会过去    bù guǎn hǎo huài  yī qiè dōu huì guò qù    ไม่ว่าจะดีหรือร้าย เดี๋ยวมันก็จะผ่านไป", 
      "picture": "https://scontent.xx.fbcdn.net/hphotos-xta1/v/t1.0-9/p180x540/1472854_745097492187063_171232990_n.jpg?oh=39d898906cfa3df42c50fbbd14497d41&oe=565876A5"
    }, 
    {
      "code": "740580602638752", 
      "created_time": 1386359502.0, 
      "link": "https://www.facebook.com/323147821048701/posts/740580602638752", 
      "message": "自恋 หลงตัวเอง เครดิต   จดหมายข่าวอาศรมสยาม", 
      "picture": "https://scontent.xx.fbcdn.net/hphotos-xap1/v/t1.0-9/s720x720/1470278_740580585972087_193843461_n.jpg?oh=3faf1f9b25ddb13c9e68e045abb2da88&oe=56582E67"
    }
  ], 
  "page_id": "323147821048701"
}