{
  "content": [
    {
      "code": "884118804951597", 
      "created_time": 1407034486.0, 
      "link": "https://www.facebook.com/323147821048701/posts/884118804951597", 
      "message": "演唱会  yǎn chàng huì  คอนเสิร์ต", 
      "picture": "https://scontent.xx.fbcdn.net/hphotos-xtp1/v/t1.0-9/p720x720/10343497_884118591618285_3175727085676422816_n.jpg?oh=142bfe40bb38bdf70ce3cd70fca4f08e&oe=56180CA2"
    }, 
    {
      "code": "883392671690877", 
      "created_time": 1406925164.0, 
      "link": "https://www.facebook.com/323147821048701/posts/883392671690877", 
      "message": "七夕节  qī xī jié  เทศกาลชีซี   เป็นวันที่หนุ่มเลี้ยงวัวกับสาวทอผ้าจะได้มาพบกันอีกครั้ง  ตรงกับวันนี้ครับ   เทศกาลชีซี  七夕节  ตรงกับวันที่ 7 เดือน 7 ตามจันทรคติของจีน ตามตำนานกล่าวว่ามีชายหนุ่มเลี้ยงวัวคนหนึ่งชื่อหนิวหลางพบกับนางฟ้าเจ็ดองค์ลงจากสวรรค์มาเล่นน้ำ จึงไปขโมยเสื้อผ้าของพวกนาง จือหนี่น้องสาวคนสุดท้องมาเจรจาขอเสื้อผ้าคืน หนิวหลางขอให้นางแต่งงานกับตน ซึ่งนางก็ยินยอม และได้อาศัยร่วมกันบนโลกมนุษย์  เมื่อเง็กเซียนฮองเฮาผู้เป็นมารดาได้ทราบข่าวการแต่งงานก็โกรธแค้น และมีคำสั่งให้จือหนี่กลับสู่สวรรค์ ฝ่ายหนิวหลางเมื่อกลับมาพบว่าภรรยาของตนหายตัวไปก็โศกเศร้าเสียใจ ทันใดนั้นวัวของเขาก็บอกให้หนิวหลางฆ่าตนเสีย แล้วใช้หนังคลุมร่างเหาะขึ้นสวรรค์เพื่อตามหาจือหนี่  เง็กเซียนฮองเฮาพบหนิวหลางขึ้นมาบนสวรรค์ก็ยิ่งโกรธแค้นหนักกว่าเดิม จึงดึงปิ่นปักผมออกมากรีดท้องฟ้าให้เป็นแม่น้ำกว้าง ทำให้คู่รักทั้งสองต้องแยกจากกันตลอดกาล  ในวันที่ 7 เดือน 7 ของทุกปีจะมีเหล่านกกระเรียนมาเรียงตัวกันเป็นสะพานข้ามแม่น้ำด้วยความเมตตาสงสาร เพื่อให้หนิวหลางและจือหนี่ข้ามสะพานมาพบกัน", 
      "picture": "https://fbcdn-sphotos-h-a.akamaihd.net/hphotos-ak-xfp1/v/t1.0-9/p720x720/1910003_883392615024216_4786548195428863624_n.jpg?oh=1a0b9f6290c1b5680b38a804d6f8687f&oe=5614AE83&__gda__=1444207857_02b2a3891739c3bde4d015b1ba6c599a"
    }, 
    {
      "code": "879309442099200", 
      "created_time": 1406307103.0, 
      "link": "https://www.facebook.com/323147821048701/posts/879309442099200", 
      "message": "飞机坠毁  fēi jī zhuì huǐ  เครื่องบินตก", 
      "picture": "https://fbcdn-sphotos-a-a.akamaihd.net/hphotos-ak-xpa1/v/t1.0-9/p720x720/10484988_879308922099252_5546609277149458303_n.jpg?oh=9df49cb1dcd0257b9925206e2c076f14&oe=560E4E8B&__gda__=1447578989_b77a29d2b51baf261579dbd31bfca4f7"
    }, 
    {
      "code": "878429438853867", 
      "created_time": 1406186200.0, 
      "link": "https://www.facebook.com/323147821048701/posts/878429438853867", 
      "message": "家  jiā  บ้าน", 
      "picture": "https://scontent.xx.fbcdn.net/hphotos-xfa1/v/t1.0-9/p720x720/10557332_878429035520574_6964396916468120934_n.jpg?oh=53bcb6e1d5bb95f3eb23585ebf716a0b&oe=564BF6E7"
    }, 
    {
      "code": "878383375525140", 
      "created_time": 1406180343.0, 
      "link": "https://www.facebook.com/323147821048701/posts/878383375525140", 
      "message": "自然  zì rán  ธรรมชาติ", 
      "picture": "https://scontent.xx.fbcdn.net/hphotos-xfp1/v/t1.0-9/p720x720/10583988_878383132191831_768861823096150877_n.jpg?oh=12cc281b78245df6220b34b3b4cc6316&oe=56486CCF"
    }, 
    {
      "code": "872389549457856", 
      "created_time": 1405396398.0, 
      "link": "https://www.facebook.com/323147821048701/posts/872389549457856", 
      "message": "ขอ  ภาษาจีน  2 3 คำให้ภาพนี้หน่อยครับ", 
      "picture": "https://scontent.xx.fbcdn.net/hphotos-ash4/v/t1.0-9/1610762_872389386124539_8860921811812934256_n.jpg?oh=a322ccbc367e99189c1536c5ff629eb6&oe=560E0658"
    }, 
    {
      "code": "871978216165656", 
      "created_time": 1405324571.0, 
      "link": "https://www.facebook.com/323147821048701/posts/871978216165656", 
      "message": "柠檬茶  níng méng chá  ชามะนาว", 
      "picture": "https://scontent.xx.fbcdn.net/hphotos-xpa1/v/t1.0-9/p720x720/10491255_871978089499002_3163344988468165462_n.jpg?oh=8aeef3b6257200db5922bd7b79d4c7e0&oe=564B258E"
    }, 
    {
      "code": "871409349555876", 
      "created_time": 1405234070.0, 
      "link": "https://www.facebook.com/323147821048701/posts/871409349555876", 
      "message": "德国  dé guó  เยอรมนี VS 阿根廷  ā gēn tíng  อาร์เจนติน", 
      "picture": "https://scontent.xx.fbcdn.net/hphotos-xfp1/v/t1.0-9/10485662_871409262889218_9096290339928649778_n.jpg?oh=52ba7678b1478c87485e83e93ee37347&oe=5652F62F"
    }, 
    {
      "code": "871328342897310", 
      "created_time": 1405222675.0, 
      "link": "https://www.facebook.com/323147821048701/posts/871328342897310", 
      "message": "ย้ำกันอีกรอบครับ ของดีต้องแนะนำ    หนังสือ   CD ร้อง   ท่องเพลงจีน ไทย เป็นเด็กเก่ง 2 ภาษาได้   ง่ายจัง      หนังสือเพลงภาษาจีนสำหรับเด็กพร้อมCDเพลง เนื้อเพลง 2 ภาษาทั้งภาษาจีนและภาษาไทย ให้เด็กๆ ได้เรียนรู้ภาษาจีนโดยไม่ต้องท่องจำ    ราคาเล่มละ 250 บาท  พิเศษทั้งชุด 2 เล่มลดเหลือ 480 บาท     ช่วงโปรโมชั่น   ส่งฟรี       ไปรษณีย์ลงทะเบียน     สนใจสอบถามรายละเอียดได้ทางข้อความเลยครับ     เล่ม 1 ประกอบด้วยเพลง 1  我的朋友在哪里   เพื่อนของฉันอยู่ที่ไหน 2  当我们在一起   เมื่อเราอยู่ด้วยกัน 3  两只老虎   เจ้าเสือสองตัว 4  找朋友   ตามหาเพื่อน 5  新年好   สวัสดีปีใหม่ 6  红绿灯   ไฟเขียว ไฟแดง 7  小小手   มือน้อยๆ 8  小星星   ดาวดวงน้อย 9  生日歌   Happy birth day 10  世上只有妈妈好   โลกนี้มีแม่เท่านั้นดีที่สุด  เล่ม 2 ประกอบด้วยเพลง 1  小兔子   กระต่ายน้อยแสนดี 2  上学歌   ไปโรงเรียน 3  我是个茶壶   ฉันคือกาน้ำชา 4  唱歌歌   มาร้องเพลงกันเถอะ 5  打电话   คุยโทรศัพท์ 6  蝴蝶   ผีเสื้อ 7  小蜜蜂   ผึ้งน้อย 8  娃哈哈   วะฮ่าฮ่า 9  蜗牛与与黄鹂鸟   หอยทากและนกขมิ้น 10  小燕子   นกนางแอ่น", 
      "picture": "https://scontent.xx.fbcdn.net/hphotos-xaf1/v/t1.0-9/s720x720/10502155_871327869564024_8038647301489607428_n.jpg?oh=35769845eb16d07d67def176bd09e770&oe=5610D31C"
    }, 
    {
      "code": "870632569633554", 
      "created_time": 1405103028.0, 
      "link": "https://www.facebook.com/323147821048701/posts/870632569633554", 
      "message": "守夏节  shǒu xià jié  วันเข้าพรรษา", 
      "picture": "https://scontent.xx.fbcdn.net/hphotos-xfp1/v/t1.0-9/p720x720/10494722_870632519633559_7787627446461038325_n.jpg?oh=4a22f5a4108031e8d7934f225406141a&oe=5647A4E9"
    }, 
    {
      "code": "870366989660112", 
      "created_time": 1405064120.0, 
      "link": "https://www.facebook.com/323147821048701/posts/870366989660112", 
      "message": "国王  guó wáng  พระมหากษัตริย์", 
      "picture": "https://scontent.xx.fbcdn.net/hphotos-xtp1/v/t1.0-9/p720x720/10552437_870366146326863_7611299144079259446_n.jpg?oh=03bcf3c580f02988dc67fcafb29b1772&oe=5650D2DE"
    }, 
    {
      "code": "870236443006500", 
      "created_time": 1405043538.0, 
      "link": "https://www.facebook.com/323147821048701/posts/870236443006500", 
      "message": "ขออนุญาตขายของจ้า ของดีต้องแนะนำ    หนังสือ   CD ร้อง   ท่องเพลงจีน ไทย เป็นเด็กเก่ง 2 ภาษาได้   ง่ายจัง      หนังสือเพลงภาษาจีนสำหรับเด็กพร้อมCDเพลง เนื้อเพลง 2 ภาษาทั้งภาษาจีนและภาษาไทย ให้เด็กๆ ได้เรียนรู้ภาษาจีนโดยไม่ต้องท่องจำ    ราคาเล่มละ 250 บาท  พิเศษทั้งชุด 2 เล่มลดเหลือ 480 บาท     ช่วงโปรโมชั่น   ส่งฟรี       ไปรษณีย์ลงทะเบียน     สนใจสอบถามรายละเอียดได้ทางข้อความเลยครับ      เล่ม 1 ประกอบด้วยเพลง  1  我的朋友在哪里   เพื่อนของฉันอยู่ที่ไหน  2  当我们在一起    เมื่อเราอยู่ด้วยกัน  3  两只老虎   เจ้าเสือสองตัว  4  找朋友   ตามหาเพื่อน  5  新年好   สวัสดีปีใหม่  6  红绿灯    ไฟเขียว ไฟแดง  7  小小手    มือน้อยๆ  8  小星星    ดาวดวงน้อย  9  生日歌    Happy birth day  10  世上只有妈妈好   โลกนี้มีแม่เท่านั้นดีที่สุด    เล่ม 2 ประกอบด้วยเพลง  1  小兔子   กระต่ายน้อยแสนดี  2  上学歌   ไปโรงเรียน  3  我是个茶壶   ฉันคือกาน้ำชา  4  唱歌歌   มาร้องเพลงกันเถอะ  5  打电话   คุยโทรศัพท์  6  蝴蝶   ผีเสื้อ  7  小蜜蜂   ผึ้งน้อย  8  娃哈哈   วะฮ่าฮ่า  9  蜗牛与与黄鹂鸟   หอยทากและนกขมิ้น  10  小燕子   นกนางแอ่น", 
      "picture": "https://scontent.xx.fbcdn.net/hphotos-xpa1/v/t1.0-9/s720x720/10360542_870235583006586_8891626976131310562_n.jpg?oh=351776b70f341ca2d78b7a5aebc93096&oe=564B4EFD"
    }, 
    {
      "code": "870085949688216", 
      "created_time": 1405021881.0, 
      "link": "https://www.facebook.com/323147821048701/posts/870085949688216", 
      "message": "三宝佛节  sān bǎo fó jié  วันอาสาฬหบูชา", 
      "picture": "https://scontent.xx.fbcdn.net/hphotos-xfp1/v/t1.0-9/p720x720/10487287_870085713021573_7098551114588957369_n.jpg?oh=d2375fe8a5e0500d5fcfc92c53823108&oe=565B0F07"
    }, 
    {
      "code": "869796949717116", 
      "created_time": 1404979062.0, 
      "link": "https://www.facebook.com/323147821048701/posts/869796949717116", 
      "message": "书  shū  หนังสือ", 
      "picture": "https://fbcdn-sphotos-f-a.akamaihd.net/hphotos-ak-xpf1/v/t1.0-9/s720x720/10433132_869796733050471_2599913606018520548_n.jpg?oh=87158b1658ab3660566cf41f4282d5a2&oe=5615CAEA&__gda__=1447686999_8f5b73e09516184d4ced08a7202e707b"
    }, 
    {
      "code": "867460763284068", 
      "created_time": 1404617969.0, 
      "link": "https://www.facebook.com/323147821048701/posts/867460763284068", 
      "message": "玩具  wán jù  ของเล่น", 
      "picture": "https://fbcdn-sphotos-d-a.akamaihd.net/hphotos-ak-xfp1/v/t1.0-9/s720x720/10501647_867460729950738_2184732671177425366_n.jpg?oh=2c01554e788275e3b1541a4e0dee102c&oe=5653A578&__gda__=1443807304_1f6990a0c238ee4c9ac97acc1bb8b4a6"
    }, 
    {
      "code": "867414699955341", 
      "created_time": 1404609498.0, 
      "link": "https://www.facebook.com/323147821048701/posts/867414699955341", 
      "message": "照相机 相机  zhào xiàng jī  กล้องถ่ายรูป  手机  shǒu jī  โทรศัพท์มือถือ     数码相机 กล้องดิจิตอล    智能手机 Smartphone", 
      "picture": "https://fbcdn-sphotos-h-a.akamaihd.net/hphotos-ak-xfp1/v/t1.0-9/s720x720/10524644_867414393288705_2154027950433733876_n.jpg?oh=8653f8519509752c03250f7acba2b1cb&oe=561452C8&__gda__=1448093176_0cad9339d6f13d3cafb899fe98f438b5"
    }, 
    {
      "code": "865808583449286", 
      "created_time": 1404374320.0, 
      "link": "https://www.facebook.com/323147821048701/posts/865808583449286", 
      "message": "摩托车  mó tuō chē  มอเตอร์ไซค์", 
      "picture": "https://scontent.xx.fbcdn.net/hphotos-xtf1/v/t1.0-9/p180x540/10418460_865808230115988_1092523541075245051_n.jpg?oh=9afa4eb1962cf5ca47ce1b61eda22e13&oe=5614F758"
    }, 
    {
      "code": "865800296783448", 
      "created_time": 1404373138.0, 
      "link": "https://www.facebook.com/323147821048701/posts/865800296783448", 
      "message": "晚安  Wǎn ān  ราตรีสวัสดิ์", 
      "picture": "https://fbcdn-sphotos-e-a.akamaihd.net/hphotos-ak-xpa1/v/t1.0-9/p180x540/10484484_865800100116801_1159514886871907498_n.jpg?oh=2450cedd2d4248b4ab14554b05ddf371&oe=5653F8EE&__gda__=1448790792_96519fb45fd9bf7b647d160960549044"
    }, 
    {
      "code": "859394437424034", 
      "created_time": 1403512388.0, 
      "link": "https://www.facebook.com/323147821048701/posts/859394437424034", 
      "message": "水果  shuǐ guǒ  ผลไม้", 
      "picture": "https://scontent.xx.fbcdn.net/hphotos-xtp1/v/t1.0-9/s720x720/10405567_859394374090707_998478707863137209_n.jpg?oh=444be22bab724c620008da3334774661&oe=56581BAE"
    }
  ], 
  "page_id": "323147821048701"
}