{
  "content": [
    {
      "code": "1086951684668307", 
      "created_time": 1436038301.0, 
      "link": "https://www.facebook.com/323147821048701/posts/1086951684668307", 
      "message": "书签  shū qiān  ที่คั่นหนังสือ", 
      "picture": "https://fbcdn-sphotos-a-a.akamaihd.net/hphotos-ak-xpt1/v/t1.0-9/p720x720/11693977_1086951684668307_6818572064640104584_n.jpg?oh=0cc129ffe9b59eca24756a90a69af41a&oe=564E699D&__gda__=1448093841_00c41fbb8c16cb355feb2c2f850986eb"
    }, 
    {
      "code": "1065505220146287", 
      "created_time": 1433028009.0, 
      "link": "https://www.facebook.com/323147821048701/posts/1065505220146287", 
      "message": "拉链  lā liàn  ซิป", 
      "picture": "https://scontent.xx.fbcdn.net/hphotos-xpa1/v/t1.0-9/p720x720/11205068_1065505220146287_8598287180476983559_n.jpg?oh=c117ad0d9c79454febf818b15f67f8dc&oe=56514E8B"
    }, 
    {
      "code": "1053264674703675", 
      "created_time": 1431756092.0, 
      "link": "https://www.facebook.com/323147821048701/posts/1053264674703675", 
      "message": "布朗尼  bù lǎng ní  บราวนี่", 
      "picture": "https://fbcdn-sphotos-f-a.akamaihd.net/hphotos-ak-xap1/v/t1.0-9/p720x720/11217815_1053264674703675_8395849221288694035_n.jpg?oh=7e6ca03d3123e60fc511f43e3c0712da&oe=564582AB&__gda__=1447795603_fbc7774f4422f19cda08c7e7011813bf"
    }, 
    {
      "code": "1044592322237577", 
      "created_time": 1430291034.0, 
      "link": "https://www.facebook.com/323147821048701/posts/1044592322237577", 
      "message": "尼泊尔  ní bó  ěr  เนปาล", 
      "picture": "https://scontent.xx.fbcdn.net/hphotos-xpf1/v/t1.0-9/q89/p720x720/11169844_1044592322237577_8759968977951250553_n.jpg?oh=21466ab64d32091ba097f052f875a2f8&oe=5653701F"
    }, 
    {
      "code": "1044496645580478", 
      "created_time": 1430276349.0, 
      "link": "https://www.facebook.com/323147821048701/posts/1044496645580478", 
      "message": "捐赠  juān zèng  บริจาค", 
      "picture": "https://scontent.xx.fbcdn.net/hphotos-xpf1/v/t1.0-9/p720x720/11156320_1044496645580478_460697851463371812_n.jpg?oh=28d932ca9e4bf20078e4b65f67741b8e&oe=56154912"
    }, 
    {
      "code": "1034433126586830", 
      "created_time": 1428872485.0, 
      "link": "https://www.facebook.com/323147821048701/posts/1034433126586830", 
      "message": "水枪  shuǐ qiāng  ปืนฉีดน้ำ", 
      "picture": "https://scontent.xx.fbcdn.net/hphotos-xap1/v/t1.0-9/p720x720/11053658_1034432963253513_1765799023072291019_n.jpg?oh=608abc2e35c45cfa4051fb2d5a124854&oe=56464053"
    }, 
    {
      "code": "1034422399921236", 
      "created_time": 1428870728.0, 
      "link": "https://www.facebook.com/323147821048701/posts/1034422399921236", 
      "message": "宋干节  sòng gàn jié  เทศกาลสงกรานต์  泼水节  pō shuǐ jié   เทศกาลสงกรานต์", 
      "picture": "https://fbcdn-sphotos-c-a.akamaihd.net/hphotos-ak-xtf1/v/t1.0-9/p720x720/11150559_1034422333254576_5019201221828067132_n.jpg?oh=5e6a5e6c1bd5a35aef57ecef37bde865&oe=561215EF&__gda__=1448531198_dd753440c888b7a0fd1a778cb643aacc"
    }, 
    {
      "code": "1028541393842670", 
      "created_time": 1427954500.0, 
      "link": "https://www.facebook.com/323147821048701/posts/1028541393842670", 
      "message": "诗琳通公主  shī lín tōng gōng zhǔ  สมเด็จพระเทพฯ  เครดิตภาพ   http   www oknation net blog nfedlion 2013 02 09 entry 1", 
      "picture": "https://fbcdn-sphotos-g-a.akamaihd.net/hphotos-ak-xfa1/v/t1.0-9/p720x720/21293_1028541370509339_2449848419965799012_n.jpg?oh=051edafab08bf4b19326aa9aadf57838&oe=5644AE35&__gda__=1447644310_c0982b8227cb8b1d927d2be73bf90a61"
    }
  ], 
  "page_id": "323147821048701"
}