{
  "content": [
    {
      "code": "760278454086607", 
      "created_time": 1427641577.0, 
      "link": "https://www.facebook.com/409400835841039/posts/760278454086607", 
      "message": "ผู่บ่มีสถานะ  อรุณสวัสยามเช้าๆจร้า", 
      "picture": "https://scontent.xx.fbcdn.net/hphotos-xft1/v/t1.0-9/1511147_461432884031784_2319550871284335899_n.jpg?oh=4fe145cf85264fe672a6491e007d2035&oe=56132913"
    }, 
    {
      "code": "757020661079053", 
      "created_time": 1427160721.0, 
      "link": "https://www.facebook.com/409400835841039/posts/757020661079053", 
      "message": " มิน   หายหัวไปไหนน้อ    เงียบเรย"
    }, 
    {
      "code": "753072678140518", 
      "created_time": 1426707949.0, 
      "link": "https://www.facebook.com/409400835841039/posts/753072678140518", 
      "message": "ขเเมเซราะนานิ", 
      "picture": "https://fbcdn-vthumb-a.akamaihd.net/hvthumb-ak-xfp1/v/t15.0-10/11011394_1618798231689795_1618798108356474_18877_269_b.jpg?oh=c06031fc26c681b22c216eac8e601816&oe=56476D72&__gda__=1444250670_4dfb3b7e88a3d69f1844f1710fca14af"
    }, 
    {
      "code": "754419028005883", 
      "created_time": 1426879510.0, 
      "link": "https://www.facebook.com/409400835841039/posts/754419028005883", 
      "message": "ผมคนเขมรครับ ชื่อที่อยู่เมื่องไทย  ชื่อแบงค์   ชื่อที่อยู่เมื่องเขมร  ชื่อ    oua   หรือ   อัว     มีไรทักคุยได้    และชวยสอนภาษาเขมรอย่างถูกต้อง", 
      "picture": "https://fbcdn-sphotos-g-a.akamaihd.net/hphotos-ak-xfp1/v/t1.0-9/s720x720/10988441_1610892142463574_1584954366338404304_n.jpg?oh=fa3a0ff2653209084aee65ad160e838e&oe=561A3C71&__gda__=1447983520_fd1f0ff4f1c67507c359822030774c5f"
    }, 
    {
      "code": "754766907971095", 
      "created_time": 1426920443.0, 
      "link": "https://www.facebook.com/409400835841039/posts/754766907971095", 
      "message": "สงัดแระโน เนาอีนามอด คับ", 
      "picture": "https://fbcdn-sphotos-e-a.akamaihd.net/hphotos-ak-xpa1/v/t1.0-9/20821_634720996661551_359969540244325146_n.jpg?oh=1fe51abac14369de8d5885426db7e581&oe=564FE28C&__gda__=1444272725_43b580b9dc7105a9a6b57cc26b9429fa"
    }, 
    {
      "code": "630405943740526", 
      "created_time": 1408522321.0, 
      "link": "https://www.facebook.com/409400835841039/posts/630405943740526", 
      "message": "อ่านว่าไง     ไม่รุ้เเต่มันเยียบหัวไนหลวง สัสเอย   เเปลไห้หน่อย   ", 
      "picture": "https://scontent.xx.fbcdn.net/hphotos-xap1/v/t1.0-9/10559874_256100577922005_4600348640580609922_n.jpg?oh=72242871cc924b8e0936c2d9ef670b0a&oe=564D06FA"
    }, 
    {
      "code": "751416344972818", 
      "created_time": 1426486224.0, 
      "link": "https://www.facebook.com/409400835841039/posts/751416344972818", 
      "message": "บานเอ๋ยโฮปบายบ้องปะโอน"
    }, 
    {
      "code": "754437814670671", 
      "created_time": 1426882882.0, 
      "link": "https://www.facebook.com/409400835841039/posts/754437814670671", 
      "message": "ขอบคุณครับที่รับเข้ากลุ่ม เพื่อศึกษาครับ"
    }, 
    {
      "code": "737851226329330", 
      "created_time": 1424488949.0, 
      "link": "https://www.facebook.com/409400835841039/posts/737851226329330", 
      "message": "ไปซื้อของ ถามราคาเท่าไหร่ ลดได้มั๊ยคับ"
    }, 
    {
      "code": "740544649393321", 
      "created_time": 1424854774.0, 
      "link": "https://www.facebook.com/409400835841039/posts/740544649393321", 
      "message": "เดกๆ แปลว่า ตายๆ ใช่ไหมครับ"
    }, 
    {
      "code": "753145071466612", 
      "created_time": 1426719974.0, 
      "link": "https://www.facebook.com/409400835841039/posts/753145071466612", 
      "message": "มินเตีอนโหบบายเคลียนคลังนะ    "
    }, 
    {
      "code": "732628023518317", 
      "created_time": 1423717789.0, 
      "link": "https://www.facebook.com/409400835841039/posts/732628023518317", 
      "message": "โอนกัมปรุงเทอกา  ฮอลคัง หิวบายคลังพร่องTT"
    }, 
    {
      "code": "750456168402169", 
      "created_time": 1426378953.0, 
      "link": "https://www.facebook.com/409400835841039/posts/750456168402169", 
      "message": "วิถีชีวิต ประเพณี วัฒนธรรม คะแมร์ เขมร สะเกด  งานเทศกาลดอกลำดวนบานศรีสะเกษ", 
      "picture": "https://scontent.xx.fbcdn.net/hphotos-xtf1/v/t1.0-9/s720x720/18106_740017166112244_5714715011598706866_n.jpg?oh=7d4b677504b3f77423e23f1148a47c4a&oe=565099AA"
    }, 
    {
      "code": "749899465124506", 
      "created_time": 1426305302.0, 
      "link": "https://www.facebook.com/409400835841039/posts/749899465124506", 
      "message": "กึดด็อล เสราะกราว เตอ"
    }, 
    {
      "code": "750163005098152", 
      "created_time": 1426326497.0, 
      "link": "https://www.facebook.com/409400835841039/posts/750163005098152", 
      "message": "ออกุนเจริญๆแดลรับขยมลีงพอง Thank  for   me "
    }, 
    {
      "code": "748377305276722", 
      "created_time": 1426101379.0, 
      "link": "https://www.facebook.com/409400835841039/posts/748377305276722", 
      "message": "อ่านที่เขาบรรยายภาพ แล้วนึกถึงเพลงพี่ไมค์ เหนื่อยไหมคนดี มีพี่เป็นแฟน"
    }, 
    {
      "code": "744161175698335", 
      "created_time": 1425501452.0, 
      "link": "https://www.facebook.com/409400835841039/posts/744161175698335", 
      "message": "คะเนียแปลว่าอะไรค่ะ    ตอบด้วย"
    }, 
    {
      "code": "746397852141334", 
      "created_time": 1425854335.0, 
      "link": "https://www.facebook.com/409400835841039/posts/746397852141334", 
      "message": "ทะไงนี้กะเดาคลัง  โฮบบายเฮยโนวบอง", 
      "picture": "https://fbcdn-sphotos-h-a.akamaihd.net/hphotos-ak-xpf1/v/t34.0-12/s720x720/11026506_457324911086659_376348546_n.jpg?oh=1dc5266b9f82aaaa936879a625b8e802&oe=55B24EFC&__gda__=1437813251_8ad408fc71739bf2fa52dd22b1889921"
    }, 
    {
      "code": "737382703042849", 
      "created_time": 1424414971.0, 
      "link": "https://www.facebook.com/409400835841039/posts/737382703042849", 
      "message": "คนเรานี้ก็แปลกนะคะ เวลาแปลก็ไม่รุ้จักอ่านชอบมาถามซ้ำๆ พอดีไม่ได้ว่างมานั่งแปลให้ทีละคนนะคะ พอดีต้องทำมาหากินด้วยคะให้มานั่งเฝ้าหน้าเฟสเพื่อบอกทีละคนแบบนั้นไม่ไหวนะคะ  บางทีคนโพสต์ไม่ได้แปลแต่เพื่อนๆในชมรมมาช่วยกันแปลก็สังเกตุกันเองบ้างนะคะ   จบบบบคะ"
    }, 
    {
      "code": "747914601989659", 
      "created_time": 1426032938.0, 
      "link": "https://www.facebook.com/409400835841039/posts/747914601989659", 
      "message": "ชื้อจุ๊นิ"
    }, 
    {
      "code": "748026435311809", 
      "created_time": 1426048581.0, 
      "link": "https://www.facebook.com/409400835841039/posts/748026435311809", 
      "message": "ชมการแสดงศรีพฤทเธศวรกันครับ สวนสมเด็จศรีสะเกษ งานเทศกาลดอกลำดวน", 
      "picture": "https://scontent.xx.fbcdn.net/hphotos-xfa1/v/t1.0-9/11042996_737031876410773_3867375619580509346_n.jpg?oh=bbd5c4b39932cf273d732323f2650d9c&oe=564E7C02"
    }, 
    {
      "code": "745490375565415", 
      "created_time": 1425715140.0, 
      "link": "https://www.facebook.com/409400835841039/posts/745490375565415", 
      "message": "สันเบิมอย่าขะมาตเเม่หม้ายตามตลาดไวขะเนียเลิงมุกเขียว", 
      "picture": "https://scontent.xx.fbcdn.net/hphotos-xpt1/v/t1.0-9/q84/s720x720/11025178_353465041518891_1479920570248784687_n.jpg?oh=5c8bc7ddb57fe081be995d11d8dc3db2&oe=561A9EFB"
    }, 
    {
      "code": "745494152231704", 
      "created_time": 1425715622.0, 
      "link": "https://www.facebook.com/409400835841039/posts/745494152231704", 
      "message": "กูปรีพลัดถิ่น     ศีรสะเกดfc", 
      "picture": "https://scontent.xx.fbcdn.net/hphotos-xtp1/v/t1.0-9/10991284_353467861518609_5883375353814866537_n.jpg?oh=fd9debbfd65f7e35feec8dceed9fc587&oe=56554799"
    }
  ], 
  "page_id": "409400835841039"
}