{
  "content": [
    {
      "code": "806297409484711", 
      "created_time": 1435353383.0, 
      "link": "https://www.facebook.com/409400835841039/posts/806297409484711", 
      "message": "ใครเกิดปีอะไรกันบ้าง", 
      "picture": "https://fbcdn-sphotos-a-a.akamaihd.net/hphotos-ak-xta1/v/t1.0-9/11541028_663662843735089_6496497032907798246_n.jpg?oh=a8a2c7e07e56bea969adf0767a73d5f3&oe=56113AD5&__gda__=1448134236_0824632965e200a6459f75745ff2d6f3"
    }, 
    {
      "code": "804800922967693", 
      "created_time": 1435097403.0, 
      "link": "https://www.facebook.com/409400835841039/posts/804800922967693", 
      "message": "เนียงกะม่มเสร็นเด้ออรานาเนาเสร็น เม้น   เมอมุกละ อ่านออกป่าวจ้ะ", 
      "picture": "https://scontent.xx.fbcdn.net/hphotos-xfp1/v/t1.0-9/p720x720/10154970_1466238140355190_2326117383062876771_n.jpg?oh=be3f9effd25084915dfb8d7a092a176d&oe=564EA1FD"
    }, 
    {
      "code": "778937588887360", 
      "created_time": 1430414568.0, 
      "link": "https://www.facebook.com/409400835841039/posts/778937588887360", 
      "message": "กึดดอล แม่เอ๊า บองปะโอน", 
      "picture": "https://fbcdn-sphotos-a-a.akamaihd.net/hphotos-ak-xfa1/v/t1.0-9/11146490_1590119424596309_2332094443771570407_n.jpg?oh=cc8947994ae9d37a092fe3216d9623d2&oe=56472888&__gda__=1448242179_bd1849afc49e678b55529dd85547850f"
    }, 
    {
      "code": "813970655384053", 
      "created_time": 1436776535.0, 
      "link": "https://www.facebook.com/409400835841039/posts/813970655384053", 
      "message": "ขอบคุณครับที่รับครับ"
    }, 
    {
      "code": "805437096237409", 
      "created_time": 1435211275.0, 
      "link": "https://www.facebook.com/409400835841039/posts/805437096237409", 
      "message": "กะมอลขแมล เกิดแต่รั้วๆ ไอบ่ ส่วย"
    }, 
    {
      "code": "805384096242709", 
      "created_time": 1435197599.0, 
      "link": "https://www.facebook.com/409400835841039/posts/805384096242709", 
      "message": "เชิญท่านที่สนใจเข้าร่วมได้นะครับ ถ้าไม่สะดวกในการติดต่อเอง ผมยินดีช่วยเหลือครับ", 
      "picture": "https://scontent.xx.fbcdn.net/hphotos-xpt1/v/t1.0-9/s720x720/11329793_995768230467846_2342375259522075126_n.jpg?oh=a69aa9b4f0637fa3c6a48674d6120b82&oe=56145492"
    }, 
    {
      "code": "785019528279166", 
      "created_time": 1431676823.0, 
      "link": "https://www.facebook.com/409400835841039/posts/785019528279166", 
      "message": "มันจิงไหมครับ", 
      "picture": "https://fbcdn-vthumb-a.akamaihd.net/hvthumb-ak-xpa1/v/t15.0-10/10897733_964688156905073_417556624_n.jpg?oh=e7ad3848fb508e4d45a688f88d8e958f&oe=56181EC2&__gda__=1448679681_67b970a9b5674f1783610a43abc4d1c0"
    }, 
    {
      "code": "793440400770412", 
      "created_time": 1433150372.0, 
      "link": "https://www.facebook.com/409400835841039/posts/793440400770412", 
      "message": "จูงกะแซมทราย กรวยเซราะปะคำเด้อ ส่วยมีไหม"
    }, 
    {
      "code": "797276067053512", 
      "created_time": 1433818240.0, 
      "link": "https://www.facebook.com/409400835841039/posts/797276067053512", 
      "message": "นอกจากร้องไห้แล้ว ฉันยังจะทำอะไรได้อีก     ", 
      "picture": "https://fbcdn-vthumb-a.akamaihd.net/hvthumb-ak-xta1/v/t15.0-10/51474_985584658152870_370609621_n.jpg?oh=b69669e6cadb2df217c270f9e3edaaff&oe=564D9D29&__gda__=1444029337_7f19f3d483a32e724fa25d79eaf5f3f8"
    }, 
    {
      "code": "799775620136890", 
      "created_time": 1434252412.0, 
      "link": "https://www.facebook.com/409400835841039/posts/799775620136890", 
      "message": "ดูแล้วน้ำตาไหล และเชื่อว่าทั้งนี้คือเพื่อนมนุษย์ที่แท้จริง", 
      "picture": "https://fbexternal-a.akamaihd.net/safe_image.php?d=AQBNPlzbp5ILNseP&url=http%3A%2F%2F2.bp.blogspot.com%2F-nY0ryeMQHxA%2FVX09J9EPDEI%2FAAAAAAAASXw%2FdYe92BoZev0%2Fs640%2F1.jpg"
    }, 
    {
      "code": "800051773442608", 
      "created_time": 1434306006.0, 
      "link": "https://www.facebook.com/409400835841039/posts/800051773442608", 
      "message": "  กันยายน กับ เงื่อนไขสอบใบขับขี่ใหม่ ที่ทุกคนต้องรู้  ", 
      "picture": "https://fbexternal-a.akamaihd.net/safe_image.php?d=AQDbdztP14IIbDM8&url=http%3A%2F%2F4.bp.blogspot.com%2F-bkLv_dRX40Q%2FVXPdHglHT8I%2FAAAAAAAARH8%2FvB_KIrlevL0%2Fs640%2F1.JPEG"
    }, 
    {
      "code": "798229496958169", 
      "created_time": 1433964439.0, 
      "link": "https://www.facebook.com/409400835841039/posts/798229496958169", 
      "message": "อ่านเล่นๆดู", 
      "picture": "https://scontent.xx.fbcdn.net/hphotos-xta1/v/t1.0-9/s720x720/17706_987186717992664_6967900026794224765_n.jpg?oh=3f3e0ad3ac69571390fd50d4e914641a&oe=5658C912"
    }, 
    {
      "code": "797073493740436", 
      "created_time": 1433784504.0, 
      "link": "https://www.facebook.com/409400835841039/posts/797073493740436", 
      "message": "ลองแปลตามอีกสักอัน", 
      "picture": "https://scontent.xx.fbcdn.net/hphotos-xft1/v/t1.0-9/s720x720/11401016_985413548169981_3492307201296481884_n.jpg?oh=bcbe7156916939d66364b48ba069981c&oe=560E8BD6"
    }, 
    {
      "code": "793610170753435", 
      "created_time": 1433162951.0, 
      "link": "https://www.facebook.com/409400835841039/posts/793610170753435", 
      "message": "បុណ  คำว่าบุญ  จะมีอีกตัวข้างท้าย หาในแป้นแทบเลท ไม่เจอ"
    }, 
    {
      "code": "796747583773027", 
      "created_time": 1433744593.0, 
      "link": "https://www.facebook.com/409400835841039/posts/796747583773027", 
      "message": "จะหาว่าไม่เตือน   พ่อบ้านแม่บ้านดูไว้  10 ของต้องห้าม  ที่ไม่ควรนำไปแช่ตู้เย็น   ", 
      "picture": "https://fbexternal-a.akamaihd.net/safe_image.php?d=AQDUN5rfSZEkSnD1&url=http%3A%2F%2F1.bp.blogspot.com%2F-kk8La9MTC4I%2FVXTNQvzJIDI%2FAAAAAAAARLY%2FgwkCogfAeJs%2Fs640%2F1.JPEG"
    }, 
    {
      "code": "796148357166283", 
      "created_time": 1433645575.0, 
      "link": "https://www.facebook.com/409400835841039/posts/796148357166283", 
      "message": "เงื่อนไข การสอบใบขับขี่ใหม่ กันยายน 2558 นี้", 
      "picture": "https://fbexternal-a.akamaihd.net/safe_image.php?d=AQDbdztP14IIbDM8&url=http%3A%2F%2F4.bp.blogspot.com%2F-bkLv_dRX40Q%2FVXPdHglHT8I%2FAAAAAAAARH8%2FvB_KIrlevL0%2Fs640%2F1.JPEG"
    }
  ], 
  "page_id": "409400835841039"
}