{
  "content": [
    {
      "code": "542088512572270", 
      "created_time": 1394681124.0, 
      "link": "https://www.facebook.com/409400835841039/posts/542088512572270", 
      "message": "พะลือ สะแร    แปลว่า คันนา หรืออีกอย่างนึงว่า คันแทนา     😊"
    }, 
    {
      "code": "541698035944651", 
      "created_time": 1394609126.0, 
      "link": "https://www.facebook.com/409400835841039/posts/541698035944651", 
      "message": "  มะนึ  จะอือเจืตโปรดเตาชะงายๆจืง        คนหลายจัย   โปรดไปไกลๆตีน"
    }, 
    {
      "code": "542082365906218", 
      "created_time": 1394679396.0, 
      "link": "https://www.facebook.com/409400835841039/posts/542082365906218", 
      "message": "ลืกกาลเหยเตานาเจียไงเเนะ                เลิกงานเเล้วไปไหนดีล่ะวันนี้"
    }, 
    {
      "code": "541680549279733", 
      "created_time": 1394606277.0, 
      "link": "https://www.facebook.com/409400835841039/posts/541680549279733", 
      "message": "เทอโอยเนากะมอม     ทำไรยุ่ผุ้สาว"
    }, 
    {
      "code": "541682345946220", 
      "created_time": 1394606566.0, 
      "link": "https://www.facebook.com/409400835841039/posts/541682345946220", 
      "message": "ไม่เห็นโลงศพไม่หลั่งนำ้ตา       มันเคือนกันชุมันเซราะตึกพะเนก         "
    }, 
    {
      "code": "541228675991587", 
      "created_time": 1394521030.0, 
      "link": "https://www.facebook.com/409400835841039/posts/541228675991587", 
      "message": "โกน ตำรัย  แปลว่า   ลูกช้าง  "
    }, 
    {
      "code": "541206739327114", 
      "created_time": 1394517806.0, 
      "link": "https://www.facebook.com/409400835841039/posts/541206739327114", 
      "message": "สรา   เพิกโอยเงือบ  เงือบเตามันบาลเพิกเต    เหล้า  กินไห้ตาย  ตายไปไม่ได้กินเรอก"
    }, 
    {
      "code": "541206179327170", 
      "created_time": 1394517642.0, 
      "link": "https://www.facebook.com/409400835841039/posts/541206179327170", 
      "message": "โสดมัวยูลเหย     โสดนานเเล้วน่ะ"
    }, 
    {
      "code": "541200812661040", 
      "created_time": 1394516538.0, 
      "link": "https://www.facebook.com/409400835841039/posts/541200812661040", 
      "message": "กึดดอล  กะมอมเลียวนิน้อ   คิดถึงผุ้สาวลาวจังนอ"
    }, 
    {
      "code": "539433156171139", 
      "created_time": 1394227261.0, 
      "link": "https://www.facebook.com/409400835841039/posts/539433156171139", 
      "message": "ความรักกันตรักกันแตรง เดกเตริยแนงปะปังกัย     555"
    }, 
    {
      "code": "536881723092949", 
      "created_time": 1393821468.0, 
      "link": "https://www.facebook.com/409400835841039/posts/536881723092949", 
      "message": "รัป เหยเด้อบองปะโอน    รัป เเร้วน่ะพี่น้อง"
    }, 
    {
      "code": "537433306371124", 
      "created_time": 1393919708.0, 
      "link": "https://www.facebook.com/409400835841039/posts/537433306371124", 
      "message": "เดกเหยเด้อ  โซ      นอนเเล้วน่ะ   เหนื่อย      "
    }, 
    {
      "code": "534883636626091", 
      "created_time": 1393492346.0, 
      "link": "https://www.facebook.com/409400835841039/posts/534883636626091", 
      "message": "บองสลันเนียงอิง         ", 
      "picture": "https://fbcdn-sphotos-h-a.akamaihd.net/hphotos-ak-xpf1/v/t34.0-12/s720x720/1940115_1428006040775592_123825794_n.jpg?oh=b52e45ca04b1b61d53a2f1072c9f14f7&oe=55B25C77&__gda__=1437802440_24f3ac0f2ebef52cf1f1f788e2ddb067"
    }, 
    {
      "code": "521116628002792", 
      "created_time": 1391238260.0, 
      "link": "https://www.facebook.com/409400835841039/posts/521116628002792", 
      "message": "โมเด้อโฮบบายจุมคะเนีย แปลว่า มาเด้อทานข้าวด้วยกัน", 
      "picture": "https://fbcdn-sphotos-h-a.akamaihd.net/hphotos-ak-xpt1/v/t34.0-12/s720x720/1615095_279409388876539_147821641_n.jpg?oh=471aea358a4ed00de8f93f6e68c7df9a&oe=55B325DD&__gda__=1437809817_01fc71658a3e3b0065eff79f1e1a4e4c"
    }, 
    {
      "code": "517866808327774", 
      "created_time": 1390722197.0, 
      "link": "https://www.facebook.com/409400835841039/posts/517866808327774", 
      "message": "เดก มัน ลั๊วะ   นอน ไม่ ขาย"
    }, 
    {
      "code": "533909536723501", 
      "created_time": 1393317460.0, 
      "link": "https://www.facebook.com/409400835841039/posts/533909536723501", 
      "message": "กึดดอลจะนับเด้อ    คิดถึงมากนะ่"
    }, 
    {
      "code": "533877666726688", 
      "created_time": 1393313114.0, 
      "link": "https://www.facebook.com/409400835841039/posts/533877666726688", 
      "message": "บานเอยโฮบบาย         ด้ายอะไรกินข้าว"
    }, 
    {
      "code": "533797583401363", 
      "created_time": 1393298951.0, 
      "link": "https://www.facebook.com/409400835841039/posts/533797583401363", 
      "message": "มีงสวายแกลมเบียร์ฉะงันเมนเตนบองไท", 
      "picture": "https://fbcdn-sphotos-a-a.akamaihd.net/hphotos-ak-xat1/v/t1.0-9/q81/p180x540/1978609_217496948447837_1390913233_n.jpg?oh=7d8b35156587f3fefab43688a7adaba0&oe=565759E4&__gda__=1443973926_076b45ec6215e7ad18504f087e753307"
    }, 
    {
      "code": "532915106822944", 
      "created_time": 1393147515.0, 
      "link": "https://www.facebook.com/409400835841039/posts/532915106822944", 
      "message": "อันสลันหอง         กูรักมึง      "
    }, 
    {
      "code": "531752243605897", 
      "created_time": 1392956941.0, 
      "link": "https://www.facebook.com/409400835841039/posts/531752243605897", 
      "message": "ทะนำเเก้กรุน           ยาเเก้ไข้", 
      "picture": "https://fbcdn-sphotos-c-a.akamaihd.net/hphotos-ak-xpa1/v/t1.0-9/s720x720/1904004_207403646125032_343528416_n.jpg?oh=73429d5ed050044f0eeffaf0a83e65a8&oe=564738ED&__gda__=1444637295_eb90c35c39cfa2c8e4316de23e87694f"
    }, 
    {
      "code": "531818496932605", 
      "created_time": 1392967303.0, 
      "link": "https://www.facebook.com/409400835841039/posts/531818496932605", 
      "message": "ขอบคุณครับที่อนุญาติให้เข้าร่วมกลุ่มด้วย"
    }, 
    {
      "code": "531818360265952", 
      "created_time": 1392967275.0, 
      "link": "https://www.facebook.com/409400835841039/posts/531818360265952", 
      "message": "ดอลนาน่องเดกนิ      ตอนไหนจะนอนล่ะ"
    }, 
    {
      "code": "531345886979866", 
      "created_time": 1392879659.0, 
      "link": "https://www.facebook.com/409400835841039/posts/531345886979866", 
      "message": "ไงเเนะมันสรูน  เดกเหยเด้อ    วันนี้ไม่สบาย  นอนเเล้วน่ะ"
    }, 
    {
      "code": "531347033646418", 
      "created_time": 1392879783.0, 
      "link": "https://www.facebook.com/409400835841039/posts/531347033646418", 
      "message": "ขเเมสะเกดคัฟ           ", 
      "picture": "https://scontent.xx.fbcdn.net/hphotos-xpa1/v/t1.0-9/s720x720/1622775_207197266145670_541000784_n.jpg?oh=27dd6cc20a0489af0c7cdec266135ab6&oe=565CA2D9"
    }, 
    {
      "code": "526462520801536", 
      "created_time": 1392103906.0, 
      "link": "https://www.facebook.com/409400835841039/posts/526462520801536", 
      "message": "ปรบตุกเผือ  อะรามันเดง   บอกไว้เผื่อไครไม่รุ้", 
      "picture": "https://scontent.xx.fbcdn.net/hphotos-xtp1/v/t1.0-9/1891049_203860566479340_1007378152_n.jpg?oh=df6d4d419c1c7848728c27eb59cae470&oe=56591C0B"
    }
  ], 
  "page_id": "409400835841039"
}