{
  "content": [
    {
      "code": "708768532570933", 
      "created_time": 1420192187.0, 
      "link": "https://www.facebook.com/409400835841039/posts/708768532570933", 
      "message": "เด็กสุรินเลา", 
      "picture": "https://scontent.xx.fbcdn.net/hphotos-xtp1/v/t1.0-9/10425053_1520473848242446_4225873498431627089_n.jpg?oh=69b60aed52519c187bfcbf0630f07a79&oe=560FCFE0"
    }, 
    {
      "code": "702807183167068", 
      "created_time": 1419510865.0, 
      "link": "https://www.facebook.com/409400835841039/posts/702807183167068", 
      "message": "จริงหรือไม่จริง                คุณผู้หญิงทุกคนคัฟ            ", 
      "picture": "https://fbcdn-sphotos-h-a.akamaihd.net/hphotos-ak-xpa1/v/t34.0-12/10863758_1615312482024904_1736962361_n.jpg?oh=5cbab90b5251f3a38076c397de9c30ac&oe=55B33608&__gda__=1437816217_290ea262c4bbc1b2378a30036ab0d674"
    }, 
    {
      "code": "706079322839854", 
      "created_time": 1419911353.0, 
      "link": "https://www.facebook.com/409400835841039/posts/706079322839854", 
      "message": "นี่กลุ่มภาษาเขมรหรือกลุ่มขายสินค้ากันแน่ผมสับสน"
    }, 
    {
      "code": "703048579809595", 
      "created_time": 1419551577.0, 
      "link": "https://www.facebook.com/409400835841039/posts/703048579809595", 
      "message": "ก็จิงนะสำหรับคนบางคน", 
      "picture": "https://scontent.xx.fbcdn.net/hphotos-xap1/v/t1.0-9/s720x720/10888907_594599597308081_1020094337440280661_n.jpg?oh=67a8a03a9dc03dade2cfabb293b82469&oe=5647B911"
    }, 
    {
      "code": "707110506070069", 
      "created_time": 1420023498.0, 
      "link": "https://www.facebook.com/409400835841039/posts/707110506070069", 
      "message": "ดูดีได้เพราะน้ำหอม  ", 
      "picture": "https://fbexternal-a.akamaihd.net/safe_image.php?d=AQDts-5GuWvMoqLe&w=360&h=360&url=http%3A%2F%2Fi.ytimg.com%2Fvi%2FBby1YvGAZto%2Fhqdefault.jpg&cfs=1&sx=78&sy=0&sw=360&sh=360"
    }, 
    {
      "code": "702340379880415", 
      "created_time": 1419453280.0, 
      "link": "https://www.facebook.com/409400835841039/posts/702340379880415", 
      "message": "ขอบคุณครับ"
    }, 
    {
      "code": "702291779885275", 
      "created_time": 1419445727.0, 
      "link": "https://www.facebook.com/409400835841039/posts/702291779885275", 
      "message": "ขอบคุณค่ะ"
    }, 
    {
      "code": "702249693222817", 
      "created_time": 1419439255.0, 
      "link": "https://www.facebook.com/409400835841039/posts/702249693222817", 
      "message": "พี่ๆค่ะคำว่า  ซัพปุย หมายถึงอะไร ใครก้ได้บอกอ้อยที "
    }, 
    {
      "code": "702247203223066", 
      "created_time": 1419438828.0, 
      "link": "https://www.facebook.com/409400835841039/posts/702247203223066", 
      "message": "ซาวัสดีตอนช้าวช้าวจ้าพ่อแม่พี่น้อง"
    }, 
    {
      "code": "702044153243371", 
      "created_time": 1419409031.0, 
      "link": "https://www.facebook.com/409400835841039/posts/702044153243371", 
      "message": "ขอบคุณค่ะที่รับเข้ากลุ่ม"
    }, 
    {
      "code": "701240519990401", 
      "created_time": 1419285334.0, 
      "link": "https://www.facebook.com/409400835841039/posts/701240519990401", 
      "message": "ภาษาเขมร    สวัดดีปีไหม่ขอไห้มีความสุขมากๆๆนะคับ พูดยังไงคับ"
    }, 
    {
      "code": "701387016642418", 
      "created_time": 1419313812.0, 
      "link": "https://www.facebook.com/409400835841039/posts/701387016642418", 
      "message": "ขอบคุณมากครับ"
    }, 
    {
      "code": "699190503528736", 
      "created_time": 1419022941.0, 
      "link": "https://www.facebook.com/409400835841039/posts/699190503528736", 
      "message": "ซัวสะเดย ซะนำทะไม"
    }
  ], 
  "page_id": "409400835841039"
}