{
  "content": [
    {
      "code": "518305774950544", 
      "created_time": 1390775031.0, 
      "link": "https://www.facebook.com/409400835841039/posts/518305774950544", 
      "message": "มัวเด้อสีบายทะไง          มาเด้อกินข้าวเที่ยง"
    }, 
    {
      "code": "517842894996832", 
      "created_time": 1390718639.0, 
      "link": "https://www.facebook.com/409400835841039/posts/517842894996832", 
      "message": "เพื่อนๆครับ   ช่วยเขียนภาษาเขมรในประโยคต่อไปนี้ให้หน่อยครับ จะเอาไปให้คนงานอ่านครับ   กฎระเบียบ 3 ข้อ 1 ห้ามเป็นคนขี้ขโมย 2 ห้ามเล่นการพนัน 3 ห้ามด่าและทะเลาะกัน  ข้อปฎิบัติหากต้องการทำงานกับสวนแห่งนี้ 1 รับผิดชอบงานที่ทำ คือ ทำให้เสร็จเรียบร้อยและตรงต่อเวลาที่ต้องการให้เสร็จ  2 ไม่เกี่ยงงาน คือ งานหนัก งานเบา นายจ้างให้ทำอะไรทำได้หมด 3  เวลางานพูดให้น้อยลง ทำงานให้เยอะขึ้น    ขอบคุณล่วงหน้าครับ  "
    }, 
    {
      "code": "517868664994255", 
      "created_time": 1390722506.0, 
      "link": "https://www.facebook.com/409400835841039/posts/517868664994255", 
      "message": "เดกบานเหยเนียง       นอนได้เเร้วหนู"
    }, 
    {
      "code": "517813518333103", 
      "created_time": 1390713862.0, 
      "link": "https://www.facebook.com/409400835841039/posts/517813518333103", 
      "message": "วันนี้เสนอคำว่า  บายชา  แปลว่าข้าวผัด"
    }, 
    {
      "code": "517814614999660", 
      "created_time": 1390714140.0, 
      "link": "https://www.facebook.com/409400835841039/posts/517814614999660", 
      "message": "สงโค้กไห้สาวเขมร", 
      "picture": "https://fbcdn-sphotos-h-a.akamaihd.net/hphotos-ak-xtp1/v/t1.0-9/1609840_197606290438101_1008150725_n.jpg?oh=33be1965d89c43ff751e4678aa46ae00&oe=564F6C5A&__gda__=1448577635_de96d053f945481be9b360e80dc4f821"
    }, 
    {
      "code": "517792451668543", 
      "created_time": 1390710330.0, 
      "link": "https://www.facebook.com/409400835841039/posts/517792451668543", 
      "message": "ขอโพสคำว่า   รวน กะดาม   แปลว่า รูปู"
    }, 
    {
      "code": "517783238336131", 
      "created_time": 1390708738.0, 
      "link": "https://www.facebook.com/409400835841039/posts/517783238336131", 
      "message": "วันนี้เสนอคำว่า    เฌอปรวง   ไม้รู       "
    }, 
    {
      "code": "517605265020595", 
      "created_time": 1390673556.0, 
      "link": "https://www.facebook.com/409400835841039/posts/517605265020595", 
      "message": "กรอกๆๆๆ ปรึ เฮย จ้า     a      ตื่นๆๆๆเช้าแล้วจ้า   "
    }, 
    {
      "code": "517633421684446", 
      "created_time": 1390678910.0, 
      "link": "https://www.facebook.com/409400835841039/posts/517633421684446", 
      "message": "โกน ปะซา       ลูกแสบ   555"
    }, 
    {
      "code": "517179881729800", 
      "created_time": 1390609578.0, 
      "link": "https://www.facebook.com/409400835841039/posts/517179881729800", 
      "message": "โม เด้อ โฮบ สแนก สงอ         มาเด้อจ้าทานถั่วต้วมกัน  อิ  อิ", 
      "picture": "https://scontent.xx.fbcdn.net/hphotos-xat1/v/t1.0-9/s720x720/1551609_1449431295285312_191007643_n.jpg?oh=4bd32df4fabe753346fb2d7c78690433&oe=56184DA2"
    }, 
    {
      "code": "516777525103369", 
      "created_time": 1390546256.0, 
      "link": "https://www.facebook.com/409400835841039/posts/516777525103369", 
      "message": "สงัด จรีบ เลย น้อ โตว นา มอด เซราะ แทว ตแระ    "
    }, 
    {
      "code": "516715765109545", 
      "created_time": 1390533649.0, 
      "link": "https://www.facebook.com/409400835841039/posts/516715765109545", 
      "message": "ขอบคุณที่รับเข้ากลุ่มค่ะ อยากเรียนภาษาเขมรค่ะ"
    }, 
    {
      "code": "516687591779029", 
      "created_time": 1390527053.0, 
      "link": "https://www.facebook.com/409400835841039/posts/516687591779029", 
      "message": "ชือ ปั๊วะ           เจ็บ งู   "
    }, 
    {
      "code": "516640025117119", 
      "created_time": 1390513318.0, 
      "link": "https://www.facebook.com/409400835841039/posts/516640025117119", 
      "message": "    ไง แน๊ะ เมียน ความ เซาะ จนับ   วันนี้มีความสุขมาก    "
    }, 
    {
      "code": "516629081784880", 
      "created_time": 1390510640.0, 
      "link": "https://www.facebook.com/409400835841039/posts/516629081784880", 
      "message": "จูง กะ กรุบ คเนีย ไง แน๊ะ ไง เจีย วเลีย ลออ โม เด้อ เพอะ จุม คเนีย  555สน็อม นะ มือ กี เนียะ เพอะ ทม       "
    }, 
    {
      "code": "499988886782233", 
      "created_time": 1387830131.0, 
      "link": "https://www.facebook.com/409400835841039/posts/499988886782233", 
      "message": "วันนี้นำเสนอคำว่า   เตริยกันเจ๊าะ    ปลาถือลง   555"
    }, 
    {
      "code": "516204881827300", 
      "created_time": 1390433510.0, 
      "link": "https://www.facebook.com/409400835841039/posts/516204881827300", 
      "message": "โม เด้อ บ็อง ปะโอน กรุบๆคะเนีย โฮบ ปูด อัง  ", 
      "picture": "https://scontent.xx.fbcdn.net/hphotos-xta1/v/t1.0-9/q81/s720x720/1551550_1448786672016441_1886213208_n.jpg?oh=18129a73e61dc82021d7cb265d0e9b2d&oe=56565624"
    }, 
    {
      "code": "516189391828849", 
      "created_time": 1390428927.0, 
      "link": "https://www.facebook.com/409400835841039/posts/516189391828849", 
      "message": "เที่ยงนี้ให้ 1 คำ คำนี้ ปรับบานตีย บานเอยโหบบาน     บอกหน่อยได้ไหม ได้อะไรทานข้าว"
    }, 
    {
      "code": "516175481830240", 
      "created_time": 1390427253.0, 
      "link": "https://www.facebook.com/409400835841039/posts/516175481830240", 
      "message": "ซม ออร กุน จนับ แดล บาน รับ โจล กลุม พอง   555  สน็อม เตอ แอ็ง  เอิ๊กกกก"
    }, 
    {
      "code": "515278951919893", 
      "created_time": 1390286110.0, 
      "link": "https://www.facebook.com/409400835841039/posts/515278951919893", 
      "message": "เนียงสลันบองอิง        น้องรักพี่ไหม"
    }, 
    {
      "code": "515279191919869", 
      "created_time": 1390286155.0, 
      "link": "https://www.facebook.com/409400835841039/posts/515279191919869", 
      "message": "วันนี้เสนอคำว่า    ฉะ งัน  แมน  แตน       อร่อยจริงๆ   "
    }, 
    {
      "code": "512113598903095", 
      "created_time": 1389767446.0, 
      "link": "https://www.facebook.com/409400835841039/posts/512113598903095", 
      "message": "บกจนับดุ แปลว่า ตำบ่อยมาก", 
      "picture": "https://scontent.xx.fbcdn.net/hphotos-xpa1/v/t1.0-9/p180x540/1604456_199956823535183_1705431594_n.jpg?oh=a0139ca96f6f1ba1487460fb3eb5953b&oe=564B5304"
    }, 
    {
      "code": "511641738950281", 
      "created_time": 1389688546.0, 
      "link": "https://www.facebook.com/409400835841039/posts/511641738950281", 
      "message": "สูมโอยกุรเจรินโดยสัจกดัยรีกราย  เดลบานโยวขยุมโจลกนุงกรุบนิ ขยุุมเชมาะ ขลาบาท โมวนิเยียยเลงเจียมุลคเนียบานบาท"
    }, 
    {
      "code": "511521138962341", 
      "created_time": 1389668581.0, 
      "link": "https://www.facebook.com/409400835841039/posts/511521138962341", 
      "message": "ลืกกาลเหยเด้อ        เลิกงานเเล้วน่ะ"
    }, 
    {
      "code": "511540645627057", 
      "created_time": 1389672838.0, 
      "link": "https://www.facebook.com/409400835841039/posts/511540645627057", 
      "message": "เนิกแปลว่าเต่า"
    }
  ], 
  "page_id": "409400835841039"
}