{
  "content": [
    {
      "code": "654052468042540", 
      "created_time": 1412047557.0, 
      "link": "https://www.facebook.com/409400835841039/posts/654052468042540", 
      "message": "สวัดดีตอนเย็นๆจ้า"
    }, 
    {
      "code": "653963848051402", 
      "created_time": 1412028481.0, 
      "link": "https://www.facebook.com/409400835841039/posts/653963848051402", 
      "message": "ขออนุญาต แอดมินคะ พอดีตอนนี้ตุล รับคน ช่วยคอนเฟริมออเดอ์และดูแลลูกค้าคะ ตอนนี้ลูกค้าเยอะมาก ดูแลไม่ทัน จ่ายรายได้เป็นรายสัปดาห์ เริ่มต้นที่ 1500 5000 ต่อสัปดาห์  ทำเวลาไหนก็ได้  รับอายุ 18 ขึ้นไป รับ 10 คนเท่านั้นนะ สนใจอยากทราบรายละเอียด ฝาก ชื่อ เบอร์ อายุและจังหวัด ไว้นะคะ   กทม และปริมณฑล ร้อยเอ็ด นครพนม รับเป็นพิเศษ     Tel   098 262 0951 ติดต่อตุลนะคะLine   tulbhip"
    }, 
    {
      "code": "653640181417102", 
      "created_time": 1411968207.0, 
      "link": "https://www.facebook.com/409400835841039/posts/653640181417102", 
      "message": "ขอบคุณที่รับแอด   ขอมาศึกษานะครับ"
    }, 
    {
      "code": "652970494817404", 
      "created_time": 1411871018.0, 
      "link": "https://www.facebook.com/409400835841039/posts/652970494817404", 
      "message": "เอาบ่ข้าวโพดสระบุรี", 
      "picture": "https://fbcdn-sphotos-d-a.akamaihd.net/hphotos-ak-xfp1/v/t1.0-9/s720x720/10383663_282734011936397_3612177064862088894_n.jpg?oh=803985bd838cd28b9e2519e2cd8e2c9a&oe=5659CCAF&__gda__=1447709343_b71a912aeaa72da0ab5d1a158d14f68b"
    }, 
    {
      "code": "653593581421762", 
      "created_time": 1411958978.0, 
      "link": "https://www.facebook.com/409400835841039/posts/653593581421762", 
      "message": "รบกวนหน่อยนะคะ ว่าเรื่องราวเกี่ยวกับอะไร  ", 
      "picture": "https://scontent.xx.fbcdn.net/hphotos-xtp1/v/t1.0-9/s720x720/1972300_989560821069435_2519488709353477244_n.jpg?oh=ac65d64d38fbaa0379aa1005ec06f25c&oe=560ED631"
    }, 
    {
      "code": "653506508097136", 
      "created_time": 1411937773.0, 
      "link": "https://www.facebook.com/409400835841039/posts/653506508097136", 
      "message": "ดีจ้าตอนสายๆ"
    }, 
    {
      "code": "653188104795643", 
      "created_time": 1411896635.0, 
      "link": "https://www.facebook.com/409400835841039/posts/653188104795643", 
      "message": "โอนเจียประปร้วนเนียงเจียซ็องซา แต่เนี๊ยะนาสำคัญเจียง       ไม่ได้ดราม่านะเอามาจากเพลง สุขปิสัย"
    }, 
    {
      "code": "644991335615320", 
      "created_time": 1410428205.0, 
      "link": "https://www.facebook.com/409400835841039/posts/644991335615320", 
      "message": "เกเมินเดิงทาขยมสลันเกปนนา  เกเมินเดิงเบ้ะโดงขยมจ็องเมียนแต่เก  เกเทวอออยขยมยุมระโห้ด เวเลียนี้โอนชือเจ็ตคลังนั้ง"
    }, 
    {
      "code": "653013881479732", 
      "created_time": 1411879162.0, 
      "link": "https://www.facebook.com/409400835841039/posts/653013881479732", 
      "message": "มาแล้วเดอ มาโกนโอ๊ะ ", 
      "picture": "https://fbcdn-vthumb-a.akamaihd.net/hvthumb-ak-xft1/v/t15.0-10/10677973_522445507899331_522377261239489_64644_2635_b.jpg?oh=9f922980fb58952fbe647b7bfa1b6ea2&oe=564A2B4E&__gda__=1448165291_523820003d1ab428d88027fef95381e2"
    }, 
    {
      "code": "652775458170241", 
      "created_time": 1411838309.0, 
      "link": "https://www.facebook.com/409400835841039/posts/652775458170241", 
      "message": "ตื่นได้แล้วค่ะ", 
      "picture": "https://scontent.xx.fbcdn.net/hphotos-xta1/v/t1.0-9/10649830_282551395287992_3462729576378270898_n.jpg?oh=7a1c46115cf35d784d17a5cc32f25caf&oe=56515183"
    }, 
    {
      "code": "652591581521962", 
      "created_time": 1411803782.0, 
      "link": "https://www.facebook.com/409400835841039/posts/652591581521962", 
      "message": "กราบพระ ภ เขมร พูดว่าอย่างไรคะ", 
      "picture": "https://fbcdn-sphotos-c-a.akamaihd.net/hphotos-ak-xaf1/v/t1.0-9/10610907_703873663038964_2446143033774344001_n.jpg?oh=6e6c2220afcdbbe2d3cbebf7c3fae79a&oe=561A0260&__gda__=1447959505_f43ff3f9659d9c97e4f9ee3d697d3fd3"
    }, 
    {
      "code": "652589754855478", 
      "created_time": 1411803473.0, 
      "link": "https://www.facebook.com/409400835841039/posts/652589754855478", 
      "message": "HYLI นี่ไม่เจ๋งจริง ไม่กล้าแนะนำนะคร่ะ 18สัญญาณที่ผู้หญิงต้องรีบแก้  👰หน้าท้องกลมคล้ายคนตั้งท้อง 🚫ปวดประจำเดือน 🚷ประจำเดือนไม่ปกติ 🆘มีระดูขาวมากผิดปกติเกิน มีกลิ่นภายใน คันช่องคลอด 🙆กล้ามเนื้อแก้ม หน้าอกหย่อนก่อนวัย ช่องคลอดหลวม ไม่ฟิต มีลมเข้า ออกช่องคลอด ผายลมผิดที่ หูรูดหย่อน อั้นปัสสาวะไม่อยู่ ติดลูกยาก แท้งลูกง่าย ผิวคล้ำเสียหยาบกร้าน ไม่เนียนนุ่ม ลื่น วัยทอง อารมณ์แปรปรวน ผู้หญิงที่ตัดมดลูกทิ้ง ผิวเหี่ยวย่นไม่เปล่งปลั่ง ผิวอักเสบเรื้อรัง ฝ้า กระ มดลูกต่ำ มีเพศสัมพันธุ์แล้วเจ็บ HYLI เถอะคร่ะ Free EMS ✅ ของแท้ 💯  สั่งซื้อพร้อมรับโปรโมชั่นพิเศษสุดๆ   ทักมานะค่ะ Line 🆔   aeaw222 Tel   089 0466906 K แอ๊ว รับตัวแทนจำหน่าย รายได้ดี   สั่งซื้อพร้อมโปรโมชั่นพิเศษด่วนนะคร่ะ", 
      "picture": "https://scontent.xx.fbcdn.net/hphotos-xpf1/v/t1.0-9/10407490_381011482054223_4483922731088140405_n.jpg?oh=b854558446545436e5b3f22f392b570c&oe=565ACC46"
    }, 
    {
      "code": "652080568239730", 
      "created_time": 1411705924.0, 
      "link": "https://www.facebook.com/409400835841039/posts/652080568239730", 
      "message": "สวัดดีตอนละเงียกกรุบเคลียเนอ สวัดดีตอนเย็นคร้าทุกคน"
    }, 
    {
      "code": "652525548195232", 
      "created_time": 1411793584.0, 
      "link": "https://www.facebook.com/409400835841039/posts/652525548195232", 
      "message": "คิดถึงกันแน่บ่คร้า", 
      "picture": "https://scontent.xx.fbcdn.net/hphotos-xtf1/v/t1.0-9/10360558_282389405304191_2758161880096039856_n.jpg?oh=96af3905dfc9ede1b06c2fcc715de754&oe=565240ED"
    }, 
    {
      "code": "652148868232900", 
      "created_time": 1411715766.0, 
      "link": "https://www.facebook.com/409400835841039/posts/652148868232900", 
      "message": "คนเซราะกราว"
    }, 
    {
      "code": "652148374899616", 
      "created_time": 1411715695.0, 
      "link": "https://www.facebook.com/409400835841039/posts/652148374899616", 
      "message": "นานแล้วทีเราได้คุยกัน"
    }, 
    {
      "code": "651582924956161", 
      "created_time": 1411620255.0, 
      "link": "https://www.facebook.com/409400835841039/posts/651582924956161", 
      "message": "กินข่าวแลงแล้ว ตบท้ายด้วยบักแตงโมเด้อค่ะ", 
      "picture": "https://scontent.xx.fbcdn.net/hphotos-xpt1/v/t1.0-9/10710637_281749942034804_3194688954111878457_n.jpg?oh=a2ed4d82ae2a66477b5fa40a68d744a8&oe=564F6538"
    }, 
    {
      "code": "651097068338080", 
      "created_time": 1411540813.0, 
      "link": "https://www.facebook.com/409400835841039/posts/651097068338080", 
      "message": " มาๆใครอยากพูดเขมรเป็นเดวผมสอนให้"
    }, 
    {
      "code": "651673358280451", 
      "created_time": 1411630455.0, 
      "link": "https://www.facebook.com/409400835841039/posts/651673358280451", 
      "message": "ไม่หล่อไม่รวยแล้วยังโสดยู่", 
      "picture": "https://fbcdn-sphotos-f-a.akamaihd.net/hphotos-ak-xfp1/v/t1.0-9/10394552_1716017268624441_8270322487045501991_n.jpg?oh=2d55672745e75b09a2d0717ff79ab3d9&oe=56553C24&__gda__=1448094324_3d0d7a1c446c405437b95e802913ffae"
    }, 
    {
      "code": "651675124946941", 
      "created_time": 1411630716.0, 
      "link": "https://www.facebook.com/409400835841039/posts/651675124946941", 
      "message": "ผมโฟสแล้ว  แล้วพกคุณล่ะกล้าโฟสไม"
    }
  ], 
  "page_id": "409400835841039"
}