{
  "content": [
    {
      "code": "956723024380055", 
      "created_time": 1432571480, 
      "link": "https://www.facebook.com/189818801070485/posts/956723024380055", 
      "message": "ฝันดีเด้อจ้าสะบายดี", 
      "picture": "https://scontent.xx.fbcdn.net/hphotos-xfp1/v/t1.0-9/p480x480/11159995_486425964866750_2442966191633796933_n.jpg?oh=008ea48c4e9f7230d91b6e98b383e171&oe=563EB9BA"
    }, 
    {
      "code": "959090457476645", 
      "created_time": 1432959004, 
      "link": "https://www.facebook.com/189818801070485/posts/959090457476645", 
      "message": "จริงจร้า", 
      "picture": "https://fbcdn-sphotos-g-a.akamaihd.net/hphotos-ak-xta1/v/t1.0-9/553332_1441022799549415_4916132067787691523_n.jpg?oh=4f135768f41ef5e41cfb3b1eaa0f4b87&oe=563F14E1&__gda__=1448790751_d5b009336cea6aaedd2d26cf583a9c0e"
    }, 
    {
      "code": "958657370853287", 
      "created_time": 1432892360, 
      "link": "https://www.facebook.com/189818801070485/posts/958657370853287", 
      "message": "ສະບາຍດີຍາມແລງຄ່ະທຸກທ່ານ"
    }, 
    {
      "code": "958518204200537", 
      "created_time": 1432870098, 
      "link": "https://www.facebook.com/189818801070485/posts/958518204200537", 
      "message": "สะบายดี", 
      "picture": "https://fbcdn-sphotos-h-a.akamaihd.net/hphotos-ak-xaf1/v/t1.0-9/p180x540/11392888_1663491693873774_8200623159579722144_n.jpg?oh=3f72df011e744199a7b8ab9fa7bbca8f&oe=56552B11&__gda__=1447300381_7c87ca9717479baad2f705bf49fdb268"
    }, 
    {
      "code": "958609947524696", 
      "created_time": 1432881787, 
      "link": "https://www.facebook.com/189818801070485/posts/958609947524696", 
      "message": "คนลาวคับ  เฟชมาได้นะคับ", 
      "picture": "https://scontent.xx.fbcdn.net/hphotos-xpa1/v/t1.0-9/s720x720/11218999_1415799145410995_3048894228087351028_n.jpg?oh=24d41f1db4b12dba2cc081505b0ae93d&oe=56533E99"
    }, 
    {
      "code": "958712294181128", 
      "created_time": 1432904654, 
      "link": "https://www.facebook.com/189818801070485/posts/958712294181128", 
      "message": "อยากไปเท่ว์ลาวจัง"
    }, 
    {
      "code": "958711370847887", 
      "created_time": 1432904491, 
      "link": "https://www.facebook.com/189818801070485/posts/958711370847887", 
      "message": "มาดูบอล  ไทยกับลาว  คับ", 
      "picture": "https://fbcdn-sphotos-b-a.akamaihd.net/hphotos-ak-xaf1/v/t1.0-9/q85/p720x720/11393253_459733010849696_3658256751151275403_n.jpg?oh=2d86587a1a19b809079c6778e8718f25&oe=560EFFE1&__gda__=1448838500_ded938976f807deaac8ec5fbf834b278"
    }, 
    {
      "code": "955438257841865", 
      "created_time": 1432395043, 
      "link": "https://www.facebook.com/189818801070485/posts/955438257841865", 
      "message": "ใครก็ได้ช่วยบอกทีค่ะโทรไปลาวเบอร๋มือถือโทรยังงัยคะ"
    }, 
    {
      "code": "957403847645306", 
      "created_time": 1432715246, 
      "link": "https://www.facebook.com/189818801070485/posts/957403847645306", 
      "message": "ขอบคุณครับที่รับเข้ากลุ่ม"
    }, 
    {
      "code": "957055164346841", 
      "created_time": 1432642648, 
      "link": "https://www.facebook.com/189818801070485/posts/957055164346841", 
      "message": "Cute Duck Family"
    }, 
    {
      "code": "956656351053389", 
      "created_time": 1432557399, 
      "link": "https://www.facebook.com/189818801070485/posts/956656351053389", 
      "message": "ขอบคุณครับ"
    }, 
    {
      "code": "956317487753942", 
      "created_time": 1432526599, 
      "link": "https://www.facebook.com/189818801070485/posts/956317487753942", 
      "message": "ช่วยแปลหน่อยครับ", 
      "picture": "https://fbcdn-sphotos-e-a.akamaihd.net/hphotos-ak-xaf1/v/t1.0-9/p180x540/11083856_917373668313366_5869368143462537990_n.jpg?oh=0421b3b0d123da2415b5e3890e72b6a0&oe=5644429E&__gda__=1448066681_779c54bb22b5ef1a48b24401bae2b2a9"
    }, 
    {
      "code": "955183861200638", 
      "created_time": 1432344083, 
      "link": "https://www.facebook.com/189818801070485/posts/955183861200638", 
      "message": "เวียงจันอิกแล้วมื้อวาน", 
      "picture": "https://scontent.xx.fbcdn.net/hphotos-xpt1/v/t1.0-9/s720x720/11109499_1397302897264788_1583806954595272145_n.jpg?oh=83b5fbbacdef238c110f00ec0d7af664&oe=564188B0"
    }, 
    {
      "code": "955354444516913", 
      "created_time": 1432377711, 
      "link": "https://www.facebook.com/189818801070485/posts/955354444516913", 
      "message": "วังเวียงอิกละเด้อมื้อนิ", 
      "picture": "https://scontent.xx.fbcdn.net/hphotos-xpf1/v/t1.0-9/p180x540/1507935_1397549703906774_8057316352011006548_n.jpg?oh=6fe638282fa6225cf91f77bc307c21c8&oe=564B1C84"
    }, 
    {
      "code": "953324218053269", 
      "created_time": 1431954529, 
      "link": "https://www.facebook.com/189818801070485/posts/953324218053269", 
      "message": "ສະບາຍດີທຸກທ່ານ"
    }, 
    {
      "code": "947813758604315", 
      "created_time": 1430796243, 
      "link": "https://www.facebook.com/189818801070485/posts/947813758604315", 
      "message": "ສະບາຍດີ  ບໍ່ມີຫຍັງຫຼາຍ ຢາກບອກ ໃນມື້ນີ້ມັນຮ້ອນຫຼາຍ"
    }, 
    {
      "code": "951429678242723", 
      "created_time": 1431572721, 
      "link": "https://www.facebook.com/189818801070485/posts/951429678242723", 
      "message": "ສະບາຍດີຍາມສາຍໆຈ້າທຸກຄົມ ຂອບໃຈເດີທີ່ອັບເຂ້າກຸ່ມ", 
      "picture": "https://fbcdn-sphotos-a-a.akamaihd.net/hphotos-ak-xta1/v/t34.0-12/s720x720/11267623_1429675227350839_931562243_n.jpg?oh=bedd7514c5ea732c90a3f606a62fce59&oe=55BB518F&__gda__=1438263874_1a6e3526120be67dc122fa951019c16b"
    }, 
    {
      "code": "951868074865550", 
      "created_time": 1431655352, 
      "link": "https://www.facebook.com/189818801070485/posts/951868074865550", 
      "message": "ສະບາຍດີຍາມເຊັ້າຈ້າທຸກຄົມ"
    }, 
    {
      "code": "951486071570417", 
      "created_time": 1431585162, 
      "link": "https://www.facebook.com/189818801070485/posts/951486071570417", 
      "message": "ສະບາຍດີຈ້າ", 
      "picture": "https://scontent.xx.fbcdn.net/hphotos-xfa1/v/t34.0-12/11216437_1429675047350857_863875068_n.jpg?oh=64c0ccc51a8876f81d50e8f698153602&oe=55BA4B1D"
    }, 
    {
      "code": "951473558238335", 
      "created_time": 1431583562, 
      "link": "https://www.facebook.com/189818801070485/posts/951473558238335", 
      "message": "ขอบใจหลายเดอคัฟ   "
    }, 
    {
      "code": "951428908242800", 
      "created_time": 1431572488, 
      "link": "https://www.facebook.com/189818801070485/posts/951428908242800", 
      "message": "ຂອບໃຈຫຼາຍຈ້າທີ່ຮັບເຂ້າກຸ່ມ"
    }
  ], 
  "page_id": "189818801070485"
}