{
  "content": [
    {
      "code": "691959094281265", 
      "created_time": 1437347357.0, 
      "link": "https://www.facebook.com/579520812191761/posts/691959094281265", 
      "message": "ใครแชร์ ขอให้ เมียนสตางค์ เจริญๆ", 
      "picture": "https://scontent.xx.fbcdn.net/hphotos-xfp1/v/t1.0-9/s720x720/11738075_691959094281265_1724035872017555050_n.jpg?oh=9f9210eebd36d6a6025c850a6d302be0&oe=5619006D"
    }, 
    {
      "code": "690660191077822", 
      "created_time": 1437177436.0, 
      "link": "https://www.facebook.com/579520812191761/posts/690660191077822", 
      "message": "สะเดย ละวีง คละ", 
      "picture": "https://scontent.xx.fbcdn.net/hphotos-xpt1/v/t1.0-9/s720x720/11751457_690660191077822_1777714214557811099_n.jpg?oh=a16a3dcbe7f4a307508563245fafe4c4&oe=56137475"
    }, 
    {
      "code": "690627677747740", 
      "created_time": 1437170687.0, 
      "link": "https://www.facebook.com/579520812191761/posts/690627677747740", 
      "message": "สะรอว์ ละออ", 
      "picture": "https://scontent.xx.fbcdn.net/hphotos-xft1/v/t1.0-9/s720x720/11755803_690627677747740_19493191976113955_n.jpg?oh=cbf7dd10396120f9a92903e376ebaa25&oe=561BB457"
    }, 
    {
      "code": "690588284418346", 
      "created_time": 1437163467.0, 
      "link": "https://www.facebook.com/579520812191761/posts/690588284418346", 
      "message": "เมียน ตะแร๊ย สะเดย คละ", 
      "picture": "https://scontent.xx.fbcdn.net/hphotos-xpf1/v/t1.0-9/s720x720/11057527_690588284418346_6108684960924755457_n.jpg?oh=ff2ce2c6facab9f528abf4d8bdd2f751&oe=564D515C"
    }, 
    {
      "code": "688090508001457", 
      "created_time": 1436647972.0, 
      "link": "https://www.facebook.com/579520812191761/posts/688090508001457", 
      "message": "แอดมิน แขมร บุรีรัมย์ บาด   รายงานตัวกันหน่อยครับ", 
      "picture": "https://scontent.xx.fbcdn.net/hphotos-xap1/v/t1.0-9/s720x720/11049584_688090508001457_6321958045098461526_n.jpg?oh=d81a3a9794581a468f13014d615ac583&oe=5653376A"
    }, 
    {
      "code": "688088304668344", 
      "created_time": 1436647270.0, 
      "link": "https://www.facebook.com/579520812191761/posts/688088304668344", 
      "message": "ไปไหนมาจ๊ะ   น้องจ๋า โตว นา โม", 
      "picture": "https://scontent.xx.fbcdn.net/hphotos-xtp1/v/t1.0-9/s720x720/11745702_688088304668344_8226588987709445555_n.jpg?oh=b486a90f7059af0745c89f18c35741ee&oe=5612EB77"
    }, 
    {
      "code": "687554871388354", 
      "created_time": 1436554104.0, 
      "link": "https://www.facebook.com/579520812191761/posts/687554871388354", 
      "message": "อำปึล จู   มะขามเปรี้ยว", 
      "picture": "https://scontent.xx.fbcdn.net/hphotos-xap1/v/t1.0-9/s720x720/11667369_687554871388354_3062158363715306386_n.jpg?oh=6d676f884212306048c0a3e29d820555&oe=56189752"
    }, 
    {
      "code": "686958784781296", 
      "created_time": 1436468850.0, 
      "link": "https://www.facebook.com/579520812191761/posts/686958784781296", 
      "message": "โม โฮบ บาย", 
      "picture": "https://fbcdn-sphotos-e-a.akamaihd.net/hphotos-ak-xft1/v/t1.0-9/s720x720/11261914_686958784781296_8823390611568047018_n.jpg?oh=8d9653739e515d2fdba9c184f642f443&oe=56139137&__gda__=1444464677_c8e258af4ced1cdd9c17e358f2af4434"
    }, 
    {
      "code": "686621878148320", 
      "created_time": 1436397256.0, 
      "link": "https://www.facebook.com/579520812191761/posts/686621878148320", 
      "message": "ฝากแชร์ ด้วยน่ะครับ อิอิ", 
      "picture": "https://fbcdn-sphotos-c-a.akamaihd.net/hphotos-ak-xtp1/v/t1.0-9/s720x720/11705138_686621878148320_2564037332666177468_n.jpg?oh=535f0ce901cc4c63378bfe0bf6e5fa76&oe=56476785&__gda__=1444189202_5b8f96670bd22bd1aaa72accbb2f6fbc"
    }, 
    {
      "code": "686079231535918", 
      "created_time": 1436304391.0, 
      "link": "https://www.facebook.com/579520812191761/posts/686079231535918", 
      "message": "ช่วยคิดหน่อย    ช่วงนี้ แอดมินคิดคำที่จะสอนไม่ออกเลย มีเกมส์มาให้เล่น ใครอยากรู้คำไหน หรืออยากสอนคำไหน  ส่งมาถามได้เลยจ้า คอมเมนต์ไว้ใต้ รูปนี้น่ะครับ", 
      "picture": "https://fbcdn-sphotos-g-a.akamaihd.net/hphotos-ak-xtp1/v/t1.0-9/s720x720/11701210_686079231535918_722659239028089845_n.jpg?oh=425b27fffe5d6bcb5db6bb248276a0f4&oe=56127332&__gda__=1448657115_3d3fb390688108d8a63c8afe53effca6"
    }, 
    {
      "code": "686043144872860", 
      "created_time": 1436297007.0, 
      "link": "https://www.facebook.com/579520812191761/posts/686043144872860", 
      "message": "ช่วยกันอนุรักษ์ภาษาถิ่นเราไว้ครับ", 
      "picture": "https://scontent.xx.fbcdn.net/hphotos-xtp1/v/t1.0-9/s720x720/11701186_686043144872860_7173146984793930611_n.jpg?oh=d9043e14b5ff688cead4197929016b20&oe=5656C1A0"
    }
  ], 
  "page_id": "579520812191761"
}