{
  "content": [
    {
      "code": "585534511590391", 
      "created_time": 1419880860.0, 
      "link": "https://www.facebook.com/579520812191761/posts/585534511590391", 
      "message": "เมือน กุ๊กๆ   ไก่ กุ๊กๆ", 
      "picture": "https://scontent.xx.fbcdn.net/hphotos-xpa1/v/t1.0-9/s720x720/10897746_585483241595518_7642460620203749838_n.jpg?oh=d93ffabb4909d09dcc4d05cd0db633e8&oe=564837CE"
    }, 
    {
      "code": "585481794928996", 
      "created_time": 1419876624.0, 
      "link": "https://www.facebook.com/579520812191761/posts/585481794928996", 
      "message": "ตว แซร   ไปนา", 
      "picture": "https://scontent.xx.fbcdn.net/hphotos-xpf1/v/t1.0-9/s720x720/10892015_585481751595667_5410737989472964871_n.jpg?oh=63e34923c21bf55e05e9e0c51f19d058&oe=561524E9"
    }, 
    {
      "code": "585224518288057", 
      "created_time": 1419833460.0, 
      "link": "https://www.facebook.com/579520812191761/posts/585224518288057", 
      "message": "โม เด้อ โฮบ บาย", 
      "picture": "https://scontent.xx.fbcdn.net/hphotos-xaf1/v/t1.0-9/s720x720/10885138_584396205037555_2580761098028177049_n.jpg?oh=165177092ca790c734e9871f106bdd08&oe=564671FE"
    }, 
    {
      "code": "585189894958186", 
      "created_time": 1419827833.0, 
      "link": "https://www.facebook.com/579520812191761/posts/585189894958186", 
      "message": "เทอ อย นว    ทำ อะไรกันอยู่ ครับ ", 
      "picture": "https://fbcdn-sphotos-c-a.akamaihd.net/hphotos-ak-xpa1/v/t1.0-9/s720x720/10888870_585189698291539_2013257598486416532_n.jpg?oh=56ae314d9695244a8a66bd241e158b44&oe=5646E523&__gda__=1443817157_72bb3a967e51bb82c4f79f4eabd993ce"
    }, 
    {
      "code": "585185598291949", 
      "created_time": 1419827094.0, 
      "link": "https://www.facebook.com/579520812191761/posts/585185598291949", 
      "message": "เทอ อย นว    ทำ อะไรกันอยู่ ครับ "
    }, 
    {
      "code": "584710981672744", 
      "created_time": 1419772321.0, 
      "link": "https://www.facebook.com/579520812191761/posts/584710981672744", 
      "message": "ตว แซร เด้อ   ไปนา เด้อ", 
      "picture": "https://scontent.xx.fbcdn.net/hphotos-xfp1/v/t1.0-9/s720x720/10478183_584396431704199_1892795851671516514_n.jpg?oh=b5a41a624e56918c26e53631efa7b3b7&oe=5657331C"
    }, 
    {
      "code": "583851758425333", 
      "created_time": 1419703800.0, 
      "link": "https://www.facebook.com/579520812191761/posts/583851758425333", 
      "message": "สรวล คลัง น่ะ อานายเอยยยย   สนุกสนาจริงๆ ไอ้น้องเอยยยย", 
      "picture": "https://fbcdn-sphotos-f-a.akamaihd.net/hphotos-ak-xaf1/v/t1.0-9/s720x720/10888414_583498761793966_1361599169676949948_n.jpg?oh=2c41b5d3407e51c4ccff6446c16ee9bc&oe=56530B22&__gda__=1447576261_a76e7f22208f90dd4a36ba2289ecc6ed"
    }, 
    {
      "code": "583180171825825", 
      "created_time": 1419621961.0, 
      "link": "https://www.facebook.com/579520812191761/posts/583180171825825", 
      "message": "ปั๊วะ   ท้อง", 
      "picture": "https://fbcdn-sphotos-b-a.akamaihd.net/hphotos-ak-xtp1/v/t1.0-9/s720x720/1619432_582733351870507_1381032141745601864_n.jpg?oh=84e7f98d4455ca3f5423263d1338c686&oe=561BE303&__gda__=1447372010_22bd2cb396ef82a237e2c200217be8a0"
    }, 
    {
      "code": "583149908495518", 
      "created_time": 1419618000.0, 
      "link": "https://www.facebook.com/579520812191761/posts/583149908495518", 
      "message": "ล๊อบ ปะเตี๊ยะ เฮย   กลับบ้านกันยัง  ", 
      "picture": "https://fbcdn-sphotos-e-a.akamaihd.net/hphotos-ak-xfa1/v/t1.0-9/s720x720/1601560_582731235204052_6323630603765564418_n.jpg?oh=bf99bd7121ca0fa8f9f9adef78f489db&oe=56481102&__gda__=1448272236_0ef8aaf19e96eae6cf37ce657c51f561"
    }, 
    {
      "code": "582488385228337", 
      "created_time": 1419567600.0, 
      "link": "https://www.facebook.com/579520812191761/posts/582488385228337", 
      "message": "โม เริบ เลข แขมร   มานับเลข แบบเขมรกันครับ", 
      "picture": "https://scontent.xx.fbcdn.net/hphotos-xpf1/v/t1.0-9/s720x720/62631_582488171895025_6230782542045082145_n.jpg?oh=39ba8caeb79fe68d21c88bcab72f8805&oe=56455737"
    }, 
    {
      "code": "582497248560784", 
      "created_time": 1419564785.0, 
      "link": "https://www.facebook.com/579520812191761/posts/582497248560784", 
      "message": "ผมเคยไปเที่ยว เสียมเรียบครั้งหนึ่ง แรกๆ ผมก็ไม่กล้าคุยภาษาเขมรกับคนเขมรน่ะครับ ใช้ภาษาอังกฤษ แต่หลังๆ เค้าถามว่า มาจากไหน เค้าคิดว่าเป็นคนจีน ผมเลยจัดภาษาเขมรใส่เลย ทีนี้ล่ะ อึ้งกันไปหมดเลย เค้างงกันใหญ่ ว่าผมพูดได้งัย ฮ่าๆๆ  ก็เลยอธิบายให้เค้าฟัง ว่าบ้านเราก็มีจังหวัดที่ใช้ภาษาเดียวกับเค้าอยู่ และผมก็พูดได้ พ่อแม่ผมพูดได้    จริงๆแล้ว คนที่กัมพูชาพูดคล้ายๆ กันกับคนเขมรบ้านเราครับ เป็นการท่องเที่ยวที่สนุกเลยทีเดียวครับ    เราจะรุ้สึกภูมิใจในสิ่งที่เราเป็นมากขึ้นไปอีก เป็นสิ่งที่ดีครับที่เราพูดได้ ใครมีโอกาสไปเที่ยวกัมพูชา ลองดูน่ะครับ ใช้ภาษาถิ่นเราได้เลยครับ รับรองคุยกันรู้เรื่อง และสนุกทีเดียวครับ"
    }, 
    {
      "code": "582486681895174", 
      "created_time": 1419562800.0, 
      "link": "https://www.facebook.com/579520812191761/posts/582486681895174", 
      "message": "เจิง   ขา   ชือ เจิง  หมายถึง ปวดขา", 
      "picture": "https://scontent.xx.fbcdn.net/hphotos-xpf1/v/t1.0-9/s720x720/10888917_582329371910905_8841437677810082146_n.jpg?oh=93c7488adaa95c0478bb2a1eeab3bb28&oe=5610485D"
    }, 
    {
      "code": "582448541898988", 
      "created_time": 1419555602.0, 
      "link": "https://www.facebook.com/579520812191761/posts/582448541898988", 
      "message": "รู้มือมั๊ย   เด๊ย ได อ๊ะ อิอิ", 
      "picture": "https://scontent.xx.fbcdn.net/hphotos-xta1/v/l/t1.0-9/s720x720/10888486_582328688577640_9162278014679600197_n.jpg?oh=74276e135e502da1cd4786f73ee732d8&oe=56457368"
    }, 
    {
      "code": "582434288567080", 
      "created_time": 1419552001.0, 
      "link": "https://www.facebook.com/579520812191761/posts/582434288567080", 
      "message": "กอ หรือ คอ ออกเสียงคล้ายกันมาก", 
      "picture": "https://scontent.xx.fbcdn.net/hphotos-xfp1/v/t1.0-9/s720x720/10881554_582328451910997_3621233042434334515_n.jpg?oh=ba49a828cff0497e32cd57cfe23de8cd&oe=561676AA"
    }, 
    {
      "code": "582416768568832", 
      "created_time": 1419548401.0, 
      "link": "https://www.facebook.com/579520812191761/posts/582416768568832", 
      "message": "เมื๊อด แปลว่า ปากน่ะครับบบ", 
      "picture": "https://fbcdn-sphotos-f-a.akamaihd.net/hphotos-ak-xap1/v/t1.0-9/s720x720/1559690_582328175244358_6833830748853775651_n.jpg?oh=7fc4f9ccee77874c3c16dcb8e71c748e&oe=564D4F1C&__gda__=1448598837_d8b064975cf450625131e281dc2f0b5c"
    }, 
    {
      "code": "582397225237453", 
      "created_time": 1419544076.0, 
      "link": "https://www.facebook.com/579520812191761/posts/582397225237453", 
      "message": "ลูกเพจ นี้ น่ารักกันทุกคนเลยครับ พื้นที่ไหน ใช้คำต่างๆ กัน ก็แจ้งเข้ามาได้เลยน่ะครับ เพราะพื้นที่ต่างกัน แม้ใช้ภาษาเดียวกัน แต่ก็มีออกเสียงต่างกันอยุ่บ้าง บางคำแอดมิน อาจจะออกเสียงผิดแปลกไป หรือเขียนผิดบ้างน่ะครับ   "
    }, 
    {
      "code": "582395081904334", 
      "created_time": 1419543496.0, 
      "link": "https://www.facebook.com/579520812191761/posts/582395081904334", 
      "message": "แก้ไข น่ะครับ คำว่า ตา บางพื้นที่ ใช้ พเนก ส่วนบ้าน แอดมิน ใช้ทั้ง พเนก   พะเมด   พเมก  ครับ", 
      "picture": "https://scontent.xx.fbcdn.net/hphotos-xpt1/v/t1.0-9/s720x720/10423846_582395035237672_3872761688219583751_n.jpg?oh=4e0121c23febb8c4ed8ad6e3694a3a4e&oe=5646B3DC"
    }, 
    {
      "code": "582383718572137", 
      "created_time": 1419541201.0, 
      "link": "https://www.facebook.com/579520812191761/posts/582383718572137", 
      "message": "ตา เค้าเรียก พะเมด น่ะ หรือ พะเมก", 
      "picture": "https://fbcdn-sphotos-b-a.akamaihd.net/hphotos-ak-xpt1/v/t1.0-9/s720x720/10888741_582009858609523_8473710754525695012_n.jpg?oh=1e7a62af9c3dac12a14593b047af64d1&oe=561407B1&__gda__=1443818391_6f35c350746c1a9d8398a856dc1f82a6"
    }, 
    {
      "code": "582318408578668", 
      "created_time": 1419530401.0, 
      "link": "https://www.facebook.com/579520812191761/posts/582318408578668", 
      "message": "อยู่ บ้านไหน กันบ้าง   นว เสราะ นา", 
      "picture": "https://fbcdn-sphotos-a-a.akamaihd.net/hphotos-ak-xpa1/v/t1.0-9/s720x720/10868225_582008885276287_5471559753459935804_n.jpg?oh=cc4b41611489e4b8bc97716c8c9ae7de&oe=5617C3EC&__gda__=1447464202_ee5c6f244edc527c9ae24e5697555292"
    }, 
    {
      "code": "582143038596205", 
      "created_time": 1419501601.0, 
      "link": "https://www.facebook.com/579520812191761/posts/582143038596205", 
      "message": "จะ เมาะ เรียก คล้ายๆ ภาษาไทยเลย จะเมาะ   จมูก", 
      "picture": "https://scontent.xx.fbcdn.net/hphotos-xtp1/v/t1.0-9/s720x720/10402823_582010071942835_1893739533716833756_n.jpg?oh=e5ce6c3ab7c4da95e57c07304dc20ebd&oe=565839A9"
    }, 
    {
      "code": "582001785276997", 
      "created_time": 1419492629.0, 
      "link": "https://www.facebook.com/579520812191761/posts/582001785276997", 
      "message": "หนาวมั๊ย      ระเงีย ระอย ", 
      "picture": "https://scontent.xx.fbcdn.net/hphotos-xpa1/v/t1.0-9/s720x720/1549518_582001581943684_8689837112798186474_n.jpg?oh=30a06d3ed8ab7567d7f49820c0bcc3f7&oe=5645F310"
    }
  ], 
  "page_id": "579520812191761"
}