{
  "content": [
    {
      "code": "515695881795070", 
      "created_time": 1357270219.0, 
      "link": "https://www.facebook.com/506878206010171/posts/515695881795070", 
      "message": "다시 만나기 바랍니다 ", 
      "picture": "https://fbcdn-sphotos-b-a.akamaihd.net/hphotos-ak-xfa1/v/t1.0-9/s720x720/418038_515695861795072_275568330_n.jpg?oh=e140d3166e2f85b84f8b95d7e03b28a3&oe=5646059E&__gda__=1443767353_ea5cf33ab2665de1fdd99674cb954ecb"
    }, 
    {
      "code": "515694668461858", 
      "created_time": 1357269908.0, 
      "link": "https://www.facebook.com/506878206010171/posts/515694668461858", 
      "message": "ผู้หญิงไทยยิ้มสวยมั้ยคะ", 
      "picture": "https://fbcdn-sphotos-e-a.akamaihd.net/hphotos-ak-ash2/v/t1.0-9/p180x540/602835_515694655128526_14050102_n.jpg?oh=21b3d3511a510b8e136023bcebe276d4&oe=5618C0A4&__gda__=1444642947_154cf8bc839bd78b5aaaee367d4db7fe"
    }, 
    {
      "code": "515571598474165", 
      "created_time": 1357241667.0, 
      "link": "https://www.facebook.com/506878206010171/posts/515571598474165", 
      "message": "สบายดีไหม        เอ๋ย      ประเทศพม่า ", 
      "picture": "https://fbcdn-sphotos-d-a.akamaihd.net/hphotos-ak-frc3/v/t1.0-9/s720x720/537236_515571561807502_193320281_n.jpg?oh=152bfb4e35eb679b427cba39d0557ae5&oe=56587279&__gda__=1448368338_128b0638891240567e51ebac8f15d685"
    }, 
    {
      "code": "515566698474655", 
      "created_time": 1357240481.0, 
      "link": "https://www.facebook.com/506878206010171/posts/515566698474655", 
      "message": "วันนี้แอดมิน ตื่นสายหน่อยๆ       เลยลงสายนิสนึง กิ้วๆ  ประเทศพม่า ", 
      "picture": "https://fbcdn-sphotos-g-a.akamaihd.net/hphotos-ak-xaf1/v/t1.0-9/p180x540/388182_515566668474658_1830476898_n.jpg?oh=90e98668f531b50db4ce344c5c3ed123&oe=565A70DE&__gda__=1444011001_0d5929b54679396a16d1d2689fb3b888"
    }, 
    {
      "code": "515337808497544", 
      "created_time": 1357202114.0, 
      "link": "https://www.facebook.com/506878206010171/posts/515337808497544", 
      "message": "ราตรีสวัสดิ์ Oyasuminasai โอะยะซุมินะไซ", 
      "picture": "https://scontent.xx.fbcdn.net/hphotos-xfa1/v/t1.0-9/p180x540/407917_515337778497547_1289483351_n.jpg?oh=66d46d47d97d9674fef19c64936ca89b&oe=5617C19B"
    }, 
    {
      "code": "515334888497836", 
      "created_time": 1357201728.0, 
      "link": "https://www.facebook.com/506878206010171/posts/515334888497836", 
      "message": "รู้ไว้ก็ดี            ภาษาญี่ปุ่น ค่ะ     อร่อย Oishii โออิชิ   โรงแรม Hoteru โฮเทรุ   รถแท็กซี่ Takushi ทาคุชี   โทรศัพท์ Denwa เด็งวา   โรงพยาบาล Byooin เบียวอิน   เป็นไข้ ตัวร้อน Netsu นัทสึ   ช็อบปิ้ง  Shopping    ราคาเท่าไร   Ikura อิคุระ  เดสกา      เงินทอน Osueri โอสุริ      เงินสด Okane โอกาเนะ   ที่สนามบิน  At the airport    หนังสือเดินทาง Passport  พาสปอร์ต   กระเป๋าเดินทาง Nimothu นิมอทสุ      ตั๋วเครื่องบิน Hikoki No Kippu ฮิโคคิ โนะ คิปปุ                                                         "
    }, 
    {
      "code": "514829895215002", 
      "created_time": 1357113896.0, 
      "link": "https://www.facebook.com/506878206010171/posts/514829895215002", 
      "message": "0               0", 
      "picture": "https://fbcdn-sphotos-g-a.akamaihd.net/hphotos-ak-frc3/v/t1.0-9/s720x720/543887_514829861881672_422690768_n.jpg?oh=0fdeddb50b384ee96428012111dc0df5&oe=5658BB95&__gda__=1448525630_0ac7a4661cabff7abdce3e889ba7ffd8"
    }, 
    {
      "code": "513857658645559", 
      "created_time": 1356947092.0, 
      "link": "https://www.facebook.com/506878206010171/posts/513857658645559", 
      "message": "ปีใหม่แล้ว ขอให้ทุกคนมีความสุขกันนะง้าบ", 
      "picture": "https://fbcdn-sphotos-d-a.akamaihd.net/hphotos-ak-xpa1/v/t1.0-9/73690_513857631978895_1642751037_n.jpg?oh=25cb86e2fcd960bb8c973c9f24aa4e91&oe=564D9E6B&__gda__=1444277127_0b853ec870a55e7e61a4a66e84fd85a4"
    }, 
    {
      "code": "511816325516359", 
      "created_time": 1356596788.0, 
      "link": "https://www.facebook.com/506878206010171/posts/511816325516359", 
      "message": "ฝัน ดี นะ ค่ะ        ", 
      "picture": "https://scontent.xx.fbcdn.net/hphotos-xaf1/v/t1.0-9/318538_511816308849694_200822048_n.jpg?oh=3b2707e58981800446be3ea5634f5c3f&oe=56553193"
    }, 
    {
      "code": "511815085516483", 
      "created_time": 1356596614.0, 
      "link": "https://www.facebook.com/506878206010171/posts/511815085516483", 
      "message": "ครายร้อนกันบ้าง           พูดปั้ยเลยยยยว่า         ", 
      "picture": "https://scontent.xx.fbcdn.net/hphotos-xfa1/v/t1.0-9/407822_511815072183151_834181193_n.jpg?oh=46b3ea5616bfdf2dc5c1f0272a42ed14&oe=56520D49"
    }, 
    {
      "code": "511652242199434", 
      "created_time": 1356562350.0, 
      "link": "https://www.facebook.com/506878206010171/posts/511652242199434", 
      "message": "วันนี้ แอดมิน มีภาษา บรูไน มานำเสนอค่ะ", 
      "picture": "https://fbcdn-sphotos-c-a.akamaihd.net/hphotos-ak-xfa1/v/t1.0-9/16828_511652232199435_1218247715_n.jpg?oh=dfb2d9171966cb11063570133ca6ae20&oe=564A5066&__gda__=1447987672_03f4066bf561c7db8f0a8e57062937cb"
    }, 
    {
      "code": "468644243172167", 
      "created_time": 1356508535.0, 
      "link": "https://www.facebook.com/506878206010171/posts/468644243172167", 
      "message": "คุณชื่ออะไร           你叫什么名字       "
    }, 
    {
      "code": "510840505613941", 
      "created_time": 1356421727.0, 
      "link": "https://www.facebook.com/506878206010171/posts/510840505613941", 
      "message": "kekasih  ", 
      "picture": "https://fbcdn-sphotos-f-a.akamaihd.net/hphotos-ak-xpa1/v/t1.0-9/p180x540/154402_510840485613943_1610247750_n.jpg?oh=3feaf6fc6c3ba1b6777af18aacb8d350&oe=560E0597&__gda__=1447752469_1eb4009cf59c5d144f635bc5b085e927"
    }, 
    {
      "code": "510839955613996", 
      "created_time": 1356421632.0, 
      "link": "https://www.facebook.com/506878206010171/posts/510839955613996", 
      "message": "sampia masa tidur    ", 
      "picture": "https://scontent.xx.fbcdn.net/hphotos-xfa1/v/t1.0-9/p180x540/524899_510839915614000_691410306_n.jpg?oh=c1842c83e6473b90a077cf946fa67f8e&oe=564F7C98"
    }, 
    {
      "code": "508600849171240", 
      "created_time": 1356049562.0, 
      "link": "https://www.facebook.com/506878206010171/posts/508600849171240", 
      "message": "อาชีพต่าง ภาษาอังกฤษ             barber  บ๊าเบอะ  ช่างตัดผม  cook   คุค  พ่อครัว  dancer  ด๊านเซอะ  นักเต้น  dentist  เด็นทิสท  หมอฟัน  doctor  ด็อคเทอะ  หมอ  driver  ไดร๊เฝอะ  คนขับรถ  farmer  ฟ๊าเมอะ  ชาวนา  lawyer  ล๊อเยอะ  ทนาย  nurse  เนิส  พยาบาล  policeman  พะลิ๊สเมิน  ตำรวจ  postman  โพ๊สทเมิน  บุรุษไปรษณีย์  singer  ซิ๊งเงอะ  นักร้อง  soldier  โซ๊ลเจอะ  ทหาร  student   สติ๊วเดินท  นักเรียน  teacher  ที๊ชเชอะ  ครู                                                       "
    }, 
    {
      "code": "318028208307621", 
      "created_time": 1356049207.0, 
      "link": "https://www.facebook.com/506878206010171/posts/318028208307621", 
      "message": "มาดูกันค่ะ          ", 
      "picture": "https://fbexternal-a.akamaihd.net/safe_image.php?d=AQAA9QhXePTbN-RA&url=http%3A%2F%2Fwww.crc.ac.th%2Fknowledge%2Fenglish%2Fimages%2Fampol.gif"
    }, 
    {
      "code": "476179645779401", 
      "created_time": 1356049047.0, 
      "link": "https://www.facebook.com/506878206010171/posts/476179645779401", 
      "message": "ฝึกพูดภาษาอังกฤษ การทักทาย และการถามสารทุกข์สุขดิบ", 
      "picture": "https://fbexternal-a.akamaihd.net/safe_image.php?d=AQDULMV9jgQ1iIkH&w=180&h=180&url=http%3A%2F%2Fi2.ytimg.com%2Fvi%2FAmLWxpavnrI%2Fmqdefault.jpg&cfs=1&sx=75&sy=0&sw=180&sh=180"
    }, 
    {
      "code": "508597729171552", 
      "created_time": 1356048938.0, 
      "link": "https://www.facebook.com/506878206010171/posts/508597729171552", 
      "message": "   ", 
      "picture": "https://scontent.xx.fbcdn.net/hphotos-xaf1/v/t1.0-9/s720x720/15369_508597712504887_272710871_n.jpg?oh=1e0cc9f906068c5b2b0fa9d5efb07bd7&oe=565A516A"
    }, 
    {
      "code": "508597529171572", 
      "created_time": 1356048863.0, 
      "link": "https://www.facebook.com/506878206010171/posts/508597529171572", 
      "message": "ตามนั้น", 
      "picture": "https://fbcdn-sphotos-h-a.akamaihd.net/hphotos-ak-xpa1/v/t1.0-9/s720x720/61015_508597515838240_554022180_n.jpg?oh=9e6c42efea729826d7ed613dcdc65113&oe=564BBE38&__gda__=1447284449_38f9f11d5dabf0c4b797eb4c0c4264c9"
    }, 
    {
      "code": "508597242504934", 
      "created_time": 1356048780.0, 
      "link": "https://www.facebook.com/506878206010171/posts/508597242504934", 
      "message": "แน่วแน่      ", 
      "picture": "https://fbcdn-sphotos-a-a.akamaihd.net/hphotos-ak-prn2/v/t1.0-9/s720x720/224868_508597225838269_1246180870_n.jpg?oh=b991d5fc982d279232ee0056a45f942d&oe=5611AAE5&__gda__=1448252190_b766fd5c314daa4034679f6e37b5d39a"
    }, 
    {
      "code": "508596695838322", 
      "created_time": 1356048669.0, 
      "link": "https://www.facebook.com/506878206010171/posts/508596695838322", 
      "message": "จัดไป", 
      "picture": "https://fbcdn-sphotos-c-a.akamaihd.net/hphotos-ak-xaf1/v/t1.0-9/s720x720/154447_508596669171658_307754447_n.jpg?oh=4b9021d9d3e9376f5a75647a73f45c50&oe=5610A72B&__gda__=1448726132_f7ae334fae6e3d0bd2b7c705eb75dd3a"
    }, 
    {
      "code": "508596379171687", 
      "created_time": 1356048594.0, 
      "link": "https://www.facebook.com/506878206010171/posts/508596379171687", 
      "message": "ตามนั้น", 
      "picture": "https://scontent.xx.fbcdn.net/hphotos-xfa1/v/t1.0-9/s720x720/521408_508596365838355_1388893271_n.jpg?oh=1e528f2b91fedce1f998b5967631e652&oe=56188254"
    }
  ], 
  "page_id": "506878206010171"
}